<?xml version="1.0"?>
<VTKFile type="PolyData" version="0.1" byte_order="LittleEndian">
  <PolyData>
    <Piece NumberOfPoints="     19" NumberOfVerts="  0" NumberOfLines="     18"
           NumberOfStrips="  0" NumberOfPolys="      0">
      <Points>
        <DataArray type="Float32" NumberOfComponents="3" format="ascii">
                      -5.14994                      -1.24891                      89.16408
                      -5.27713                      -2.37542                      88.40072
                      -5.56051                      -4.57368                      86.79783
                      -5.85749                      -6.74542                      85.15809
                      -6.23657                      -9.44329                      83.08518
                      -6.62795                     -12.76107                      80.70658
                      -6.98519                     -16.15087                      78.42870
                      -7.34344                     -19.53987                      76.14970
                      -7.70014                     -22.92939                      73.87103
                      -8.05625                     -26.31854                      71.59157
                      -8.41342                     -29.70550                      69.30891
                      -8.77092                     -33.09142                      67.02466
                      -9.12956                     -36.47657                      64.73935
                      -9.49024                     -39.86111                      62.45342
                      -9.85147                     -43.24519                      60.16685
                     -10.15303                     -46.06496                      58.26095
                     -10.39431                     -48.32500                      56.74248
                     -10.63310                     -50.61612                      55.26885
                     -10.75622                     -51.73773                      54.49785
        </DataArray>
      </Points>
      <PointData>
        <DataArray type="Float32" Name="TranslationalVelocity" NumberOfComponents="3" format="ascii">
                      -0.01138                      -0.00442                      -0.01420
                      -0.01231                       0.00403                      -0.02651
                      -0.01407                       0.02177                      -0.05054
                      -0.01571                       0.03992                      -0.07429
                      -0.01753                       0.06285                      -0.10380
                      -0.01944                       0.08909                      -0.14012
                      -0.02092                       0.11421                      -0.17728
                      -0.02181                       0.13933                      -0.21452
                      -0.02207                       0.16445                      -0.25186
                      -0.02171                       0.18959                      -0.28930
                      -0.02075                       0.21477                      -0.32682
                      -0.01929                       0.23998                      -0.36442
                      -0.01748                       0.26521                      -0.40209
                      -0.01551                       0.29047                      -0.43979
                      -0.01366                       0.31573                      -0.47748
                      -0.01246                       0.33680                      -0.50884
                      -0.01190                       0.35359                      -0.53392
                      -0.01184                       0.36988                      -0.55926
                      -0.01203                       0.37841                      -0.57163
        </DataArray>
        <DataArray type="Float32" Name="RotationalVelocity" NumberOfComponents="3" format="ascii">
                       0.01092                      -0.00013                      -0.00093
                       0.01092                      -0.00013                      -0.00092
                       0.01091                      -0.00015                      -0.00090
                       0.01091                      -0.00017                      -0.00086
                       0.01092                      -0.00021                      -0.00080
                       0.01093                      -0.00026                      -0.00070
                       0.01094                      -0.00032                      -0.00058
                       0.01096                      -0.00039                      -0.00046
                       0.01098                      -0.00046                      -0.00032
                       0.01101                      -0.00054                      -0.00019
                       0.01103                      -0.00060                      -0.00007
                       0.01104                      -0.00066                       0.00002
                       0.01106                      -0.00069                       0.00008
                       0.01106                      -0.00069                       0.00009
                       0.01106                      -0.00065                       0.00006
                       0.01105                      -0.00057                      -0.00002
                       0.01104                      -0.00046                      -0.00011
                       0.01103                      -0.00032                      -0.00024
                       0.01102                      -0.00024                      -0.00031
        </DataArray>
        <DataArray type="Float32" Name="TranslationalAcceleration" NumberOfComponents="3" format="ascii">
                       0.00655                       0.01047                      -0.00005
                       0.00190                       0.00338                      -0.00009
                       0.00564                       0.00848                      -0.00056
                       0.00938                       0.01183                      -0.00141
                       0.01491                       0.01450                      -0.00316
                       0.02473                       0.01656                      -0.00665
                       0.04112                       0.01845                      -0.01216
                       0.06811                       0.02089                      -0.02034
                       0.11008                       0.02431                      -0.03188
                       0.17176                       0.02882                      -0.04751
                       0.25797                       0.03435                      -0.06797
                       0.37339                       0.04069                      -0.09392
                       0.52238                       0.04753                      -0.12593
                       0.70873                       0.05450                      -0.16446
                       0.93545                       0.06136                      -0.20966
                       1.15747                       0.06684                      -0.25246
                       1.35585                       0.07100                      -0.28980
                       1.57215                       0.07473                      -0.32988
                       1.68794                       0.07675                      -0.35076
        </DataArray>
        <DataArray type="Float32" Name="OrientationX" NumberOfComponents="3" format="ascii">
                       0.94993                       0.09449                      -0.29782
                       0.94994                       0.09453                      -0.29779
                       0.94995                       0.09466                      -0.29770
                       0.94997                       0.09486                      -0.29758
                       0.95000                       0.09516                      -0.29739
                       0.95907                       0.07773                      -0.27227
                       0.96502                       0.06523                      -0.25393
                       0.96980                       0.05431                      -0.23780
                       0.97441                       0.04270                      -0.22069
                       0.97869                       0.03067                      -0.20303
                       0.98231                       0.01924                      -0.18626
                       0.98548                       0.00785                      -0.16961
                       0.98799                      -0.00252                      -0.15448
                       0.98967                      -0.01039                      -0.14298
                       0.99112                      -0.01820                      -0.13169
                       0.99219                      -0.02477                      -0.12225
                       0.99289                      -0.02968                      -0.11524
                       0.99324                      -0.03233                      -0.11151
                       0.99323                      -0.03234                      -0.11154
        </DataArray>
        <DataArray type="Float32" Name="OrientationY" NumberOfComponents="3" format="ascii">
                       0.29850                      -0.55602                       0.77572
                       0.29849                      -0.55615                       0.77563
                       0.29846                      -0.55648                       0.77541
                       0.29842                      -0.55689                       0.77513
                       0.29836                      -0.55747                       0.77473
                       0.26784                      -0.56098                       0.78330
                       0.24565                      -0.56337                       0.78884
                       0.22617                      -0.56527                       0.79329
                       0.20551                      -0.56693                       0.79772
                       0.18417                      -0.56827                       0.80196
                       0.16392                      -0.56925                       0.80566
                       0.14378                      -0.56990                       0.80903
                       0.12548                      -0.57026                       0.81182
                       0.11157                      -0.57042                       0.81374
                       0.09788                      -0.57042                       0.81550
                       0.08641                      -0.57030                       0.81688
                       0.07788                      -0.57015                       0.81784
                       0.07332                      -0.57006                       0.81832
                       0.07333                      -0.57008                       0.81831
        </DataArray>
        <DataArray type="Float32" Name="OrientationZ" NumberOfComponents="3" format="ascii">
                      -0.09230                      -0.82578                      -0.55639
                      -0.09230                      -0.82569                      -0.55652
                      -0.09226                      -0.82545                      -0.55688
                      -0.09219                      -0.82515                      -0.55734
                      -0.09206                      -0.82472                      -0.55799
                      -0.09186                      -0.82417                      -0.55884
                      -0.09161                      -0.82363                      -0.55969
                      -0.09133                      -0.82312                      -0.56048
                      -0.09105                      -0.82266                      -0.56119
                      -0.09078                      -0.82227                      -0.56181
                      -0.09053                      -0.82194                      -0.56233
                      -0.09031                      -0.82167                      -0.56276
                      -0.09014                      -0.82146                      -0.56310
                      -0.09002                      -0.82129                      -0.56337
                      -0.08996                      -0.82115                      -0.56358
                      -0.08995                      -0.82106                      -0.56371
                      -0.08997                      -0.82101                      -0.56379
                      -0.09002                      -0.82096                      -0.56384
                      -0.09005                      -0.82095                      -0.56385
        </DataArray>
        <DataArray type="Float32" Name="Force" NumberOfComponents="3" format="ascii">
                       3.63025                     -28.44651                      41.61745
                      12.43795                     -31.59325                      44.82687
                      14.71432                     -32.69610                      46.08735
                       8.91023                     -23.43504                      33.30565
                      -5.92030                      -2.08386                       4.07073
                     -31.73551                      -2.61775                       9.11161
                     -28.77319                      -2.06704                       7.78945
                     -14.22607                      -0.78978                       3.49778
                      -2.58270                      -0.40151                       1.01640
                      -1.06875                      -0.35508                       0.70027
                       0.11916                      -0.54482                       0.78904
                      -1.68298                      -0.55724                       1.09815
                       1.03092                      -0.62456                       0.76067
                       1.92728                      -0.63520                       0.63270
                       4.60849                      -0.80692                       0.45732
                       6.28221                      -0.91173                       0.34436
                       8.77077                      -1.02988                       0.12000
                       9.69529                      -0.75388                      -0.43860
                      17.43387                      -0.73764                      -1.70641
        </DataArray>
        <DataArray type="Float32" Name="Moment" NumberOfComponents="3" format="ascii">
                       0.00000                       0.00000                       0.00000
                       0.00000                       0.00000                       0.00000
                       0.00000                       0.00000                       0.00000
                       0.00000                       0.00000                       0.00000
                       3.23760                      29.08346                      19.59682
                       5.04393                      45.44857                      30.62519
                       4.51426                      40.81895                      27.50694
                       4.45424                      40.42701                      27.24428
                       4.95633                      45.15339                      30.43108
                       4.26781                      39.02075                      26.29933
                       3.53565                      32.43243                      21.85992
                       2.94196                      27.06233                      18.24112
                       1.76181                      16.24260                      10.94852
                       1.48515                      13.71368                       9.24408
                       1.19902                      11.08132                       7.46976
                       1.01417                       9.37495                       6.31953
                       0.84265                       7.78795                       5.24974
                       0.44405                       4.10201                       2.76509
                       0.51322                       4.73935                       3.19469
        </DataArray>
      </PointData>
      <Lines>
        <DataArray type="Int32" Name="connectivity" format="ascii">
      0      1
      1      2
      2      3
      3      4
      4      5
      5      6
      6      7
      7      8
      8      9
      9     10
     10     11
     11     12
     12     13
     13     14
     14     15
     15     16
     16     17
     17     18
        </DataArray>
        <DataArray type="Int32" Name="offsets" format="ascii">
      2
      4
      6
      8
     10
     12
     14
     16
     18
     20
     22
     24
     26
     28
     30
     32
     34
     36
        </DataArray>
      </Lines>
    </Piece>
  </PolyData>
</VTKFile>
