<?xml version="1.0"?>
<VTKFile type="PolyData" version="0.1" byte_order="LittleEndian">
  <PolyData>
    <Piece NumberOfPoints="     19" NumberOfVerts="  0" NumberOfLines="     18"
           NumberOfStrips="  0" NumberOfPolys="      0">
      <Points>
        <DataArray type="Float32" NumberOfComponents="3" format="ascii">
                      -5.16496                      -1.12385                      89.00453
                      -5.30475                      -2.13553                      88.09631
                      -5.61244                      -4.09410                      86.21182
                      -5.93314                      -6.02135                      84.29444
                      -6.34122                      -8.41071                      81.87704
                      -6.76762                     -11.37315                      79.07324
                      -7.15962                     -14.42110                      76.35957
                      -7.55106                     -17.46826                      73.64484
                      -7.93896                     -20.51611                      70.93024
                      -8.32388                     -23.56359                      68.21468
                      -8.70701                     -26.60850                      65.49592
                      -9.08730                     -29.65220                      62.77532
                      -9.46524                     -32.69498                      60.05331
                      -9.84155                     -35.73708                      57.33026
                     -10.21463                     -38.77865                      54.60616
                     -10.52316                     -41.31298                      52.33535
                     -10.76836                     -43.34552                      50.52415
                     -11.01001                     -45.41500                      48.75307
                     -11.13377                     -46.42140                      47.83686
        </DataArray>
      </Points>
      <PointData>
        <DataArray type="Float32" Name="TranslationalVelocity" NumberOfComponents="3" format="ascii">
                      -0.00643                       0.00595                      -0.02047
                      -0.00789                       0.02240                      -0.03857
                      -0.01060                       0.05656                      -0.07363
                      -0.01311                       0.09132                      -0.10815
                      -0.01595                       0.13513                      -0.15099
                      -0.01903                       0.18586                      -0.20415
                      -0.02148                       0.23494                      -0.25895
                      -0.02284                       0.28404                      -0.31390
                      -0.02274                       0.33316                      -0.36908
                      -0.02080                       0.38231                      -0.42455
                      -0.01660                       0.43156                      -0.48032
                      -0.00976                       0.48088                      -0.53646
                       0.00006                       0.53025                      -0.59303
                       0.01317                       0.57968                      -0.65007
                       0.02978                       0.62914                      -0.70758
                       0.04644                       0.67038                      -0.75587
                       0.06151                       0.70326                      -0.79481
                       0.07803                       0.73540                      -0.83461
                       0.08694                       0.75201                      -0.85405
        </DataArray>
        <DataArray type="Float32" Name="RotationalVelocity" NumberOfComponents="3" format="ascii">
                       0.01788                      -0.00011                      -0.00154
                       0.01788                      -0.00012                      -0.00153
                       0.01788                      -0.00014                      -0.00150
                       0.01788                      -0.00018                      -0.00146
                       0.01789                      -0.00025                      -0.00139
                       0.01791                      -0.00037                      -0.00127
                       0.01793                      -0.00052                      -0.00111
                       0.01797                      -0.00073                      -0.00090
                       0.01802                      -0.00101                      -0.00063
                       0.01808                      -0.00136                      -0.00029
                       0.01815                      -0.00179                       0.00010
                       0.01822                      -0.00231                       0.00056
                       0.01830                      -0.00291                       0.00107
                       0.01839                      -0.00356                       0.00162
                       0.01846                      -0.00424                       0.00217
                       0.01851                      -0.00481                       0.00261
                       0.01854                      -0.00523                       0.00292
                       0.01856                      -0.00560                       0.00318
                       0.01857                      -0.00575                       0.00329
        </DataArray>
        <DataArray type="Float32" Name="TranslationalAcceleration" NumberOfComponents="3" format="ascii">
                       0.02371                       0.01362                       0.00241
                       0.00597                       0.00545                      -0.00000
                       0.01114                       0.01409                       0.00017
                       0.00724                       0.02025                       0.00094
                      -0.01034                       0.02553                       0.00327
                      -0.04942                       0.02891                       0.00813
                      -0.10739                       0.03017                       0.01596
                      -0.18377                       0.03012                       0.02761
                      -0.27802                       0.02900                       0.04340
                      -0.39015                       0.02682                       0.06354
                      -0.52091                       0.02348                       0.08816
                      -0.67197                       0.01883                       0.11724
                      -0.84624                       0.01289                       0.15079
                      -1.04804                       0.00592                       0.18879
                      -1.28339                      -0.00150                       0.23119
                      -1.51165                      -0.00725                       0.27004
                      -1.71838                      -0.01084                       0.30336
                      -1.95108                      -0.01256                       0.33903
                      -2.07771                      -0.01271                       0.35753
        </DataArray>
        <DataArray type="Float32" Name="OrientationX" NumberOfComponents="3" format="ascii">
                       0.95123                       0.12262                      -0.28308
                       0.95123                       0.12267                      -0.28303
                       0.95125                       0.12283                      -0.28289
                       0.95128                       0.12307                      -0.28269
                       0.95133                       0.12345                      -0.28237
                       0.96020                       0.10288                      -0.25969
                       0.96601                       0.08820                      -0.24300
                       0.97068                       0.07548                      -0.22823
                       0.97519                       0.06202                      -0.21253
                       0.97937                       0.04816                      -0.19626
                       0.98290                       0.03510                      -0.18074
                       0.98600                       0.02217                      -0.16525
                       0.98846                       0.01052                      -0.15109
                       0.99013                       0.00187                      -0.14016
                       0.99157                      -0.00670                      -0.12942
                       0.99262                      -0.01396                      -0.12050
                       0.99330                      -0.01941                      -0.11389
                       0.99365                      -0.02226                      -0.11030
                       0.99366                      -0.02217                      -0.11024
        </DataArray>
        <DataArray type="Float32" Name="OrientationY" NumberOfComponents="3" format="ascii">
                       0.29130                      -0.65905                       0.69339
                       0.29129                      -0.65915                       0.69331
                       0.29126                      -0.65941                       0.69307
                       0.29122                      -0.65973                       0.69278
                       0.29117                      -0.66019                       0.69236
                       0.26063                      -0.66438                       0.70047
                       0.23844                      -0.66717                       0.70571
                       0.21897                      -0.66936                       0.70993
                       0.19833                      -0.67131                       0.71415
                       0.17701                      -0.67294                       0.71820
                       0.15679                      -0.67417                       0.72174
                       0.13668                      -0.67506                       0.72499
                       0.11841                      -0.67561                       0.72769
                       0.10455                      -0.67590                       0.72954
                       0.09088                      -0.67604                       0.73124
                       0.07943                      -0.67603                       0.73259
                       0.07090                      -0.67595                       0.73353
                       0.06634                      -0.67589                       0.73401
                       0.06635                      -0.67590                       0.73400
        </DataArray>
        <DataArray type="Float32" Name="OrientationZ" NumberOfComponents="3" format="ascii">
                      -0.10154                      -0.74204                      -0.66263
                      -0.10151                      -0.74194                      -0.66274
                      -0.10141                      -0.74168                      -0.66304
                      -0.10124                      -0.74135                      -0.66343
                      -0.10094                      -0.74088                      -0.66400
                      -0.10047                      -0.74028                      -0.66475
                      -0.09988                      -0.73967                      -0.66552
                      -0.09918                      -0.73909                      -0.66626
                      -0.09838                      -0.73857                      -0.66695
                      -0.09749                      -0.73812                      -0.66758
                      -0.09651                      -0.73774                      -0.66815
                      -0.09548                      -0.73743                      -0.66864
                      -0.09442                      -0.73718                      -0.66906
                      -0.09337                      -0.73699                      -0.66943
                      -0.09240                      -0.73684                      -0.66973
                      -0.09168                      -0.73675                      -0.66993
                      -0.09122                      -0.73669                      -0.67005
                      -0.09089                      -0.73666                      -0.67012
                      -0.09078                      -0.73666                      -0.67015
        </DataArray>
        <DataArray type="Float32" Name="Force" NumberOfComponents="3" format="ascii">
                       4.72162                     -49.00076                      54.14949
                      16.72396                     -55.34606                      59.41658
                      17.83989                     -55.56541                      59.49375
                      11.12523                     -39.85090                      42.92593
                     -21.10088                      -5.19399                       9.02631
                     -66.72821                      -6.86729                      17.78682
                     -62.22974                      -5.52147                      15.53664
                     -39.46521                      -2.66030                       8.86518
                     -14.69720                      -1.15034                       3.46082
                      -5.25546                      -0.79492                       1.65920
                       2.44746                      -0.56756                       0.28054
                       3.01882                      -0.55980                       0.19391
                       3.47900                      -0.63941                       0.22276
                       6.85453                      -0.65343                      -0.22837
                      12.15789                      -0.86488                      -0.71569
                      19.22320                      -1.12752                      -1.37884
                      24.63442                      -1.30469                      -1.90625
                      22.07172                      -1.07836                      -1.79800
                      22.17454                      -0.77002                      -2.15318
        </DataArray>
        <DataArray type="Float32" Name="Moment" NumberOfComponents="3" format="ascii">
                       0.00000                       0.00000                       0.00000
                       0.00000                       0.00000                       0.00000
                       0.00000                       0.00000                       0.00000
                       0.00000                       0.00000                       0.00000
                       4.52294                      33.28706                      29.72762
                       7.38494                      54.64035                      48.80101
                       6.55623                      48.82643                      43.61216
                       6.23026                      46.75437                      41.76555
                       7.36744                      55.77027                      49.82502
                       6.52689                      49.88677                      44.57424
                       5.80477                      44.83619                      40.06685
                       4.93383                      38.53731                      34.44283
                       2.90055                      22.91879                      20.48667
                       2.51664                      20.11488                      17.98285
                       2.19772                      17.75640                      15.87643
                       1.97372                      16.07345                      14.37303
                       1.65606                      13.55631                      12.12293
                       0.75665                       6.21685                       5.55975
                       0.77216                       6.35185                       5.68056
        </DataArray>
      </PointData>
      <Lines>
        <DataArray type="Int32" Name="connectivity" format="ascii">
      0      1
      1      2
      2      3
      3      4
      4      5
      5      6
      6      7
      7      8
      8      9
      9     10
     10     11
     11     12
     12     13
     13     14
     14     15
     15     16
     16     17
     17     18
        </DataArray>
        <DataArray type="Int32" Name="offsets" format="ascii">
      2
      4
      6
      8
     10
     12
     14
     16
     18
     20
     22
     24
     26
     28
     30
     32
     34
     36
        </DataArray>
      </Lines>
    </Piece>
  </PolyData>
</VTKFile>
