<?xml version="1.0"?>
<VTKFile type="PolyData" version="0.1" byte_order="LittleEndian">
  <PolyData>
    <Piece NumberOfPoints="     19" NumberOfVerts="  0" NumberOfLines="     18"
           NumberOfStrips="  0" NumberOfPolys="      0">
      <Points>
        <DataArray type="Float32" NumberOfComponents="3" format="ascii">
                      -4.96768                      -0.80790                      91.26791
                      -4.92760                      -1.53805                      92.42252
                      -4.87407                      -3.07843                      94.68215
                      -4.83293                      -4.65727                      96.91791
                      -4.78852                      -6.65464                      99.69773
                      -4.67476                      -8.93368                     103.10532
                      -4.52955                     -11.10575                     106.57924
                      -4.38483                     -13.27800                     110.05311
                      -4.23792                     -15.44882                     113.52786
                      -4.08961                     -17.61956                     117.00266
                      -3.94132                     -19.79301                     120.47580
                      -3.79225                     -21.96760                     123.94823
                      -3.64311                     -24.14302                     127.42017
                      -3.49474                     -26.31902                     130.89181
                      -3.34562                     -28.49555                     134.36311
                      -3.22090                     -30.30970                     137.25569
                      -3.12077                     -31.75455                     139.57382
                      -3.01901                     -33.15325                     141.92135
                      -2.97070                     -33.88782                     143.07272
        </DataArray>
      </Points>
      <PointData>
        <DataArray type="Float32" Name="TranslationalVelocity" NumberOfComponents="3" format="ascii">
                      -0.00615                      -0.04414                      -0.02164
                      -0.00795                      -0.07475                      -0.04093
                      -0.01161                      -0.13463                      -0.08166
                      -0.01520                      -0.19390                      -0.12346
                      -0.01944                      -0.26770                      -0.17642
                      -0.02369                      -0.35849                      -0.23701
                      -0.02683                      -0.45136                      -0.29496
                      -0.02872                      -0.54452                      -0.35314
                      -0.02898                      -0.63802                      -0.41155
                      -0.02722                      -0.73184                      -0.47024
                      -0.02306                      -0.82595                      -0.52932
                      -0.01619                      -0.92036                      -0.58874
                      -0.00636                      -1.01506                      -0.64851
                       0.00656                      -1.11002                      -0.70858
                       0.02258                      -1.20520                      -0.76895
                       0.03822                      -1.28463                      -0.81944
                       0.05202                      -1.34834                      -0.85975
                       0.06677                      -1.41288                      -0.89884
                       0.07452                      -1.44454                      -0.91937
        </DataArray>
        <DataArray type="Float32" Name="RotationalVelocity" NumberOfComponents="3" format="ascii">
                       0.02642                      -0.00011                      -0.00229
                       0.02643                      -0.00010                      -0.00228
                       0.02645                      -0.00007                      -0.00225
                       0.02648                      -0.00002                      -0.00221
                       0.02653                       0.00007                      -0.00214
                       0.02660                       0.00021                      -0.00201
                       0.02669                       0.00039                      -0.00183
                       0.02678                       0.00062                      -0.00157
                       0.02689                       0.00090                      -0.00122
                       0.02700                       0.00122                      -0.00076
                       0.02711                       0.00158                      -0.00020
                       0.02723                       0.00198                       0.00046
                       0.02735                       0.00240                       0.00120
                       0.02745                       0.00283                       0.00198
                       0.02754                       0.00324                       0.00274
                       0.02760                       0.00354                       0.00330
                       0.02763                       0.00375                       0.00365
                       0.02765                       0.00390                       0.00388
                       0.02764                       0.00396                       0.00392
        </DataArray>
        <DataArray type="Float32" Name="TranslationalAcceleration" NumberOfComponents="3" format="ascii">
                       0.01804                       0.00830                      -0.00244
                       0.00448                       0.00349                      -0.00119
                       0.00951                       0.00927                      -0.00301
                       0.00899                       0.01387                      -0.00409
                       0.00036                       0.01892                      -0.00448
                      -0.02153                       0.02477                      -0.00354
                      -0.05532                       0.03130                      -0.00122
                      -0.09936                       0.03894                       0.00229
                      -0.15115                       0.04764                       0.00664
                      -0.20739                       0.05706                       0.01141
                      -0.26389                       0.06665                       0.01608
                      -0.31569                       0.07576                       0.02012
                      -0.35696                       0.08373                       0.02299
                      -0.38112                       0.09004                       0.02417
                      -0.38079                       0.09437                       0.02320
                      -0.35538                       0.09645                       0.02041
                      -0.31587                       0.09733                       0.01681
                      -0.25642                       0.09772                       0.01188
                      -0.21811                       0.09786                       0.00893
        </DataArray>
        <DataArray type="Float32" Name="OrientationX" NumberOfComponents="3" format="ascii">
                       0.96102                      -0.21742                      -0.17080
                       0.96102                      -0.21740                      -0.17084
                       0.96101                      -0.21732                      -0.17096
                       0.96100                      -0.21722                      -0.17115
                       0.96098                      -0.21706                      -0.17145
                       0.96924                      -0.19065                      -0.15566
                       0.97457                      -0.17143                      -0.14434
                       0.97879                      -0.15455                      -0.13447
                       0.98283                      -0.13667                      -0.12397
                       0.98652                      -0.11823                      -0.11309
                       0.98959                      -0.10074                      -0.10277
                       0.99222                      -0.08337                      -0.09247
                       0.99425                      -0.06758                      -0.08312
                       0.99555                      -0.05556                      -0.07607
                       0.99665                      -0.04375                      -0.06906
                       0.99743                      -0.03389                      -0.06311
                       0.99793                      -0.02658                      -0.05864
                       0.99816                      -0.02267                      -0.05624
                       0.99816                      -0.02268                      -0.05625
        </DataArray>
        <DataArray type="Float32" Name="OrientationY" NumberOfComponents="3" format="ascii">
                       0.27485                       0.81833                       0.50477
                       0.27485                       0.81828                       0.50485
                       0.27487                       0.81814                       0.50507
                       0.27489                       0.81796                       0.50534
                       0.27492                       0.81771                       0.50573
                       0.24420                       0.82389                       0.51144
                       0.22193                       0.82773                       0.51538
                       0.20242                       0.83069                       0.51864
                       0.18172                       0.83350                       0.52179
                       0.16035                       0.83603                       0.52473
                       0.14008                       0.83808                       0.52726
                       0.11991                       0.83979                       0.52951
                       0.10159                       0.84104                       0.53135
                       0.08768                       0.84179                       0.53263
                       0.07396                       0.84239                       0.53377
                       0.06246                       0.84278                       0.53462
                       0.05390                       0.84300                       0.53520
                       0.04933                       0.84309                       0.53550
                       0.04933                       0.84308                       0.53551
        </DataArray>
        <DataArray type="Float32" Name="OrientationZ" NumberOfComponents="3" format="ascii">
                       0.03002                      -0.53204                       0.84619
                       0.03004                      -0.53213                       0.84613
                       0.03011                      -0.53237                       0.84598
                       0.03023                      -0.53268                       0.84577
                       0.03043                      -0.53313                       0.84548
                       0.03074                      -0.53372                       0.84510
                       0.03112                      -0.53430                       0.84472
                       0.03155                      -0.53486                       0.84435
                       0.03202                      -0.53536                       0.84402
                       0.03251                      -0.53580                       0.84372
                       0.03301                      -0.53617                       0.84346
                       0.03352                      -0.53648                       0.84325
                       0.03400                      -0.53673                       0.84307
                       0.03444                      -0.53693                       0.84292
                       0.03482                      -0.53709                       0.84280
                       0.03507                      -0.53719                       0.84273
                       0.03520                      -0.53725                       0.84269
                       0.03527                      -0.53729                       0.84266
                       0.03528                      -0.53730                       0.84265
        </DataArray>
        <DataArray type="Float32" Name="Force" NumberOfComponents="3" format="ascii">
                      -5.15510                     -94.33007                     -59.12652
                      -2.02970                     -94.24264                     -59.18252
                      -2.17842                    -102.07929                     -64.10483
                      -1.62962                     -76.88464                     -48.28363
                     149.77899                     -50.75441                     -37.30982
                     141.22128                     -40.96074                     -30.90223
                     125.03466                     -32.91554                     -25.31508
                     141.69049                     -25.28757                     -21.21104
                     164.87673                     -18.41677                     -17.85591
                     131.84745                     -14.04198                     -13.92879
                     110.83851                      -9.91054                     -10.58739
                      83.55581                      -6.66807                      -7.52784
                      57.68987                      -4.78346                      -5.34451
                      41.68279                      -4.05372                      -4.25994
                      27.84111                      -3.36860                      -3.27396
                      17.82787                      -2.82597                      -2.52263
                      10.85163                      -2.35383                      -1.93596
                      -0.92968                      -1.30874                      -0.78425
                       0.88881                      -1.34619                      -0.88425
        </DataArray>
        <DataArray type="Float32" Name="Moment" NumberOfComponents="3" format="ascii">
                       0.00000                       0.00000                       0.00000
                       0.00000                       0.00000                       0.00000
                       0.00000                       0.00000                       0.00000
                       0.00000                       0.00000                       0.00000
                      -9.65090                     168.41400                    -267.84517
                      -9.08988                     156.84657                    -249.43948
                      -7.78436                     132.56134                    -210.80880
                      -9.68896                     162.61574                    -258.59134
                     -10.75560                     177.75710                    -282.65476
                      -8.16672                     132.84706                    -211.23130
                      -6.50442                     104.13917                    -165.57586
                      -4.62593                      72.92673                    -115.94351
                      -2.99735                      46.56887                     -74.03434
                      -2.01630                      30.91780                     -49.15027
                      -1.24183                      18.83277                     -29.93741
                      -0.73689                      11.09559                     -17.63758
                      -0.40712                       6.10612                      -9.70617
                       0.02156                      -0.32269                       0.51294
                      -0.02441                       0.36533                      -0.58071
        </DataArray>
      </PointData>
      <Lines>
        <DataArray type="Int32" Name="connectivity" format="ascii">
      0      1
      1      2
      2      3
      3      4
      4      5
      5      6
      6      7
      7      8
      8      9
      9     10
     10     11
     11     12
     12     13
     13     14
     14     15
     15     16
     16     17
     17     18
        </DataArray>
        <DataArray type="Int32" Name="offsets" format="ascii">
      2
      4
      6
      8
     10
     12
     14
     16
     18
     20
     22
     24
     26
     28
     30
     32
     34
     36
        </DataArray>
      </Lines>
    </Piece>
  </PolyData>
</VTKFile>
