<?xml version="1.0"?>
<VTKFile type="PolyData" version="0.1" byte_order="LittleEndian">
  <PolyData>
    <Piece NumberOfPoints="     19" NumberOfVerts="  0" NumberOfLines="     18"
           NumberOfStrips="  0" NumberOfPolys="      0">
      <Points>
        <DataArray type="Float32" NumberOfComponents="3" format="ascii">
                      -5.20796                      -0.23367                      88.52858
                      -5.38535                      -0.43852                      87.18899
                      -5.76335                      -0.75433                      84.49836
                      -6.15213                      -1.02548                      81.80223
                      -6.64415                      -1.33746                      78.42861
                      -7.17913                      -1.85282                      74.39495
                      -7.68702                      -2.49597                      70.37755
                      -8.19524                      -3.14076                      66.36043
                      -8.70100                      -3.78902                      62.34352
                      -9.20478                      -4.43890                      58.32658
                      -9.70761                      -5.08688                      54.30922
                     -10.20844                      -5.73452                      50.29154
                     -10.70766                      -6.38192                      46.27362
                     -11.20584                      -7.02915                      42.25554
                     -11.70118                      -7.67616                      38.23708
                     -12.11169                      -8.21522                      34.88805
                     -12.43879                      -8.65418                      32.20993
                     -12.76495                      -9.14747                      29.54004
                     -12.92875                      -9.35287                      28.19893
        </DataArray>
      </Points>
      <PointData>
        <DataArray type="Float32" Name="TranslationalVelocity" NumberOfComponents="3" format="ascii">
                      -0.00171                       0.03161                      -0.00721
                      -0.00198                       0.06960                      -0.01298
                      -0.00152                       0.14598                      -0.02201
                       0.00019                       0.22263                      -0.02997
                       0.00442                       0.31878                      -0.03950
                       0.01301                       0.43413                      -0.05543
                       0.02690                       0.54971                      -0.07575
                       0.04826                       0.66622                      -0.09720
                       0.07894                       0.78379                      -0.12007
                       0.12084                       0.90254                      -0.14457
                       0.17575                       1.02253                      -0.17080
                       0.24516                       1.14374                      -0.19900
                       0.33023                       1.26610                      -0.22928
                       0.43158                       1.38944                      -0.26171
                       0.54923                       1.51355                      -0.29619
                       0.65948                       1.61732                      -0.32642
                       0.75459                       1.70035                      -0.35164
                       0.85513                       1.78301                      -0.37917
                       0.90733                       1.82444                      -0.39187
        </DataArray>
        <DataArray type="Float32" Name="RotationalVelocity" NumberOfComponents="3" format="ascii">
                       0.02803                      -0.00015                      -0.00243
                       0.02804                      -0.00025                      -0.00241
                       0.02807                      -0.00055                      -0.00237
                       0.02812                      -0.00100                      -0.00230
                       0.02823                      -0.00176                      -0.00219
                       0.02841                      -0.00297                      -0.00201
                       0.02865                      -0.00454                      -0.00178
                       0.02894                      -0.00652                      -0.00149
                       0.02926                      -0.00892                      -0.00113
                       0.02961                      -0.01178                      -0.00070
                       0.02998                      -0.01507                      -0.00021
                       0.03033                      -0.01875                       0.00034
                       0.03066                      -0.02270                       0.00094
                       0.03095                      -0.02676                       0.00154
                       0.03117                      -0.03067                       0.00213
                       0.03129                      -0.03358                       0.00256
                       0.03134                      -0.03550                       0.00285
                       0.03133                      -0.03688                       0.00306
                       0.03130                      -0.03732                       0.00313
        </DataArray>
        <DataArray type="Float32" Name="TranslationalAcceleration" NumberOfComponents="3" format="ascii">
                       0.01010                      -0.01067                       0.00160
                       0.00371                      -0.00303                       0.00146
                       0.00938                      -0.00745                       0.00413
                       0.01511                      -0.00987                       0.00623
                       0.02569                      -0.01069                       0.00776
                       0.04556                      -0.00917                       0.00821
                       0.07246                      -0.00607                       0.00762
                       0.10193                      -0.00262                       0.00683
                       0.12636                       0.00020                       0.00709
                       0.13580                       0.00149                       0.00987
                       0.11872                       0.00055                       0.01679
                       0.06278                      -0.00318                       0.02951
                      -0.04448                      -0.01004                       0.04972
                      -0.21477                      -0.02012                       0.07899
                      -0.45838                      -0.03330                       0.11860
                      -0.72479                      -0.04641                       0.16038
                      -0.97965                      -0.05791                       0.19956
                      -1.27322                      -0.06997                       0.24433
                      -1.43431                      -0.07621                       0.26849
        </DataArray>
        <DataArray type="Float32" Name="OrientationX" NumberOfComponents="3" format="ascii">
                       0.96186                       0.22102                      -0.16119
                       0.96186                       0.22103                      -0.16115
                       0.96187                       0.22105                      -0.16105
                       0.96189                       0.22108                      -0.16090
                       0.96192                       0.22114                      -0.16065
                       0.96916                       0.19040                      -0.15644
                       0.97379                       0.16817                      -0.15314
                       0.97743                       0.14872                      -0.15006
                       0.98085                       0.12814                      -0.14670
                       0.98391                       0.10692                      -0.14311
                       0.98640                       0.08683                      -0.13954
                       0.98847                       0.06690                      -0.13587
                       0.99000                       0.04884                      -0.13236
                       0.99096                       0.03520                      -0.12942
                       0.99173                       0.02175                      -0.12652
                       0.99221                       0.01049                      -0.12412
                       0.99248                       0.00210                      -0.12237
                       0.99261                      -0.00235                      -0.12129
                       0.99263                      -0.00231                      -0.12114
        </DataArray>
        <DataArray type="Float32" Name="OrientationY" NumberOfComponents="3" format="ascii">
                       0.24113                      -0.96329                       0.11805
                       0.24113                      -0.96329                       0.11803
                       0.24113                      -0.96330                       0.11797
                       0.24113                      -0.96331                       0.11790
                       0.24114                      -0.96332                       0.11779
                       0.21035                      -0.96989                       0.12271
                       0.18804                      -0.97403                       0.12613
                       0.16850                      -0.97722                       0.12903
                       0.14780                      -0.98016                       0.13205
                       0.12644                      -0.98273                       0.13510
                       0.10620                      -0.98473                       0.13792
                       0.08609                      -0.98631                       0.14065
                       0.06784                      -0.98739                       0.14305
                       0.05400                      -0.98798                       0.14482
                       0.04037                      -0.98838                       0.14654
                       0.02896                      -0.98857                       0.14795
                       0.02047                      -0.98863                       0.14899
                       0.01593                      -0.98863                       0.14954
                       0.01595                      -0.98863                       0.14954
        </DataArray>
        <DataArray type="Float32" Name="OrientationZ" NumberOfComponents="3" format="ascii">
                      -0.12918                      -0.15241                      -0.97984
                      -0.12915                      -0.15238                      -0.97985
                      -0.12906                      -0.15230                      -0.97987
                      -0.12893                      -0.15220                      -0.97990
                      -0.12871                      -0.15204                      -0.97996
                      -0.12837                      -0.15184                      -0.98003
                      -0.12795                      -0.15162                      -0.98012
                      -0.12745                      -0.15141                      -0.98022
                      -0.12687                      -0.15121                      -0.98033
                      -0.12620                      -0.15102                      -0.98044
                      -0.12544                      -0.15086                      -0.98056
                      -0.12460                      -0.15072                      -0.98069
                      -0.12370                      -0.15060                      -0.98082
                      -0.12277                      -0.15051                      -0.98096
                      -0.12186                      -0.15043                      -0.98108
                      -0.12115                      -0.15039                      -0.98117
                      -0.12066                      -0.15037                      -0.98124
                      -0.12026                      -0.15036                      -0.98129
                      -0.12011                      -0.15037                      -0.98131
        </DataArray>
        <DataArray type="Float32" Name="Force" NumberOfComponents="3" format="ascii">
                       2.32449                    -173.34503                      26.65727
                       7.36837                    -191.34618                      28.79251
                       9.23680                    -201.38377                      30.10819
                       7.32882                    -148.77140                      22.17651
                    -111.38936                     -37.74803                      20.50170
                    -198.18762                     -28.92390                      30.45952
                    -174.76360                     -23.03207                      26.39860
                     -85.35165                     -10.19014                      12.68364
                     -27.85138                      -4.38871                       4.28728
                     -10.48254                      -2.98296                       1.81328
                       4.05368                      -2.02098                      -0.20438
                       3.96670                      -2.04632                      -0.18588
                      10.08273                      -2.01472                      -0.95862
                      33.03601                      -1.32305                      -3.92979
                      58.08819                      -0.60876                      -7.12208
                      76.24080                      -0.00701                      -9.41522
                      86.22128                       0.25589                     -10.64478
                      46.29356                      -1.11675                      -5.50139
                      46.88792                      -0.81839                      -5.61321
        </DataArray>
        <DataArray type="Float32" Name="Moment" NumberOfComponents="3" format="ascii">
                       0.00000                       0.00000                       0.00000
                       0.00000                       0.00000                       0.00000
                       0.00000                       0.00000                       0.00000
                       0.00000                       0.00000                       0.00000
                      14.58320                      17.27008                     111.03103
                      19.83820                      23.55582                     151.44731
                      18.20389                      21.68648                     139.43400
                      17.69696                      21.16582                     136.09246
                      21.47283                      25.80108                     165.90504
                      18.57271                      22.43621                     144.27713
                      16.39852                      19.93046                     128.17246
                      13.77342                      16.85316                     108.39056
                       8.50286                      10.48002                      67.40729
                       7.58947                       9.42525                      60.62808
                       6.61109                       8.27191                      53.21349
                       5.74884                       7.23508                      46.54651
                       4.83142                       6.10542                      39.28059
                       1.84566                       2.34008                      15.05596
                       1.91640                       2.43288                      15.65328
        </DataArray>
      </PointData>
      <Lines>
        <DataArray type="Int32" Name="connectivity" format="ascii">
      0      1
      1      2
      2      3
      3      4
      4      5
      5      6
      6      7
      7      8
      8      9
      9     10
     10     11
     11     12
     12     13
     13     14
     14     15
     15     16
     16     17
     17     18
        </DataArray>
        <DataArray type="Int32" Name="offsets" format="ascii">
      2
      4
      6
      8
     10
     12
     14
     16
     18
     20
     22
     24
     26
     28
     30
     32
     34
     36
        </DataArray>
      </Lines>
    </Piece>
  </PolyData>
</VTKFile>
