<?xml version="1.0"?>
<VTKFile type="PolyData" version="0.1" byte_order="LittleEndian">
  <PolyData>
    <Piece NumberOfPoints="     22" NumberOfVerts="  0" NumberOfLines="     21"
           NumberOfStrips="  0" NumberOfPolys="      0">
      <Points>
        <DataArray type="Float32" NumberOfComponents="3" format="ascii">
                      -0.00000                      -0.00001                       2.19000
                      -0.00003                      -0.00008                       6.57000
                      -0.00009                      -0.00021                      10.95000
                      -0.00019                      -0.00040                      15.33000
                      -0.00034                      -0.00064                      19.71000
                      -0.00054                      -0.00092                      24.09000
                      -0.00079                      -0.00125                      28.47000
                      -0.00111                      -0.00162                      32.85000
                      -0.00150                      -0.00204                      37.23000
                      -0.00196                      -0.00250                      41.61000
                      -0.00251                      -0.00301                      45.99000
                      -0.00315                      -0.00356                      50.37000
                      -0.00390                      -0.00415                      54.75000
                      -0.00476                      -0.00478                      59.13000
                      -0.00574                      -0.00545                      63.51000
                      -0.00684                      -0.00614                      67.89000
                      -0.00804                      -0.00686                      72.27000
                      -0.00935                      -0.00760                      76.65000
                      -0.01071                      -0.00836                      81.03000
                      -0.01209                      -0.00913                      85.41000
                      -0.01276                      -0.00951                      87.60000
                       0.00000                       0.00000                       0.00000
        </DataArray>
      </Points>
      <PointData>
        <DataArray type="Float32" Name="TranslationalVelocity" NumberOfComponents="3" format="ascii">
                       0.00000                      -0.00001                      -0.00000
                       0.00004                      -0.00007                      -0.00000
                       0.00010                      -0.00019                      -0.00000
                       0.00019                      -0.00035                      -0.00000
                       0.00031                      -0.00056                      -0.00000
                       0.00044                      -0.00082                      -0.00000
                       0.00058                      -0.00112                      -0.00000
                       0.00072                      -0.00147                      -0.00000
                       0.00085                      -0.00186                      -0.00000
                       0.00095                      -0.00231                      -0.00000
                       0.00103                      -0.00282                      -0.00000
                       0.00105                      -0.00338                      -0.00000
                       0.00103                      -0.00399                      -0.00000
                       0.00095                      -0.00466                      -0.00000
                       0.00080                      -0.00538                      -0.00000
                       0.00059                      -0.00615                      -0.00000
                       0.00032                      -0.00697                      -0.00000
                      -0.00002                      -0.00782                      -0.00000
                      -0.00041                      -0.00871                      -0.00000
                      -0.00083                      -0.00963                      -0.00000
                      -0.00106                      -0.01010                      -0.00000
                       0.00000                      -0.00000                       0.00000
        </DataArray>
        <DataArray type="Float32" Name="RotationalVelocity" NumberOfComponents="3" format="ascii">
                       0.00001                       0.00000                       0.00000
                       0.00002                       0.00001                       0.00000
                       0.00003                       0.00002                       0.00000
                       0.00004                       0.00002                       0.00000
                       0.00005                       0.00003                       0.00000
                       0.00006                       0.00003                       0.00000
                       0.00007                       0.00003                       0.00000
                       0.00009                       0.00003                       0.00000
                       0.00010                       0.00003                       0.00000
                       0.00011                       0.00002                       0.00000
                       0.00012                       0.00001                       0.00000
                       0.00013                       0.00000                       0.00000
                       0.00015                      -0.00001                       0.00000
                       0.00016                      -0.00003                       0.00000
                       0.00017                      -0.00004                       0.00000
                       0.00018                      -0.00006                       0.00000
                       0.00019                      -0.00007                       0.00000
                       0.00020                      -0.00008                       0.00000
                       0.00021                      -0.00009                       0.00000
                       0.00021                      -0.00010                       0.00000
                       0.00021                      -0.00010                       0.00000
                       0.00000                      -0.00000                       0.00000
        </DataArray>
        <DataArray type="Float32" Name="TranslationalAcceleration" NumberOfComponents="3" format="ascii">
                      -0.00001                       0.00001                      -0.00000
                      -0.00008                       0.00009                      -0.00000
                      -0.00021                       0.00024                      -0.00000
                      -0.00039                       0.00045                      -0.00000
                      -0.00058                       0.00071                      -0.00000
                      -0.00076                       0.00101                      -0.00000
                      -0.00090                       0.00135                      -0.00000
                      -0.00095                       0.00173                      -0.00000
                      -0.00089                       0.00214                      -0.00000
                      -0.00065                       0.00257                       0.00000
                      -0.00020                       0.00303                       0.00000
                       0.00050                       0.00350                       0.00000
                       0.00150                       0.00398                       0.00000
                       0.00283                       0.00446                       0.00000
                       0.00450                       0.00493                       0.00000
                       0.00654                       0.00539                       0.00000
                       0.00891                       0.00584                       0.00000
                       0.01160                       0.00626                       0.00000
                       0.01453                       0.00666                       0.00000
                       0.01761                       0.00705                       0.00000
                       0.01916                       0.00724                       0.00000
                       0.00000                      -0.00000                       0.00000
        </DataArray>
        <DataArray type="Float32" Name="RotationalAcceleration" NumberOfComponents="3" format="ascii">
                      -0.00001                      -0.00001                       0.00000
                      -0.00003                      -0.00002                       0.00000
                      -0.00004                      -0.00004                       0.00000
                      -0.00005                      -0.00004                       0.00000
                      -0.00006                      -0.00004                       0.00000
                      -0.00007                      -0.00004                       0.00000
                      -0.00008                      -0.00002                       0.00000
                      -0.00009                      -0.00000                       0.00000
                      -0.00010                       0.00003                       0.00000
                      -0.00010                       0.00008                       0.00000
                      -0.00011                       0.00013                       0.00000
                      -0.00011                       0.00019                       0.00000
                      -0.00011                       0.00026                       0.00000
                      -0.00011                       0.00034                       0.00000
                      -0.00011                       0.00042                       0.00000
                      -0.00010                       0.00050                       0.00000
                      -0.00010                       0.00058                       0.00000
                      -0.00009                       0.00064                       0.00000
                      -0.00009                       0.00069                       0.00000
                      -0.00009                       0.00071                       0.00000
                      -0.00009                       0.00071                       0.00000
                       0.00000                      -0.00000                       0.00000
        </DataArray>
        <DataArray type="Float32" Name="OrientationX" NumberOfComponents="3" format="ascii">
                       1.00000                      -0.00000                       0.00000
                       1.00000                      -0.00000                       0.00001
                       1.00000                      -0.00000                       0.00002
                       1.00000                      -0.00000                       0.00003
                       1.00000                      -0.00000                       0.00004
                       1.00000                      -0.00000                       0.00005
                       1.00000                      -0.00000                       0.00007
                       1.00000                      -0.00000                       0.00008
                       1.00000                      -0.00000                       0.00010
                       1.00000                      -0.00000                       0.00011
                       1.00000                      -0.00000                       0.00014
                       1.00000                      -0.00000                       0.00016
                       1.00000                      -0.00000                       0.00018
                       1.00000                      -0.00000                       0.00021
                       1.00000                      -0.00000                       0.00024
                       1.00000                      -0.00000                       0.00026
                       1.00000                      -0.00000                       0.00029
                       1.00000                      -0.00000                       0.00031
                       1.00000                      -0.00000                       0.00032
                       1.00000                      -0.00000                       0.00031
                       1.00000                      -0.00000                       0.00030
                       1.00000                      -0.00000                       0.00000
        </DataArray>
        <DataArray type="Float32" Name="OrientationY" NumberOfComponents="3" format="ascii">
                      -0.00000                       1.00000                       0.00001
                      -0.00000                       1.00000                       0.00002
                      -0.00000                       1.00000                       0.00004
                      -0.00000                       1.00000                       0.00005
                      -0.00000                       1.00000                       0.00006
                      -0.00000                       1.00000                       0.00007
                      -0.00000                       1.00000                       0.00008
                      -0.00000                       1.00000                       0.00009
                      -0.00000                       1.00000                       0.00010
                      -0.00000                       1.00000                       0.00011
                      -0.00000                       1.00000                       0.00012
                      -0.00000                       1.00000                       0.00013
                      -0.00000                       1.00000                       0.00014
                      -0.00000                       1.00000                       0.00015
                      -0.00000                       1.00000                       0.00016
                      -0.00000                       1.00000                       0.00016
                      -0.00000                       1.00000                       0.00017
                      -0.00000                       1.00000                       0.00017
                      -0.00000                       1.00000                       0.00017
                      -0.00000                       1.00000                       0.00018
                      -0.00000                       1.00000                       0.00018
                      -0.00000                       1.00000                      -0.00000
        </DataArray>
        <DataArray type="Float32" Name="OrientationZ" NumberOfComponents="3" format="ascii">
                      -0.00000                      -0.00001                       1.00000
                      -0.00001                      -0.00002                       1.00000
                      -0.00002                      -0.00004                       1.00000
                      -0.00003                      -0.00005                       1.00000
                      -0.00004                      -0.00006                       1.00000
                      -0.00005                      -0.00007                       1.00000
                      -0.00007                      -0.00008                       1.00000
                      -0.00008                      -0.00009                       1.00000
                      -0.00010                      -0.00010                       1.00000
                      -0.00011                      -0.00011                       1.00000
                      -0.00014                      -0.00012                       1.00000
                      -0.00016                      -0.00013                       1.00000
                      -0.00018                      -0.00014                       1.00000
                      -0.00021                      -0.00015                       1.00000
                      -0.00024                      -0.00016                       1.00000
                      -0.00026                      -0.00016                       1.00000
                      -0.00029                      -0.00017                       1.00000
                      -0.00031                      -0.00017                       1.00000
                      -0.00032                      -0.00017                       1.00000
                      -0.00031                      -0.00018                       1.00000
                      -0.00030                      -0.00018                       1.00000
                       0.00000                      -0.00000                       1.00000
        </DataArray>
      </PointData>
      <Lines>
        <DataArray type="Int32" Name="connectivity" format="ascii">
      0      1
      1      2
      2      3
      3      4
      4      5
      5      6
      6      7
      7      8
      8      9
      9     10
     10     11
     11     12
     12     13
     13     14
     14     15
     15     16
     16     17
     17     18
     18     19
     19     20
     21      0
        </DataArray>
        <DataArray type="Int32" Name="offsets" format="ascii">
      2
      4
      6
      8
     10
     12
     14
     16
     18
     20
     22
     24
     26
     28
     30
     32
     34
     36
     38
     40
     42
        </DataArray>
      </Lines>
    </Piece>
  </PolyData>
</VTKFile>
