<?xml version="1.0"?>
<VTKFile type="PolyData" version="0.1" byte_order="LittleEndian">
  <PolyData>
    <Piece NumberOfPoints="     22" NumberOfVerts="  0" NumberOfLines="     21"
           NumberOfStrips="  0" NumberOfPolys="      0">
      <Points>
        <DataArray type="Float32" NumberOfComponents="3" format="ascii">
                      -0.00000                      -0.00001                       2.19000
                      -0.00001                      -0.00011                       6.57000
                      -0.00003                      -0.00028                      10.95000
                      -0.00007                      -0.00052                      15.33000
                      -0.00014                      -0.00083                      19.71000
                      -0.00025                      -0.00120                      24.09000
                      -0.00039                      -0.00164                      28.47000
                      -0.00059                      -0.00213                      32.85000
                      -0.00085                      -0.00269                      37.23000
                      -0.00118                      -0.00331                      41.61000
                      -0.00160                      -0.00399                      45.99000
                      -0.00211                      -0.00473                      50.37000
                      -0.00273                      -0.00554                      54.75000
                      -0.00347                      -0.00640                      59.13000
                      -0.00433                      -0.00731                      63.51000
                      -0.00532                      -0.00827                      67.89000
                      -0.00643                      -0.00927                      72.27000
                      -0.00764                      -0.01031                      76.65000
                      -0.00892                      -0.01137                      81.03000
                      -0.01023                      -0.01245                      85.41000
                      -0.01088                      -0.01300                      87.60000
                       0.00000                       0.00000                       0.00000
        </DataArray>
      </Points>
      <PointData>
        <DataArray type="Float32" Name="TranslationalVelocity" NumberOfComponents="3" format="ascii">
                       0.00001                       0.00000                       0.00000
                       0.00009                       0.00001                       0.00000
                       0.00025                       0.00003                       0.00000
                       0.00050                       0.00005                       0.00000
                       0.00082                       0.00009                       0.00000
                       0.00120                       0.00012                       0.00000
                       0.00164                       0.00017                       0.00000
                       0.00211                       0.00022                       0.00000
                       0.00260                       0.00027                       0.00000
                       0.00309                       0.00033                       0.00000
                       0.00358                       0.00040                       0.00000
                       0.00403                       0.00047                       0.00000
                       0.00445                       0.00055                       0.00000
                       0.00483                       0.00063                       0.00000
                       0.00516                       0.00071                       0.00000
                       0.00544                       0.00079                       0.00000
                       0.00565                       0.00088                       0.00000
                       0.00581                       0.00097                       0.00000
                       0.00590                       0.00106                       0.00000
                       0.00593                       0.00116                       0.00000
                       0.00591                       0.00120                       0.00000
                       0.00000                      -0.00000                       0.00000
        </DataArray>
        <DataArray type="Float32" Name="RotationalVelocity" NumberOfComponents="3" format="ascii">
                      -0.00000                       0.00001                       0.00000
                      -0.00000                       0.00003                       0.00000
                      -0.00000                       0.00005                       0.00000
                      -0.00001                       0.00007                       0.00000
                      -0.00001                       0.00008                       0.00000
                      -0.00001                       0.00009                       0.00000
                      -0.00001                       0.00010                       0.00000
                      -0.00001                       0.00011                       0.00000
                      -0.00001                       0.00011                       0.00000
                      -0.00001                       0.00011                       0.00000
                      -0.00002                       0.00011                       0.00000
                      -0.00002                       0.00010                       0.00000
                      -0.00002                       0.00009                       0.00000
                      -0.00002                       0.00008                       0.00000
                      -0.00002                       0.00007                       0.00000
                      -0.00002                       0.00006                       0.00000
                      -0.00002                       0.00004                       0.00000
                      -0.00002                       0.00003                       0.00000
                      -0.00002                       0.00001                       0.00000
                      -0.00002                      -0.00000                       0.00000
                      -0.00002                      -0.00001                       0.00000
                       0.00000                      -0.00000                       0.00000
        </DataArray>
        <DataArray type="Float32" Name="TranslationalAcceleration" NumberOfComponents="3" format="ascii">
                       0.00001                       0.00002                       0.00000
                       0.00011                       0.00017                       0.00000
                       0.00032                       0.00044                       0.00000
                       0.00065                       0.00083                       0.00000
                       0.00110                       0.00133                       0.00000
                       0.00165                       0.00193                       0.00000
                       0.00229                       0.00263                       0.00000
                       0.00302                       0.00345                       0.00000
                       0.00381                       0.00437                       0.00000
                       0.00467                       0.00540                       0.00000
                       0.00558                       0.00656                       0.00000
                       0.00653                       0.00783                       0.00000
                       0.00753                       0.00922                       0.00000
                       0.00857                       0.01072                       0.00000
                       0.00965                       0.01234                       0.00000
                       0.01076                       0.01406                       0.00000
                       0.01190                       0.01587                       0.00000
                       0.01304                       0.01776                       0.00000
                       0.01417                       0.01971                       0.00001
                       0.01523                       0.02171                       0.00001
                       0.01572                       0.02273                       0.00001
                       0.00000                      -0.00000                       0.00000
        </DataArray>
        <DataArray type="Float32" Name="RotationalAcceleration" NumberOfComponents="3" format="ascii">
                      -0.00002                       0.00001                       0.00000
                      -0.00005                       0.00004                       0.00000
                      -0.00008                       0.00006                       0.00000
                      -0.00010                       0.00009                       0.00000
                      -0.00013                       0.00011                       0.00000
                      -0.00015                       0.00014                       0.00000
                      -0.00017                       0.00016                       0.00000
                      -0.00020                       0.00017                       0.00000
                      -0.00022                       0.00019                       0.00000
                      -0.00025                       0.00020                       0.00000
                      -0.00028                       0.00021                       0.00000
                      -0.00030                       0.00022                       0.00000
                      -0.00033                       0.00023                       0.00000
                      -0.00036                       0.00024                       0.00000
                      -0.00038                       0.00025                       0.00000
                      -0.00040                       0.00026                       0.00000
                      -0.00042                       0.00026                       0.00000
                      -0.00044                       0.00026                       0.00000
                      -0.00045                       0.00025                       0.00000
                      -0.00046                       0.00023                       0.00000
                      -0.00047                       0.00022                       0.00000
                       0.00000                      -0.00000                       0.00000
        </DataArray>
        <DataArray type="Float32" Name="OrientationX" NumberOfComponents="3" format="ascii">
                       1.00000                      -0.00000                       0.00000
                       1.00000                      -0.00000                       0.00000
                       1.00000                      -0.00000                       0.00001
                       1.00000                      -0.00000                       0.00001
                       1.00000                      -0.00000                       0.00002
                       1.00000                      -0.00000                       0.00003
                       1.00000                      -0.00000                       0.00004
                       1.00000                      -0.00000                       0.00005
                       1.00000                      -0.00000                       0.00007
                       1.00000                      -0.00000                       0.00008
                       1.00000                      -0.00000                       0.00011
                       1.00000                      -0.00000                       0.00013
                       1.00000                      -0.00000                       0.00015
                       1.00000                      -0.00000                       0.00018
                       1.00000                      -0.00000                       0.00021
                       1.00000                      -0.00000                       0.00024
                       1.00000                      -0.00000                       0.00027
                       1.00000                      -0.00000                       0.00029
                       1.00000                      -0.00000                       0.00030
                       1.00000                      -0.00000                       0.00030
                       1.00000                      -0.00000                       0.00029
                       1.00000                      -0.00000                       0.00000
        </DataArray>
        <DataArray type="Float32" Name="OrientationY" NumberOfComponents="3" format="ascii">
                      -0.00000                       1.00000                       0.00001
                      -0.00000                       1.00000                       0.00003
                      -0.00000                       1.00000                       0.00005
                      -0.00000                       1.00000                       0.00006
                      -0.00000                       1.00000                       0.00008
                      -0.00000                       1.00000                       0.00009
                      -0.00000                       1.00000                       0.00011
                      -0.00000                       1.00000                       0.00012
                      -0.00000                       1.00000                       0.00013
                      -0.00000                       1.00000                       0.00015
                      -0.00000                       1.00000                       0.00016
                      -0.00000                       1.00000                       0.00018
                      -0.00000                       1.00000                       0.00019
                      -0.00000                       1.00000                       0.00020
                      -0.00000                       1.00000                       0.00021
                      -0.00000                       1.00000                       0.00022
                      -0.00000                       1.00000                       0.00023
                      -0.00000                       1.00000                       0.00024
                      -0.00000                       1.00000                       0.00024
                      -0.00000                       1.00000                       0.00025
                      -0.00000                       1.00000                       0.00025
                      -0.00000                       1.00000                      -0.00000
        </DataArray>
        <DataArray type="Float32" Name="OrientationZ" NumberOfComponents="3" format="ascii">
                      -0.00000                      -0.00001                       1.00000
                      -0.00000                      -0.00003                       1.00000
                      -0.00001                      -0.00005                       1.00000
                      -0.00001                      -0.00006                       1.00000
                      -0.00002                      -0.00008                       1.00000
                      -0.00003                      -0.00009                       1.00000
                      -0.00004                      -0.00011                       1.00000
                      -0.00005                      -0.00012                       1.00000
                      -0.00007                      -0.00013                       1.00000
                      -0.00008                      -0.00015                       1.00000
                      -0.00011                      -0.00016                       1.00000
                      -0.00013                      -0.00018                       1.00000
                      -0.00015                      -0.00019                       1.00000
                      -0.00018                      -0.00020                       1.00000
                      -0.00021                      -0.00021                       1.00000
                      -0.00024                      -0.00022                       1.00000
                      -0.00027                      -0.00023                       1.00000
                      -0.00029                      -0.00024                       1.00000
                      -0.00030                      -0.00024                       1.00000
                      -0.00030                      -0.00025                       1.00000
                      -0.00029                      -0.00025                       1.00000
                       0.00000                      -0.00000                       1.00000
        </DataArray>
      </PointData>
      <Lines>
        <DataArray type="Int32" Name="connectivity" format="ascii">
      0      1
      1      2
      2      3
      3      4
      4      5
      5      6
      6      7
      7      8
      8      9
      9     10
     10     11
     11     12
     12     13
     13     14
     14     15
     15     16
     16     17
     17     18
     18     19
     19     20
     21      0
        </DataArray>
        <DataArray type="Int32" Name="offsets" format="ascii">
      2
      4
      6
      8
     10
     12
     14
     16
     18
     20
     22
     24
     26
     28
     30
     32
     34
     36
     38
     40
     42
        </DataArray>
      </Lines>
    </Piece>
  </PolyData>
</VTKFile>
