<?xml version="1.0"?>
<VTKFile type="PolyData" version="0.1" byte_order="LittleEndian">
  <PolyData>
    <Piece NumberOfPoints="     19" NumberOfVerts="  0" NumberOfLines="     18"
           NumberOfStrips="  0" NumberOfPolys="      0">
      <Points>
        <DataArray type="Float32" NumberOfComponents="3" format="ascii">
                      -5.15252                      -1.24451                      89.15191
                      -5.28062                      -2.36347                      88.37767
                      -5.56564                      -4.54587                      86.75354
                      -5.86407                      -6.70138                      85.09278
                      -6.24464                      -9.37874                      82.99371
                      -6.63729                     -12.67299                      80.58281
                      -6.99500                     -16.04022                      78.27176
                      -7.35256                     -19.40660                      75.95934
                      -7.70708                     -22.77344                      73.64695
                      -8.05920                     -26.13986                      71.33343
                      -8.41025                     -29.50400                      69.01632
                      -8.75922                     -32.86703                      66.69720
                      -9.10668                     -36.22923                      64.37657
                      -9.45337                     -39.59081                      62.05486
                      -9.79774                     -42.95192                      59.73209
                     -10.08303                     -45.75257                      57.79574
                     -10.31000                     -47.99740                      56.25270
                     -10.53341                     -50.27380                      54.75407
                     -10.64846                     -51.38773                      53.97079
        </DataArray>
      </Points>
      <PointData>
        <DataArray type="Float32" Name="TranslationalVelocity" NumberOfComponents="3" format="ascii">
                       0.00783                       0.01711                      -0.01360
                       0.00659                       0.02621                      -0.02654
                       0.00398                       0.04532                      -0.05176
                       0.00115                       0.06485                      -0.07660
                      -0.00278                       0.08951                      -0.10734
                      -0.00835                       0.11771                      -0.14496
                      -0.01517                       0.14461                      -0.18311
                      -0.02362                       0.17143                      -0.22083
                      -0.03422                       0.19811                      -0.25806
                      -0.04753                       0.22467                      -0.29469
                      -0.06411                       0.25115                      -0.33062
                      -0.08453                       0.27752                      -0.36580
                      -0.10931                       0.30381                      -0.40020
                      -0.13891                       0.33005                      -0.43378
                      -0.17367                       0.35627                      -0.46657
                      -0.20686                       0.37814                      -0.49332
                      -0.23608                       0.39560                      -0.51443
                      -0.26777                       0.41265                      -0.53561
                      -0.28443                       0.42157                      -0.54586
        </DataArray>
        <DataArray type="Float32" Name="RotationalVelocity" NumberOfComponents="3" format="ascii">
                       0.01159                       0.00013                      -0.00102
                       0.01158                       0.00014                      -0.00104
                       0.01157                       0.00018                      -0.00109
                       0.01154                       0.00023                      -0.00117
                       0.01150                       0.00032                      -0.00129
                       0.01144                       0.00048                      -0.00150
                       0.01135                       0.00068                      -0.00178
                       0.01124                       0.00093                      -0.00214
                       0.01111                       0.00124                      -0.00262
                       0.01097                       0.00160                      -0.00324
                       0.01080                       0.00202                      -0.00399
                       0.01063                       0.00249                      -0.00490
                       0.01044                       0.00301                      -0.00592
                       0.01026                       0.00356                      -0.00705
                       0.01009                       0.00415                      -0.00820
                       0.00997                       0.00464                      -0.00913
                       0.00990                       0.00504                      -0.00980
                       0.00985                       0.00542                      -0.01036
                       0.00984                       0.00560                      -0.01058
        </DataArray>
        <DataArray type="Float32" Name="TranslationalAcceleration" NumberOfComponents="3" format="ascii">
                       0.01992                       0.02649                       0.00126
                       0.00550                       0.00891                      -0.00069
                       0.01213                       0.02229                      -0.00196
                       0.01397                       0.03079                      -0.00299
                       0.01109                       0.03680                      -0.00392
                       0.00111                       0.03946                      -0.00445
                      -0.01635                       0.03973                      -0.00379
                      -0.04315                       0.03941                      -0.00118
                      -0.08223                       0.03931                       0.00405
                      -0.13731                       0.03964                       0.01260
                      -0.21248                       0.04014                       0.02515
                      -0.31183                       0.04028                       0.04237
                      -0.43909                       0.03942                       0.06491
                      -0.59720                       0.03707                       0.09335
                      -0.78801                       0.03286                       0.12813
                      -0.97292                       0.02800                       0.16231
                      -1.13649                       0.02352                       0.19302
                      -1.31377                       0.01919                       0.22703
                      -1.40672                       0.01695                       0.24503
        </DataArray>
        <DataArray type="Float32" Name="OrientationX" NumberOfComponents="3" format="ascii">
                       0.95003                       0.09657                      -0.29686
                       0.95003                       0.09662                      -0.29682
                       0.95005                       0.09680                      -0.29671
                       0.95008                       0.09705                      -0.29654
                       0.95012                       0.09744                      -0.29628
                       0.95919                       0.07993                      -0.27124
                       0.96514                       0.06745                      -0.25289
                       0.96993                       0.05665                      -0.23668
                       0.97457                       0.04520                      -0.21948
                       0.97888                       0.03339                      -0.20168
                       0.98254                       0.02227                      -0.18473
                       0.98575                       0.01123                      -0.16784
                       0.98831                       0.00128                      -0.15244
                       0.99004                      -0.00611                      -0.14062
                       0.99155                      -0.01345                      -0.12901
                       0.99266                      -0.01967                      -0.11933
                       0.99339                      -0.02435                      -0.11216
                       0.99376                      -0.02680                      -0.10829
                       0.99376                      -0.02674                      -0.10826
        </DataArray>
        <DataArray type="Float32" Name="OrientationY" NumberOfComponents="3" format="ascii">
                       0.29800                      -0.56376                       0.77030
                       0.29799                      -0.56388                       0.77022
                       0.29796                      -0.56420                       0.77000
                       0.29792                      -0.56460                       0.76972
                       0.29787                      -0.56517                       0.76932
                       0.26735                      -0.56872                       0.77787
                       0.24518                      -0.57114                       0.78338
                       0.22571                      -0.57307                       0.78781
                       0.20507                      -0.57476                       0.79221
                       0.18374                      -0.57615                       0.79642
                       0.16351                      -0.57718                       0.80008
                       0.14338                      -0.57790                       0.80342
                       0.12509                      -0.57832                       0.80616
                       0.11120                      -0.57854                       0.80804
                       0.09751                      -0.57860                       0.80976
                       0.08604                      -0.57854                       0.81110
                       0.07751                      -0.57844                       0.81204
                       0.07294                      -0.57837                       0.81251
                       0.07295                      -0.57838                       0.81250
        </DataArray>
        <DataArray type="Float32" Name="OrientationZ" NumberOfComponents="3" format="ascii">
                      -0.09297                      -0.82027                      -0.56436
                      -0.09295                      -0.82018                      -0.56450
                      -0.09287                      -0.81994                      -0.56486
                      -0.09273                      -0.81964                      -0.56533
                      -0.09248                      -0.81920                      -0.56600
                      -0.09209                      -0.81864                      -0.56688
                      -0.09159                      -0.81807                      -0.56777
                      -0.09101                      -0.81754                      -0.56863
                      -0.09034                      -0.81707                      -0.56942
                      -0.08960                      -0.81666                      -0.57012
                      -0.08881                      -0.81631                      -0.57074
                      -0.08797                      -0.81603                      -0.57127
                      -0.08712                      -0.81581                      -0.57172
                      -0.08630                      -0.81563                      -0.57210
                      -0.08554                      -0.81550                      -0.57240
                      -0.08499                      -0.81541                      -0.57260
                      -0.08465                      -0.81536                      -0.57273
                      -0.08441                      -0.81533                      -0.57280
                      -0.08434                      -0.81533                      -0.57283
        </DataArray>
        <DataArray type="Float32" Name="Force" NumberOfComponents="3" format="ascii">
                       3.72380                     -29.80565                      42.70755
                      12.66513                     -33.13628                      46.07601
                      14.84018                     -34.19620                      47.26047
                       8.98721                     -24.52069                      34.16249
                     -15.47744                      -3.07245                       6.99750
                     -50.36643                      -4.09958                      14.15550
                     -44.94817                      -3.15783                      11.85863
                     -25.94182                      -1.40270                       6.20338
                      -6.30595                      -0.56869                       1.83040
                      -0.94662                      -0.35434                       0.66411
                       7.37226                      -0.50927                      -0.41266
                       8.96940                      -0.66953                      -0.41556
                       8.86179                      -0.72815                      -0.29991
                       8.30198                      -0.79270                      -0.10787
                       7.69180                      -0.83004                       0.04948
                       8.47982                      -0.88167                       0.01443
                       9.46010                      -0.88212                      -0.12528
                       8.43331                      -0.57157                      -0.41980
                      18.35132                      -0.67320                      -1.73924
        </DataArray>
        <DataArray type="Float32" Name="Moment" NumberOfComponents="3" format="ascii">
                       0.00000                       0.00000                       0.00000
                       0.00000                       0.00000                       0.00000
                       0.00000                       0.00000                       0.00000
                       0.00000                       0.00000                       0.00000
                       2.87065                      25.49915                      17.54559
                       4.82956                      43.11895                      29.67166
                       4.40036                      39.53205                      27.20578
                       4.24946                      38.45259                      26.46558
                       4.93186                      44.99055                      30.96893
                       4.36519                      40.17661                      27.65869
                       3.77108                      35.04095                      24.12631
                       3.17826                      29.82868                      20.54035
                       1.91802                      18.18465                      12.52385
                       1.55647                      14.90394                      10.26576
                       1.24162                      11.99855                       8.26554
                       1.02555                       9.97612                       6.87292
                       0.83141                       8.12154                       5.59554
                       0.40953                       4.01213                       2.76436
                       0.49006                       4.80522                       3.31084
        </DataArray>
      </PointData>
      <Lines>
        <DataArray type="Int32" Name="connectivity" format="ascii">
      0      1
      1      2
      2      3
      3      4
      4      5
      5      6
      6      7
      7      8
      8      9
      9     10
     10     11
     11     12
     12     13
     13     14
     14     15
     15     16
     16     17
     17     18
        </DataArray>
        <DataArray type="Int32" Name="offsets" format="ascii">
      2
      4
      6
      8
     10
     12
     14
     16
     18
     20
     22
     24
     26
     28
     30
     32
     34
     36
        </DataArray>
      </Lines>
    </Piece>
  </PolyData>
</VTKFile>
