<?xml version="1.0"?>
<VTKFile type="PolyData" version="0.1" byte_order="LittleEndian">
  <PolyData>
    <Piece NumberOfPoints="     19" NumberOfVerts="  0" NumberOfLines="     18"
           NumberOfStrips="  0" NumberOfPolys="      0">
      <Points>
        <DataArray type="Float32" NumberOfComponents="3" format="ascii">
                      -4.99174                      -1.15321                      90.96100
                      -4.97614                      -2.20380                      91.83499
                      -4.97355                      -4.36535                      93.51109
                      -4.98439                      -6.55603                      95.15238
                      -5.00572                      -9.31260                      97.18201
                      -4.96831                     -12.53274                      99.72111
                      -4.89727                     -15.67307                     102.35537
                      -4.82725                     -18.81421                     104.98877
                      -4.75567                     -21.95491                     107.62280
                      -4.68348                     -25.09610                     110.25634
                      -4.61230                     -28.23976                     112.88703
                      -4.54141                     -31.38461                     115.51639
                      -4.47163                     -34.53030                     118.14483
                      -4.40388                     -37.67658                     120.77268
                      -4.33669                     -40.82336                     123.39999
                      -4.28126                     -43.44605                     125.58909
                      -4.23704                     -45.53937                     127.34620
                      -4.19062                     -47.59802                     129.14547
                      -4.17100                     -48.65387                     130.01289
        </DataArray>
      </Points>
      <PointData>
        <DataArray type="Float32" Name="TranslationalVelocity" NumberOfComponents="3" format="ascii">
                      -0.01005                      -0.02319                      -0.03226
                      -0.01264                      -0.04783                      -0.06183
                      -0.01772                      -0.09507                      -0.12275
                      -0.02257                      -0.14137                      -0.18457
                      -0.02820                      -0.19872                      -0.26252
                      -0.03383                      -0.27082                      -0.35390
                      -0.03774                      -0.34602                      -0.44346
                      -0.03932                      -0.42161                      -0.53360
                      -0.03763                      -0.49771                      -0.62440
                      -0.03156                      -0.57438                      -0.71602
                      -0.01993                      -0.65159                      -0.80861
                      -0.00150                      -0.72945                      -0.90225
                       0.02493                      -0.80800                      -0.99697
                       0.06055                      -0.88725                      -1.09279
                       0.10642                      -0.96719                      -1.18971
                       0.15335                      -1.03429                      -1.27130
                       0.19665                      -1.08841                      -1.33688
                       0.24543                      -1.14403                      -1.40177
                       0.27180                      -1.17094                      -1.43512
        </DataArray>
        <DataArray type="Float32" Name="RotationalVelocity" NumberOfComponents="3" format="ascii">
                       0.02815                       0.00003                      -0.00246
                       0.02816                       0.00004                      -0.00245
                       0.02819                       0.00009                      -0.00239
                       0.02824                       0.00016                      -0.00230
                       0.02831                       0.00030                      -0.00217
                       0.02843                       0.00053                      -0.00194
                       0.02857                       0.00086                      -0.00161
                       0.02875                       0.00131                      -0.00114
                       0.02897                       0.00189                      -0.00048
                       0.02921                       0.00264                       0.00041
                       0.02949                       0.00356                       0.00157
                       0.02979                       0.00467                       0.00299
                       0.03011                       0.00598                       0.00467
                       0.03043                       0.00748                       0.00654
                       0.03073                       0.00916                       0.00850
                       0.03095                       0.01067                       0.01010
                       0.03109                       0.01195                       0.01127
                       0.03118                       0.01327                       0.01226
                       0.03121                       0.01394                       0.01266
        </DataArray>
        <DataArray type="Float32" Name="TranslationalAcceleration" NumberOfComponents="3" format="ascii">
                      -0.01375                      -0.01840                      -0.00243
                      -0.00465                      -0.00404                      -0.00068
                      -0.00968                      -0.00912                      -0.00170
                      -0.01063                      -0.01096                      -0.00232
                      -0.00869                      -0.01014                      -0.00267
                      -0.00417                      -0.00642                      -0.00320
                       0.00125                      -0.00172                      -0.00430
                       0.00704                       0.00249                      -0.00626
                       0.01484                       0.00518                      -0.00968
                       0.02835                       0.00571                      -0.01524
                       0.05333                       0.00371                      -0.02368
                       0.09777                      -0.00100                      -0.03579
                       0.17174                      -0.00848                      -0.05232
                       0.28741                      -0.01879                      -0.07397
                       0.45889                      -0.03206                      -0.10145
                       0.65718                      -0.04559                      -0.12933
                       0.85741                      -0.05814                      -0.15486
                       1.09628                      -0.07265                      -0.18301
                       1.23584                      -0.08062                      -0.19851
        </DataArray>
        <DataArray type="Float32" Name="OrientationX" NumberOfComponents="3" format="ascii">
                       0.95555                      -0.18008                      -0.23345
                       0.95555                      -0.18004                      -0.23348
                       0.95554                      -0.17993                      -0.23358
                       0.95554                      -0.17977                      -0.23373
                       0.95553                      -0.17951                      -0.23396
                       0.96443                      -0.15949                      -0.21081
                       0.97023                      -0.14487                      -0.19408
                       0.97487                      -0.13202                      -0.17943
                       0.97935                      -0.11844                      -0.16382
                       0.98351                      -0.10447                      -0.14765
                       0.98700                      -0.09125                      -0.13227
                       0.99006                      -0.07815                      -0.11692
                       0.99248                      -0.06629                      -0.10293
                       0.99408                      -0.05730                      -0.09229
                       0.99547                      -0.04849                      -0.08175
                       0.99649                      -0.04116                      -0.07288
                       0.99716                      -0.03574                      -0.06625
                       0.99749                      -0.03288                      -0.06267
                       0.99749                      -0.03292                      -0.06264
        </DataArray>
        <DataArray type="Float32" Name="OrientationY" NumberOfComponents="3" format="ascii">
                       0.29458                       0.61583                       0.73073
                       0.29459                       0.61572                       0.73082
                       0.29459                       0.61543                       0.73106
                       0.29461                       0.61507                       0.73137
                       0.29463                       0.61455                       0.73179
                       0.26404                       0.61929                       0.73943
                       0.24184                       0.62213                       0.74463
                       0.22237                       0.62428                       0.74888
                       0.20171                       0.62637                       0.75297
                       0.18035                       0.62831                       0.75677
                       0.16009                       0.62992                       0.75998
                       0.13992                       0.63131                       0.76281
                       0.12159                       0.63237                       0.76507
                       0.10766                       0.63301                       0.76662
                       0.09393                       0.63356                       0.76797
                       0.08243                       0.63397                       0.76896
                       0.07386                       0.63422                       0.76961
                       0.06928                       0.63433                       0.76995
                       0.06929                       0.63431                       0.76996
        </DataArray>
        <DataArray type="Float32" Name="OrientationZ" NumberOfComponents="3" format="ascii">
                       0.01218                      -0.76702                       0.64151
                       0.01218                      -0.76712                       0.64139
                       0.01221                      -0.76738                       0.64108
                       0.01228                      -0.76771                       0.64068
                       0.01241                      -0.76818                       0.64011
                       0.01262                      -0.76879                       0.63938
                       0.01287                      -0.76939                       0.63864
                       0.01315                      -0.76996                       0.63795
                       0.01343                      -0.77047                       0.63733
                       0.01371                      -0.77091                       0.63679
                       0.01397                      -0.77128                       0.63634
                       0.01420                      -0.77159                       0.63597
                       0.01438                      -0.77183                       0.63567
                       0.01450                      -0.77202                       0.63543
                       0.01455                      -0.77217                       0.63525
                       0.01455                      -0.77227                       0.63513
                       0.01451                      -0.77232                       0.63506
                       0.01443                      -0.77236                       0.63502
                       0.01439                      -0.77237                       0.63500
        </DataArray>
        <DataArray type="Float32" Name="Force" NumberOfComponents="3" format="ascii">
                      -4.25221                     -40.83692                     -48.74605
                      -0.83062                     -40.75601                     -48.71433
                      -0.86135                     -43.77849                     -52.32793
                      -0.62438                     -32.69758                     -39.08385
                      89.38100                     -24.29721                     -30.79846
                      83.80269                     -19.93802                     -25.51344
                      73.66798                     -16.24809                     -20.93571
                      78.47358                     -12.73420                     -16.87372
                      92.16793                      -9.25115                     -13.04481
                      81.02825                      -6.84098                      -9.96447
                      68.38595                      -5.03577                      -7.55924
                      51.80828                      -3.61069                      -5.50316
                      35.84441                      -2.40817                      -3.71124
                      25.47393                      -1.78714                      -2.73364
                      16.33435                      -1.46626                      -2.13779
                       9.60168                      -1.18059                      -1.63789
                       4.84506                      -0.91732                      -1.21087
                       1.27396                      -0.52982                      -0.66347
                       0.33387                      -0.47916                      -0.58089
        </DataArray>
        <DataArray type="Float32" Name="Moment" NumberOfComponents="3" format="ascii">
                       0.00000                       0.00000                       0.00000
                       0.00000                       0.00000                       0.00000
                       0.00000                       0.00000                       0.00000
                       0.00000                       0.00000                       0.00000
                      -2.36896                     145.00158                    -121.26818
                      -2.24206                     134.33459                    -112.34300
                      -1.92873                     112.80727                     -94.33585
                      -2.23206                     127.30198                    -106.45231
                      -2.55119                     141.93550                    -118.68369
                      -2.16520                     117.68781                     -98.40389
                      -1.73970                      92.61426                     -77.43568
                      -1.24664                      65.21280                     -54.52317
                      -0.80845                      41.71730                     -34.87807
                      -0.53269                      27.23236                     -22.76739
                      -0.31320                      15.93734                     -13.32416
                      -0.16971                       8.63343                      -7.21784
                      -0.07755                       3.95459                      -3.30618
                      -0.01413                       0.72369                      -0.60504
                      -0.00408                       0.20968                      -0.17530
        </DataArray>
      </PointData>
      <Lines>
        <DataArray type="Int32" Name="connectivity" format="ascii">
      0      1
      1      2
      2      3
      3      4
      4      5
      5      6
      6      7
      7      8
      8      9
      9     10
     10     11
     11     12
     12     13
     13     14
     14     15
     15     16
     16     17
     17     18
        </DataArray>
        <DataArray type="Int32" Name="offsets" format="ascii">
      2
      4
      6
      8
     10
     12
     14
     16
     18
     20
     22
     24
     26
     28
     30
     32
     34
     36
        </DataArray>
      </Lines>
    </Piece>
  </PolyData>
</VTKFile>
