<?xml version="1.0"?>
<VTKFile type="PolyData" version="0.1" byte_order="LittleEndian">
  <PolyData>
    <Piece NumberOfPoints="     19" NumberOfVerts="  0" NumberOfLines="     18"
           NumberOfStrips="  0" NumberOfPolys="      0">
      <Points>
        <DataArray type="Float32" NumberOfComponents="3" format="ascii">
                      -4.97441                      -0.93079                      91.18441
                      -4.94104                      -1.76960                      92.26290
                      -4.90163                      -3.52193                      94.36275
                      -4.87505                      -5.31022                      96.43503
                      -4.84925                      -7.56790                      99.00815
                      -4.75725                     -10.16754                     102.17859
                      -4.63346                     -12.66761                     105.42529
                      -4.51082                     -15.16806                     108.67180
                      -4.38675                     -17.66734                     111.91923
                      -4.26217                     -20.16670                     115.16668
                      -4.13859                     -22.66866                     118.41219
                      -4.01526                     -25.17175                     121.65689
                      -3.89292                     -27.67564                     124.90105
                      -3.77239                     -30.18007                     128.14489
                      -3.65208                     -32.68501                     131.38840
                      -3.55202                     -34.77282                     134.09113
                      -3.47191                     -36.43705                     136.25799
                      -3.39003                     -38.05825                     138.45858
                      -3.35199                     -38.90173                     139.53314
        </DataArray>
      </Points>
      <PointData>
        <DataArray type="Float32" Name="TranslationalVelocity" NumberOfComponents="3" format="ascii">
                       0.00451                      -0.03506                      -0.02459
                       0.00260                      -0.06481                      -0.04767
                      -0.00160                      -0.12268                      -0.09589
                      -0.00628                      -0.17974                      -0.14508
                      -0.01295                      -0.25053                      -0.20714
                      -0.02211                      -0.33781                      -0.27848
                      -0.03298                      -0.42711                      -0.34687
                      -0.04619                      -0.51622                      -0.41504
                      -0.06201                      -0.60516                      -0.48292
                      -0.08061                      -0.69389                      -0.55051
                      -0.10206                      -0.78236                      -0.61792
                      -0.12624                      -0.87064                      -0.68511
                      -0.15287                      -0.95875                      -0.75212
                      -0.18146                      -1.04677                      -0.81901
                      -0.21132                      -1.13476                      -0.88586
                      -0.23650                      -1.20813                      -0.94161
                      -0.25633                      -1.26701                      -0.98611
                      -0.27556                      -1.32691                      -1.02953
                      -0.28473                      -1.35620                      -1.05219
        </DataArray>
        <DataArray type="Float32" Name="RotationalVelocity" NumberOfComponents="3" format="ascii">
                       0.02751                       0.00013                      -0.00239
                       0.02751                       0.00010                      -0.00241
                       0.02751                       0.00001                      -0.00247
                       0.02750                      -0.00012                      -0.00257
                       0.02747                      -0.00036                      -0.00272
                       0.02742                      -0.00074                      -0.00293
                       0.02736                      -0.00122                      -0.00315
                       0.02729                      -0.00180                      -0.00338
                       0.02721                      -0.00243                      -0.00362
                       0.02714                      -0.00310                      -0.00386
                       0.02707                      -0.00377                      -0.00410
                       0.02701                      -0.00441                      -0.00432
                       0.02697                      -0.00499                      -0.00449
                       0.02696                      -0.00548                      -0.00456
                       0.02696                      -0.00586                      -0.00445
                       0.02699                      -0.00611                      -0.00416
                       0.02702                      -0.00626                      -0.00373
                       0.02706                      -0.00636                      -0.00308
                       0.02709                      -0.00640                      -0.00266
        </DataArray>
        <DataArray type="Float32" Name="TranslationalAcceleration" NumberOfComponents="3" format="ascii">
                       0.00335                       0.02575                       0.00434
                       0.00046                       0.00786                       0.00015
                       0.00829                       0.01901                      -0.00070
                       0.02115                       0.02533                      -0.00262
                       0.04107                       0.02833                      -0.00624
                       0.07339                       0.02565                      -0.01361
                       0.11476                       0.01868                      -0.02358
                       0.16127                       0.01014                      -0.03482
                       0.21030                       0.00171                      -0.04649
                       0.25991                      -0.00590                      -0.05814
                       0.30861                      -0.01278                      -0.06967
                       0.35443                      -0.01946                      -0.08121
                       0.39382                      -0.02655                      -0.09279
                       0.41978                      -0.03419                      -0.10401
                       0.41942                      -0.04232                      -0.11427
                       0.38136                      -0.04869                      -0.12091
                       0.31523                      -0.05285                      -0.12420
                       0.18655                      -0.05511                      -0.12389
                       0.10104                      -0.05551                      -0.12282
        </DataArray>
        <DataArray type="Float32" Name="OrientationX" NumberOfComponents="3" format="ascii">
                       0.95923                      -0.20797                      -0.19138
                       0.95923                      -0.20794                      -0.19141
                       0.95922                      -0.20787                      -0.19151
                       0.95922                      -0.20777                      -0.19166
                       0.95920                      -0.20761                      -0.19190
                       0.96768                      -0.18298                      -0.17354
                       0.97317                      -0.16507                      -0.16030
                       0.97754                      -0.14935                      -0.14871
                       0.98173                      -0.13271                      -0.13637
                       0.98558                      -0.11557                      -0.12357
                       0.98880                      -0.09932                      -0.11140
                       0.99158                      -0.08318                      -0.09924
                       0.99375                      -0.06853                      -0.08817
                       0.99516                      -0.05739                      -0.07977
                       0.99636                      -0.04644                      -0.07144
                       0.99723                      -0.03730                      -0.06443
                       0.99778                      -0.03051                      -0.05919
                       0.99805                      -0.02688                      -0.05639
                       0.99805                      -0.02689                      -0.05641
        </DataArray>
        <DataArray type="Float32" Name="OrientationY" NumberOfComponents="3" format="ascii">
                       0.28150                       0.76329                       0.58151
                       0.28151                       0.76322                       0.58160
                       0.28152                       0.76303                       0.58183
                       0.28154                       0.76280                       0.58213
                       0.28157                       0.76247                       0.58255
                       0.25089                       0.76827                       0.58891
                       0.22865                       0.77184                       0.59328
                       0.20915                       0.77460                       0.59687
                       0.18846                       0.77722                       0.60034
                       0.16709                       0.77961                       0.60356
                       0.14681                       0.78156                       0.60631
                       0.12662                       0.78321                       0.60873
                       0.10828                       0.78443                       0.61069
                       0.09434                       0.78517                       0.61205
                       0.08060                       0.78578                       0.61323
                       0.06908                       0.78619                       0.61411
                       0.06051                       0.78643                       0.61470
                       0.05593                       0.78653                       0.61501
                       0.05595                       0.78652                       0.61502
        </DataArray>
        <DataArray type="Float32" Name="OrientationZ" NumberOfComponents="3" format="ascii">
                       0.02514                      -0.61167                       0.79071
                       0.02515                      -0.61177                       0.79064
                       0.02518                      -0.61203                       0.79044
                       0.02525                      -0.61235                       0.79018
                       0.02537                      -0.61282                       0.78982
                       0.02557                      -0.61341                       0.78935
                       0.02580                      -0.61401                       0.78888
                       0.02605                      -0.61457                       0.78843
                       0.02632                      -0.61507                       0.78803
                       0.02659                      -0.61551                       0.78768
                       0.02685                      -0.61587                       0.78739
                       0.02709                      -0.61617                       0.78715
                       0.02731                      -0.61642                       0.78695
                       0.02750                      -0.61661                       0.78679
                       0.02765                      -0.61676                       0.78666
                       0.02775                      -0.61686                       0.78658
                       0.02780                      -0.61692                       0.78653
                       0.02782                      -0.61696                       0.78650
                       0.02783                      -0.61698                       0.78649
        </DataArray>
        <DataArray type="Float32" Name="Force" NumberOfComponents="3" format="ascii">
                      -5.17009                     -76.91995                     -59.33896
                      -1.93033                     -76.80030                     -59.34947
                      -2.06089                     -82.99530                     -64.13786
                      -1.52822                     -62.36784                     -48.19814
                     131.63636                     -42.39099                     -37.03089
                     124.14031                     -34.42711                     -30.66598
                     110.05718                     -27.89484                     -25.19321
                     122.90730                     -21.71646                     -20.88100
                     149.91282                     -15.48590                     -17.01442
                     122.54970                     -11.98585                     -13.43438
                     106.60212                      -8.69315                     -10.38417
                      84.78017                      -6.23269                      -7.76027
                      63.51680                      -4.33675                      -5.57565
                      51.22746                      -3.02408                      -4.14358
                       5.01988                      -2.21688                      -1.89322
                       6.96986                      -2.07855                      -1.85613
                       9.14865                      -1.89955                      -1.79568
                       7.80826                      -1.28328                      -1.27137
                       0.66222                      -1.05227                      -0.83789
        </DataArray>
        <DataArray type="Float32" Name="Moment" NumberOfComponents="3" format="ascii">
                       0.00000                       0.00000                       0.00000
                       0.00000                       0.00000                       0.00000
                       0.00000                       0.00000                       0.00000
                       0.00000                       0.00000                       0.00000
                      -7.08908                     170.37597                    -220.23742
                      -6.66265                     158.67926                    -205.11235
                      -5.69744                     134.28538                    -173.57513
                      -6.91409                     161.15557                    -208.30044
                      -8.06043                     185.75213                    -240.08460
                      -6.22642                     141.89578                    -183.39426
                      -5.10259                     115.05955                    -148.70490
                      -3.80668                      85.00709                    -109.86138
                      -2.65857                      58.85993                     -76.06735
                      -1.98178                      43.55783                     -56.29050
                      -0.18465                       4.03520                      -5.21466
                      -0.23218                       5.05566                      -6.53333
                      -0.27272                       5.92705                      -7.65935
                      -0.15786                       3.42709                      -4.42872
                      -0.01473                       0.31971                      -0.41314
        </DataArray>
      </PointData>
      <Lines>
        <DataArray type="Int32" Name="connectivity" format="ascii">
      0      1
      1      2
      2      3
      3      4
      4      5
      5      6
      6      7
      7      8
      8      9
      9     10
     10     11
     11     12
     12     13
     13     14
     14     15
     15     16
     16     17
     17     18
        </DataArray>
        <DataArray type="Int32" Name="offsets" format="ascii">
      2
      4
      6
      8
     10
     12
     14
     16
     18
     20
     22
     24
     26
     28
     30
     32
     34
     36
        </DataArray>
      </Lines>
    </Piece>
  </PolyData>
</VTKFile>
