<?xml version="1.0"?>
<VTKFile type="PolyData" version="0.1" byte_order="LittleEndian">
  <PolyData>
    <Piece NumberOfPoints="     19" NumberOfVerts="  0" NumberOfLines="     18"
           NumberOfStrips="  0" NumberOfPolys="      0">
      <Points>
        <DataArray type="Float32" NumberOfComponents="3" format="ascii">
                      -5.12987                       1.32424                      89.30795
                      -5.24527                       2.53316                      88.68098
                      -5.49099                       4.99384                      87.51194
                      -5.74384                       7.47450                      86.38210
                      -6.06427                      10.58678                      84.99166
                      -6.40745                      14.25496                      83.18801
                      -6.73697                      17.86107                      81.26358
                      -7.06919                      21.46382                      79.33345
                      -7.40176                      25.06261                      77.39608
                      -7.73523                      28.65851                      75.45364
                      -8.07048                      32.25346                      73.50995
                      -8.40672                      35.84709                      71.56411
                      -8.74441                      39.43963                      69.61664
                      -9.08405                      43.03133                      67.66806
                      -9.42374                      46.62247                      65.71857
                      -9.70665                      49.61477                      64.09334
                      -9.93356                      52.00457                      62.78589
                     -10.16544                      54.36798                      61.42986
                     -10.27869                      55.56930                      60.78827
        </DataArray>
      </Points>
      <PointData>
        <DataArray type="Float32" Name="TranslationalVelocity" NumberOfComponents="3" format="ascii">
                      -0.00572                      -0.00025                       0.01000
                      -0.00486                       0.00474                       0.01946
                      -0.00308                       0.01406                       0.03870
                      -0.00125                       0.02307                       0.05807
                       0.00112                       0.03415                       0.08233
                       0.00407                       0.04846                       0.11084
                       0.00722                       0.06368                       0.13879
                       0.01069                       0.07892                       0.16661
                       0.01460                       0.09421                       0.19431
                       0.01907                       0.10953                       0.22189
                       0.02425                       0.12488                       0.24935
                       0.03024                       0.14025                       0.27670
                       0.03716                       0.15568                       0.30394
                       0.04511                       0.17115                       0.33107
                       0.05416                       0.18667                       0.35809
                       0.06257                       0.19965                       0.38053
                       0.06985                       0.21012                       0.39839
                       0.07759                       0.22099                       0.41601
                       0.08165                       0.22615                       0.42495
        </DataArray>
        <DataArray type="Float32" Name="RotationalVelocity" NumberOfComponents="3" format="ascii">
                       0.00783                      -0.00007                      -0.00068
                       0.00783                      -0.00008                      -0.00068
                       0.00782                      -0.00008                      -0.00069
                       0.00781                      -0.00008                      -0.00070
                       0.00780                      -0.00009                      -0.00073
                       0.00778                      -0.00011                      -0.00078
                       0.00775                      -0.00014                      -0.00084
                       0.00773                      -0.00017                      -0.00092
                       0.00771                      -0.00021                      -0.00103
                       0.00769                      -0.00027                      -0.00117
                       0.00767                      -0.00034                      -0.00134
                       0.00765                      -0.00041                      -0.00154
                       0.00763                      -0.00051                      -0.00177
                       0.00761                      -0.00061                      -0.00202
                       0.00759                      -0.00072                      -0.00226
                       0.00757                      -0.00082                      -0.00246
                       0.00756                      -0.00090                      -0.00260
                       0.00755                      -0.00099                      -0.00271
                       0.00755                      -0.00103                      -0.00275
        </DataArray>
        <DataArray type="Float32" Name="TranslationalAcceleration" NumberOfComponents="3" format="ascii">
                      -0.00939                      -0.02770                       0.01237
                      -0.00422                      -0.00756                       0.00547
                      -0.01192                      -0.01794                       0.01503
                      -0.01755                      -0.02303                       0.02326
                      -0.02090                      -0.02397                       0.03270
                      -0.02091                      -0.01973                       0.04281
                      -0.01766                      -0.01267                       0.05196
                      -0.01099                      -0.00544                       0.05997
                      -0.00229                       0.00017                       0.06593
                       0.00645                       0.00297                       0.06873
                       0.01264                       0.00230                       0.06732
                       0.01312                      -0.00204                       0.06098
                       0.00434                      -0.00983                       0.04964
                      -0.01750                      -0.02051                       0.03414
                      -0.05623                      -0.03321                       0.01657
                      -0.10427                      -0.04457                       0.00279
                      -0.15386                      -0.05356                      -0.00553
                      -0.21321                      -0.06220                      -0.00939
                      -0.24750                      -0.06600                      -0.00902
        </DataArray>
        <DataArray type="Float32" Name="OrientationX" NumberOfComponents="3" format="ascii">
                       0.98452                       0.14501                       0.09845
                       0.98452                       0.14503                       0.09844
                       0.98451                       0.14509                       0.09841
                       0.98450                       0.14518                       0.09836
                       0.98449                       0.14533                       0.09829
                       0.98888                       0.13116                       0.07006
                       0.99143                       0.12087                       0.04966
                       0.99322                       0.11180                       0.03185
                       0.99469                       0.10210                       0.01305
                       0.99574                       0.09201                      -0.00625
                       0.99630                       0.08236                      -0.02445
                       0.99645                       0.07268                      -0.04246
                       0.99623                       0.06383                      -0.05872
                       0.99585                       0.05702                      -0.07099
                       0.99528                       0.05027                      -0.08302
                       0.99466                       0.04461                      -0.09307
                       0.99411                       0.04039                      -0.10052
                       0.99380                       0.03807                      -0.10448
                       0.99380                       0.03802                      -0.10444
        </DataArray>
        <DataArray type="Float32" Name="OrientationY" NumberOfComponents="3" format="ascii">
                       0.15381                      -0.44547                      -0.88199
                       0.15383                      -0.44562                      -0.88191
                       0.15386                      -0.44602                      -0.88170
                       0.15391                      -0.44652                      -0.88144
                       0.15399                      -0.44723                      -0.88107
                       0.12260                      -0.45254                      -0.88327
                       0.09992                      -0.45634                      -0.88418
                       0.08009                      -0.45951                      -0.88455
                       0.05909                      -0.46253                      -0.88463
                       0.03745                      -0.46530                      -0.88436
                       0.01697                      -0.46764                      -0.88376
                      -0.00336                      -0.46967                      -0.88283
                      -0.02177                      -0.47130                      -0.88170
                      -0.03572                      -0.47244                      -0.88064
                      -0.04945                      -0.47341                      -0.87945
                      -0.06092                      -0.47412                      -0.87835
                      -0.06945                      -0.47457                      -0.87747
                      -0.07400                      -0.47482                      -0.87696
                      -0.07399                      -0.47484                      -0.87695
        </DataArray>
        <DataArray type="Float32" Name="OrientationZ" NumberOfComponents="3" format="ascii">
                      -0.08404                       0.88348                      -0.46087
                      -0.08403                       0.88340                      -0.46103
                      -0.08403                       0.88319                      -0.46143
                      -0.08405                       0.88292                      -0.46195
                      -0.08409                       0.88253                      -0.46267
                      -0.08415                       0.88204                      -0.46359
                      -0.08421                       0.88156                      -0.46450
                      -0.08426                       0.88111                      -0.46535
                      -0.08429                       0.88070                      -0.46611
                      -0.08427                       0.88036                      -0.46676
                      -0.08422                       0.88007                      -0.46731
                      -0.08411                       0.87984                      -0.46776
                      -0.08395                       0.87966                      -0.46814
                      -0.08375                       0.87952                      -0.46844
                      -0.08351                       0.87940                      -0.46869
                      -0.08331                       0.87933                      -0.46887
                      -0.08315                       0.87929                      -0.46898
                      -0.08300                       0.87926                      -0.46906
                      -0.08293                       0.87925                      -0.46909
        </DataArray>
        <DataArray type="Float32" Name="Force" NumberOfComponents="3" format="ascii">
                      -2.64163                     -16.02929                     -30.24590
                      -8.42981                     -17.41194                     -31.84119
                     -11.65695                     -18.72737                     -33.77514
                      -6.85195                     -13.41709                     -24.47151
                     -65.62822                      -5.93434                       0.57594
                     -60.09094                      -5.39811                       0.59279
                     -51.81421                      -4.10283                       1.56692
                    -103.33470                      -3.38141                      12.32275
                     -71.05211                      -0.71682                      11.54949
                     -68.12751                       0.41554                      13.17794
                     -51.70610                       1.55611                      12.36794
                     -36.87457                       0.77358                       8.16400
                     -22.30199                       0.15624                       4.33103
                     -14.49312                      -0.06361                       2.49074
                      -8.35664                      -0.14401                       1.22574
                      -4.22948                      -0.15854                       0.45418
                      -1.63446                      -0.15079                       0.00334
                      -0.61172                      -0.10991                      -0.10143
                      -0.80652                      -0.11694                      -0.08024
        </DataArray>
        <DataArray type="Float32" Name="Moment" NumberOfComponents="3" format="ascii">
                       0.00000                       0.00000                       0.00000
                       0.00000                       0.00000                       0.00000
                       0.00000                       0.00000                       0.00000
                       0.00000                       0.00000                       0.00000
                      -3.69694                      38.91449                     -20.30046
                      -3.18739                      33.55909                     -17.50678
                      -2.49313                      26.25470                     -13.69634
                      -0.85637                       9.02076                      -4.70590
                       0.48366                      -5.09726                       2.65913
                       0.88778                      -9.36369                       4.88490
                       1.20004                     -12.67295                       6.61142
                       1.30250                     -13.77908                       7.18868
                       1.25446                     -13.30093                       6.93947
                       1.06008                     -11.27073                       5.88051
                       0.87240                      -9.30398                       4.85459
                       0.73411                      -7.84999                       4.09611
                       0.59942                      -6.42299                       3.35161
                       0.27710                      -2.97474                       1.55231
                       0.27971                      -3.00519                       1.56822
        </DataArray>
      </PointData>
      <Lines>
        <DataArray type="Int32" Name="connectivity" format="ascii">
      0      1
      1      2
      2      3
      3      4
      4      5
      5      6
      6      7
      7      8
      8      9
      9     10
     10     11
     11     12
     12     13
     13     14
     14     15
     15     16
     16     17
     17     18
        </DataArray>
        <DataArray type="Int32" Name="offsets" format="ascii">
      2
      4
      6
      8
     10
     12
     14
     16
     18
     20
     22
     24
     26
     28
     30
     32
     34
     36
        </DataArray>
      </Lines>
    </Piece>
  </PolyData>
</VTKFile>
