<?xml version="1.0"?>
<VTKFile type="PolyData" version="0.1" byte_order="LittleEndian">
  <PolyData>
    <Piece NumberOfPoints="     19" NumberOfVerts="  0" NumberOfLines="     18"
           NumberOfStrips="  0" NumberOfPolys="      0">
      <Points>
        <DataArray type="Float32" NumberOfComponents="3" format="ascii">
                      -5.10139                       1.46206                      89.71816
                      -5.18404                       2.80273                      89.46584
                      -5.36357                       5.50102                      89.05478
                      -5.54993                       8.20730                      88.68685
                      -5.78715                      11.59492                      88.25091
                      -6.03185                      15.63409                      87.57865
                      -6.26428                      19.64808                      86.77233
                      -6.49984                      23.66043                      85.95910
                      -6.73627                      27.67094                      85.13735
                      -6.97419                      31.68004                      84.30953
                      -7.21453                      35.68853                      83.47992
                      -7.45655                      39.69627                      82.64761
                      -7.70077                      43.70340                      81.81324
                      -7.94772                      47.70999                      80.97744
                      -8.19548                      51.71627                      80.14051
                      -8.40236                      55.05465                      79.44231
                      -8.56887                      57.72357                      78.87561
                      -8.74110                      60.38124                      78.25480
                      -8.82425                      61.71835                      77.98489
        </DataArray>
      </Points>
      <PointData>
        <DataArray type="Float32" Name="TranslationalVelocity" NumberOfComponents="3" format="ascii">
                      -0.00054                      -0.00619                       0.03213
                       0.00201                      -0.00050                       0.06152
                       0.00713                       0.00885                       0.12067
                       0.01229                       0.01727                       0.18001
                       0.01878                       0.02728                       0.25430
                       0.02661                       0.04249                       0.34290
                       0.03447                       0.06064                       0.43097
                       0.04236                       0.07894                       0.51904
                       0.05021                       0.09744                       0.60709
                       0.05793                       0.11607                       0.69514
                       0.06541                       0.13474                       0.78321
                       0.07255                       0.15345                       0.87128
                       0.07922                       0.17220                       0.95937
                       0.08529                       0.19095                       1.04749
                       0.09066                       0.20969                       1.13565
                       0.09449                       0.22530                       1.20915
                       0.09713                       0.23795                       1.26795
                       0.09932                       0.25177                       1.32654
                       0.10027                       0.25778                       1.35603
        </DataArray>
        <DataArray type="Float32" Name="RotationalVelocity" NumberOfComponents="3" format="ascii">
                       0.02192                      -0.00002                      -0.00189
                       0.02192                      -0.00002                      -0.00189
                       0.02193                      -0.00002                      -0.00190
                       0.02193                      -0.00002                      -0.00191
                       0.02193                      -0.00003                      -0.00192
                       0.02194                      -0.00003                      -0.00194
                       0.02195                      -0.00003                      -0.00195
                       0.02195                      -0.00003                      -0.00195
                       0.02196                      -0.00003                      -0.00193
                       0.02196                      -0.00003                      -0.00190
                       0.02197                      -0.00002                      -0.00183
                       0.02198                      -0.00000                      -0.00173
                       0.02198                       0.00002                      -0.00160
                       0.02199                       0.00005                      -0.00145
                       0.02200                       0.00009                      -0.00127
                       0.02201                       0.00012                      -0.00111
                       0.02202                       0.00015                      -0.00098
                       0.02204                       0.00018                      -0.00086
                       0.02204                       0.00019                      -0.00080
        </DataArray>
        <DataArray type="Float32" Name="TranslationalAcceleration" NumberOfComponents="3" format="ascii">
                       0.00906                       0.00352                       0.00351
                       0.00266                       0.00065                       0.00252
                       0.00676                       0.00133                       0.00710
                       0.00947                       0.00131                       0.01126
                       0.01153                       0.00068                       0.01629
                       0.01290                      -0.00029                       0.02240
                       0.01441                      -0.00109                       0.02886
                       0.01759                      -0.00169                       0.03566
                       0.02393                      -0.00198                       0.04260
                       0.03497                      -0.00193                       0.04935
                       0.05232                      -0.00152                       0.05552
                       0.07761                      -0.00080                       0.06069
                       0.11253                       0.00025                       0.06450
                       0.15884                       0.00163                       0.06669
                       0.21832                       0.00341                       0.06718
                       0.27956                       0.00532                       0.06636
                       0.33656                       0.00723                       0.06511
                       0.40131                       0.00970                       0.06355
                       0.43688                       0.01109                       0.06271
        </DataArray>
        <DataArray type="Float32" Name="OrientationX" NumberOfComponents="3" format="ascii">
                       0.98746                       0.08579                       0.13250
                       0.98746                       0.08582                       0.13250
                       0.98746                       0.08591                       0.13248
                       0.98745                       0.08605                       0.13246
                       0.98743                       0.08626                       0.13242
                       0.99157                       0.08077                       0.10127
                       0.99393                       0.07681                       0.07874
                       0.99556                       0.07330                       0.05904
                       0.99685                       0.06949                       0.03821
                       0.99771                       0.06546                       0.01678
                       0.99810                       0.06158                      -0.00348
                       0.99806                       0.05764                      -0.02355
                       0.99767                       0.05401                      -0.04172
                       0.99715                       0.05119                      -0.05548
                       0.99644                       0.04837                      -0.06899
                       0.99571                       0.04597                      -0.08027
                       0.99508                       0.04417                      -0.08865
                       0.99472                       0.04316                      -0.09313
                       0.99472                       0.04312                      -0.09311
        </DataArray>
        <DataArray type="Float32" Name="OrientationY" NumberOfComponents="3" format="ascii">
                       0.14596                      -0.17664                      -0.97339
                       0.14597                      -0.17683                      -0.97336
                       0.14600                      -0.17732                      -0.97326
                       0.14604                      -0.17794                      -0.97314
                       0.14610                      -0.17881                      -0.97298
                       0.11460                      -0.18259                      -0.97649
                       0.09184                      -0.18551                      -0.97834
                       0.07193                      -0.18805                      -0.97952
                       0.05086                      -0.19050                      -0.98037
                       0.02915                      -0.19277                      -0.98081
                       0.00860                      -0.19476                      -0.98081
                      -0.01178                      -0.19654                      -0.98043
                      -0.03025                      -0.19803                      -0.97973
                      -0.04424                      -0.19913                      -0.97897
                      -0.05800                      -0.20011                      -0.97806
                      -0.06951                      -0.20085                      -0.97715
                      -0.07805                      -0.20135                      -0.97640
                      -0.08262                      -0.20163                      -0.97597
                      -0.08262                      -0.20166                      -0.97597
        </DataArray>
        <DataArray type="Float32" Name="OrientationZ" NumberOfComponents="3" format="ascii">
                      -0.06010                       0.98053                      -0.18695
                      -0.06010                       0.98049                      -0.18714
                      -0.06012                       0.98040                      -0.18764
                      -0.06017                       0.98027                      -0.18827
                      -0.06025                       0.98010                      -0.18916
                      -0.06038                       0.97987                      -0.19031
                      -0.06054                       0.97964                      -0.19144
                      -0.06069                       0.97942                      -0.19249
                      -0.06084                       0.97923                      -0.19343
                      -0.06097                       0.97906                      -0.19424
                      -0.06108                       0.97892                      -0.19492
                      -0.06114                       0.97880                      -0.19548
                      -0.06117                       0.97871                      -0.19593
                      -0.06116                       0.97864                      -0.19630
                      -0.06111                       0.97858                      -0.19659
                      -0.06104                       0.97854                      -0.19679
                      -0.06098                       0.97852                      -0.19691
                      -0.06090                       0.97851                      -0.19700
                      -0.06086                       0.97851                      -0.19703
        </DataArray>
        <DataArray type="Float32" Name="Force" NumberOfComponents="3" format="ascii">
                      -0.50143                      -1.12710                      -5.75036
                      -1.86055                      -1.24021                      -5.90681
                      -2.42021                      -1.44913                      -6.82294
                      -2.01887                      -1.15262                      -5.39682
                     -23.01017                      -1.60021                      -1.00071
                     -21.86898                      -1.46514                      -0.65509
                     -19.59760                      -1.22947                      -0.14352
                     -25.75070                      -1.21863                       1.90189
                     -21.25017                      -0.91518                       2.05172
                     -21.46064                      -0.72559                       3.12105
                     -23.40775                      -0.45934                       5.15170
                     -20.48335                      -0.33047                       4.88528
                     -15.42841                      -0.23285                       3.76304
                     -12.01353                      -0.20210                       2.81827
                      -8.95463                      -0.16493                       2.02203
                      -6.67866                      -0.13109                       1.46266
                      -4.92916                      -0.10140                       1.05302
                      -2.83495                      -0.06073                       0.59169
                       4.55464                       0.18228                      -0.50532
        </DataArray>
        <DataArray type="Float32" Name="Moment" NumberOfComponents="3" format="ascii">
                       0.00000                       0.00000                       0.00000
                       0.00000                       0.00000                       0.00000
                       0.00000                       0.00000                       0.00000
                       0.00000                       0.00000                       0.00000
                      -1.34044                      21.88416                      -4.17251
                      -1.26516                      20.64374                      -3.93595
                      -1.04989                      17.11618                      -3.26330
                      -0.63056                      10.26884                      -1.95775
                      -0.36943                       6.00959                      -1.14569
                      -0.18372                       2.98558                      -0.56917
                       0.09278                      -1.50670                       0.28723
                       0.10102                      -1.63995                       0.31263
                       0.24336                      -3.95137                       0.75327
                       0.22864                      -3.71510                       0.70824
                       0.21435                      -3.48730                       0.66483
                       0.19733                      -3.21487                       0.61292
                       0.17005                      -2.77405                       0.52890
                       0.08222                      -1.34305                       0.25607
                       0.09801                      -1.60219                       0.30549
        </DataArray>
      </PointData>
      <Lines>
        <DataArray type="Int32" Name="connectivity" format="ascii">
      0      1
      1      2
      2      3
      3      4
      4      5
      5      6
      6      7
      7      8
      8      9
      9     10
     10     11
     11     12
     12     13
     13     14
     14     15
     15     16
     16     17
     17     18
        </DataArray>
        <DataArray type="Int32" Name="offsets" format="ascii">
      2
      4
      6
      8
     10
     12
     14
     16
     18
     20
     22
     24
     26
     28
     30
     32
     34
     36
        </DataArray>
      </Lines>
    </Piece>
  </PolyData>
</VTKFile>
