<?xml version="1.0"?>
<VTKFile type="PolyData" version="0.1" byte_order="LittleEndian">
  <PolyData>
    <Piece NumberOfPoints="     19" NumberOfVerts="  0" NumberOfLines="     18"
           NumberOfStrips="  0" NumberOfPolys="      0">
      <Points>
        <DataArray type="Float32" NumberOfComponents="3" format="ascii">
                      -4.94943                      -0.54344                      91.39852
                      -4.89885                      -1.03600                      92.67236
                      -4.82292                      -2.10950                      95.18699
                      -4.75878                      -3.22526                      97.68581
                      -4.68536                      -4.64585                     100.79960
                      -4.53921                      -6.21932                     104.58406
                      -4.36400                      -7.67357                     108.41322
                      -4.18991                      -9.12712                     112.24271
                      -4.01442                     -10.57819                     116.07314
                      -3.83844                     -12.02838                     119.90391
                      -3.66347                     -13.48086                     123.73388
                      -3.48880                     -14.93401                     127.56362
                      -3.31524                     -16.38761                     131.39326
                      -3.14364                     -17.84149                     135.22290
                      -2.97247                     -19.29568                     139.05247
                      -2.83023                     -20.50772                     142.24378
                      -2.71669                     -21.47011                     144.79961
                      -2.60271                     -22.38138                     147.37531
                      -2.54779                     -22.87594                     148.64810
        </DataArray>
      </Points>
      <PointData>
        <DataArray type="Float32" Name="TranslationalVelocity" NumberOfComponents="3" format="ascii">
                       0.00484                      -0.01993                      -0.01153
                       0.00405                      -0.04915                      -0.02280
                       0.00229                      -0.10681                      -0.04736
                       0.00047                      -0.16412                      -0.07290
                      -0.00176                      -0.23560                      -0.10547
                      -0.00401                      -0.32271                      -0.14161
                      -0.00583                      -0.41103                      -0.17509
                      -0.00746                      -0.49949                      -0.20860
                      -0.00896                      -0.58808                      -0.24210
                      -0.01041                      -0.67676                      -0.27561
                      -0.01191                      -0.76548                      -0.30920
                      -0.01359                      -0.85423                      -0.34280
                      -0.01559                      -0.94298                      -0.37640
                      -0.01809                      -1.03171                      -0.40997
                      -0.02123                      -1.12042                      -0.44352
                      -0.02449                      -1.19432                      -0.47144
                      -0.02753                      -1.25351                      -0.49359
                      -0.03078                      -1.31316                      -0.51455
                      -0.03275                      -1.34263                      -0.52592
        </DataArray>
        <DataArray type="Float32" Name="RotationalVelocity" NumberOfComponents="3" format="ascii">
                       0.02285                       0.00015                      -0.00202
                       0.02286                       0.00015                      -0.00202
                       0.02287                       0.00016                      -0.00201
                       0.02289                       0.00018                      -0.00200
                       0.02292                       0.00020                      -0.00199
                       0.02295                       0.00025                      -0.00199
                       0.02299                       0.00030                      -0.00200
                       0.02301                       0.00035                      -0.00201
                       0.02304                       0.00038                      -0.00202
                       0.02306                       0.00039                      -0.00203
                       0.02307                       0.00037                      -0.00205
                       0.02307                       0.00031                      -0.00208
                       0.02307                       0.00024                      -0.00216
                       0.02306                       0.00017                      -0.00233
                       0.02304                       0.00013                      -0.00268
                       0.02302                       0.00016                      -0.00316
                       0.02299                       0.00024                      -0.00373
                       0.02296                       0.00040                      -0.00452
                       0.02294                       0.00052                      -0.00501
        </DataArray>
        <DataArray type="Float32" Name="TranslationalAcceleration" NumberOfComponents="3" format="ascii">
                      -0.01601                      -0.00613                      -0.00255
                      -0.00541                      -0.00236                      -0.00171
                      -0.01323                      -0.00612                      -0.00480
                      -0.01810                      -0.00874                      -0.00750
                      -0.02214                      -0.01080                      -0.01040
                      -0.02567                      -0.01227                      -0.01327
                      -0.02738                      -0.01368                      -0.01599
                      -0.02638                      -0.01563                      -0.01905
                      -0.02096                      -0.01861                      -0.02272
                      -0.00865                      -0.02293                      -0.02727
                       0.01385                      -0.02878                      -0.03291
                       0.05063                      -0.03633                      -0.03987
                       0.10674                      -0.04572                      -0.04840
                       0.18826                      -0.05711                      -0.05879
                       0.30260                      -0.07063                      -0.07141
                       0.43066                      -0.08370                      -0.08405
                       0.55891                      -0.09538                      -0.09572
                       0.73026                      -0.10835                      -0.10949
                       0.81827                      -0.11484                      -0.11661
        </DataArray>
        <DataArray type="Float32" Name="OrientationX" NumberOfComponents="3" format="ascii">
                       0.96481                      -0.23010                      -0.12725
                       0.96481                      -0.23009                      -0.12728
                       0.96480                      -0.23006                      -0.12737
                       0.96480                      -0.23002                      -0.12752
                       0.96478                      -0.22996                      -0.12775
                       0.97257                      -0.20092                      -0.11724
                       0.97756                      -0.17985                      -0.10969
                       0.98149                      -0.16139                      -0.10311
                       0.98522                      -0.14184                      -0.09607
                       0.98859                      -0.12168                      -0.08876
                       0.99136                      -0.10257                      -0.08179
                       0.99369                      -0.08360                      -0.07480
                       0.99545                      -0.06638                      -0.06842
                       0.99655                      -0.05331                      -0.06357
                       0.99745                      -0.04044                      -0.05873
                       0.99807                      -0.02968                      -0.05463
                       0.99844                      -0.02168                      -0.05155
                       0.99860                      -0.01741                      -0.04987
                       0.99860                      -0.01743                      -0.04985
        </DataArray>
        <DataArray type="Float32" Name="OrientationY" NumberOfComponents="3" format="ascii">
                       0.26023                       0.90493                       0.33673
                       0.26023                       0.90491                       0.33679
                       0.26025                       0.90484                       0.33695
                       0.26026                       0.90476                       0.33714
                       0.26030                       0.90465                       0.33742
                       0.22946                       0.91137                       0.34169
                       0.20712                       0.91559                       0.34465
                       0.18756                       0.91887                       0.34712
                       0.16681                       0.92195                       0.34954
                       0.14540                       0.92471                       0.35181
                       0.12509                       0.92692                       0.35379
                       0.10490                       0.92874                       0.35557
                       0.08656                       0.93007                       0.35705
                       0.07264                       0.93085                       0.35810
                       0.05891                       0.93146                       0.35904
                       0.04740                       0.93184                       0.35976
                       0.03884                       0.93205                       0.36025
                       0.03426                       0.93212                       0.36052
                       0.03426                       0.93212                       0.36052
        </DataArray>
        <DataArray type="Float32" Name="OrientationZ" NumberOfComponents="3" format="ascii">
                       0.03767                      -0.35799                       0.93297
                       0.03768                      -0.35806                       0.93294
                       0.03774                      -0.35824                       0.93287
                       0.03783                      -0.35846                       0.93278
                       0.03797                      -0.35879                       0.93264
                       0.03820                      -0.35922                       0.93247
                       0.03845                      -0.35964                       0.93230
                       0.03872                      -0.36004                       0.93213
                       0.03900                      -0.36039                       0.93198
                       0.03927                      -0.36070                       0.93185
                       0.03952                      -0.36096                       0.93174
                       0.03975                      -0.36118                       0.93165
                       0.03994                      -0.36135                       0.93158
                       0.04009                      -0.36148                       0.93152
                       0.04019                      -0.36158                       0.93147
                       0.04023                      -0.36165                       0.93145
                       0.04023                      -0.36169                       0.93143
                       0.04021                      -0.36172                       0.93142
                       0.04019                      -0.36173                       0.93142
        </DataArray>
        <DataArray type="Float32" Name="Force" NumberOfComponents="3" format="ascii">
                      -4.25077                    -127.37811                     -48.70486
                      -2.03217                    -127.42578                     -48.81276
                      -2.20367                    -138.59729                     -53.09264
                      -1.66314                    -104.82603                     -40.15617
                     180.27442                     -65.30454                     -32.40166
                     170.41103                     -52.19884                     -27.01453
                     151.41991                     -41.59444                     -22.21092
                     176.13797                     -31.69844                     -19.48780
                     195.60001                     -23.79182                     -17.32368
                     156.33247                     -17.93338                     -13.47785
                     131.40556                     -12.38786                     -10.33502
                      99.13378                      -8.06229                      -7.32929
                      68.75587                      -6.52012                      -5.45426
                      50.52241                      -5.53590                      -4.30208
                      34.85831                      -4.64200                      -3.28781
                      23.55958                      -3.96022                      -2.53908
                      15.64826                      -3.37024                      -1.97052
                       0.73331                      -1.96794                      -0.78702
                       1.25377                      -1.98836                      -0.81733
        </DataArray>
        <DataArray type="Float32" Name="Moment" NumberOfComponents="3" format="ascii">
                       0.00000                       0.00000                       0.00000
                       0.00000                       0.00000                       0.00000
                       0.00000                       0.00000                       0.00000
                       0.00000                       0.00000                       0.00000
                     -14.43560                     135.99656                    -354.41275
                     -13.56349                     126.99404                    -330.94453
                     -11.58224                     107.69020                    -280.63200
                     -14.84032                     136.97155                    -356.92733
                     -15.47538                     141.77994                    -369.44731
                     -11.63972                     105.88072                    -275.89463
                      -9.18503                      83.00102                    -216.27144
                      -6.47333                      58.15445                    -151.52672
                      -4.17454                      37.31855                     -97.23510
                      -2.82828                      25.18722                     -65.62544
                      -1.78297                      15.83745                     -41.26417
                      -1.10878                       9.83789                     -25.63232
                      -0.66474                       5.89726                     -15.36513
                      -0.02306                       0.20472                      -0.53339
                      -0.03797                       0.33723                      -0.87864
        </DataArray>
      </PointData>
      <Lines>
        <DataArray type="Int32" Name="connectivity" format="ascii">
      0      1
      1      2
      2      3
      3      4
      4      5
      5      6
      6      7
      7      8
      8      9
      9     10
     10     11
     11     12
     12     13
     13     14
     14     15
     15     16
     16     17
     17     18
        </DataArray>
        <DataArray type="Int32" Name="offsets" format="ascii">
      2
      4
      6
      8
     10
     12
     14
     16
     18
     20
     22
     24
     26
     28
     30
     32
     34
     36
        </DataArray>
      </Lines>
    </Piece>
  </PolyData>
</VTKFile>
