<?xml version="1.0"?>
<VTKFile type="PolyData" version="0.1" byte_order="LittleEndian">
  <PolyData>
    <Piece NumberOfPoints="     19" NumberOfVerts="  0" NumberOfLines="     18"
           NumberOfStrips="  0" NumberOfPolys="      0">
      <Points>
        <DataArray type="Float32" NumberOfComponents="3" format="ascii">
                      -5.18802                      -0.71941                      88.69315
                      -5.35258                      -1.36889                      87.50192
                      -5.70756                      -2.58367                      85.07699
                      -6.07448                      -3.75808                      82.63163
                      -6.53968                      -5.20115                      79.56224
                      -7.03795                      -7.05763                      75.93928
                      -7.50481                      -9.02666                      72.37358
                      -7.97116                     -10.99572                      68.80777
                      -8.43404                     -12.96656                      65.24242
                      -8.89392                     -14.93771                      61.67679
                      -9.35189                     -16.90617                      58.10938
                      -9.80683                     -18.87355                      54.54096
                     -10.25917                     -20.84012                      50.97174
                     -10.70955                     -22.80606                      47.40190
                     -11.15630                     -24.77151                      43.83133
                     -11.52581                     -26.40908                      40.85531
                     -11.81969                     -27.72587                      38.47800
                     -12.11097                     -29.09093                      36.12647
                     -12.25848                     -29.73661                      34.93108
        </DataArray>
      </Points>
      <PointData>
        <DataArray type="Float32" Name="TranslationalVelocity" NumberOfComponents="3" format="ascii">
                      -0.00773                       0.02780                      -0.01942
                      -0.00910                       0.05955                      -0.03654
                      -0.01166                       0.12420                      -0.06855
                      -0.01419                       0.18937                      -0.09948
                      -0.01742                       0.27110                      -0.13742
                      -0.02180                       0.36732                      -0.18614
                      -0.02670                       0.46183                      -0.23770
                      -0.03183                       0.55620                      -0.28917
                      -0.03712                       0.65044                      -0.34059
                      -0.04249                       0.74457                      -0.39195
                      -0.04783                       0.83867                      -0.44320
                      -0.05302                       0.93274                      -0.49441
                      -0.05795                       1.02679                      -0.54561
                      -0.06249                       1.12083                      -0.59683
                      -0.06654                       1.21487                      -0.64810
                      -0.06946                       1.29324                      -0.69086
                      -0.07150                       1.35583                      -0.72528
                      -0.07336                       1.41773                      -0.76098
                      -0.07409                       1.44918                      -0.77788
        </DataArray>
        <DataArray type="Float32" Name="RotationalVelocity" NumberOfComponents="3" format="ascii">
                       0.02634                      -0.00011                      -0.00229
                       0.02634                      -0.00010                      -0.00229
                       0.02632                      -0.00009                      -0.00229
                       0.02630                      -0.00006                      -0.00230
                       0.02627                      -0.00002                      -0.00232
                       0.02623                       0.00003                      -0.00234
                       0.02619                       0.00009                      -0.00236
                       0.02615                       0.00014                      -0.00237
                       0.02612                       0.00017                      -0.00238
                       0.02610                       0.00018                      -0.00238
                       0.02608                       0.00017                      -0.00236
                       0.02607                       0.00014                      -0.00233
                       0.02607                       0.00007                      -0.00229
                       0.02607                      -0.00002                      -0.00224
                       0.02607                      -0.00014                      -0.00218
                       0.02607                      -0.00024                      -0.00213
                       0.02607                      -0.00033                      -0.00209
                       0.02607                      -0.00041                      -0.00206
                       0.02607                      -0.00045                      -0.00205
        </DataArray>
        <DataArray type="Float32" Name="TranslationalAcceleration" NumberOfComponents="3" format="ascii">
                      -0.00561                      -0.01655                       0.00264
                      -0.00215                      -0.00364                       0.00124
                      -0.00728                      -0.00825                       0.00365
                      -0.01397                      -0.01010                       0.00618
                      -0.02595                      -0.01011                       0.00992
                      -0.04800                      -0.00877                       0.01551
                      -0.08213                      -0.00784                       0.02323
                      -0.13291                      -0.00873                       0.03415
                      -0.20487                      -0.01220                       0.04902
                      -0.30265                      -0.01859                       0.06850
                      -0.43074                      -0.02784                       0.09314
                      -0.59328                      -0.03964                       0.12334
                      -0.79387                      -0.05350                       0.15938
                      -1.03535                      -0.06883                       0.20141
                      -1.31966                      -0.08515                       0.24929
                      -1.59070                      -0.09923                       0.29355
                      -1.82851                      -0.11065                       0.33152
                      -2.08466                      -0.12203                       0.37192
                      -2.21961                      -0.12795                       0.39266
        </DataArray>
        <DataArray type="Float32" Name="OrientationX" NumberOfComponents="3" format="ascii">
                       0.95574                       0.18190                      -0.23125
                       0.95574                       0.18193                      -0.23120
                       0.95576                       0.18202                      -0.23104
                       0.95579                       0.18216                      -0.23081
                       0.95584                       0.18238                      -0.23045
                       0.96399                       0.15518                      -0.21597
                       0.96928                       0.13562                      -0.20518
                       0.97350                       0.11859                      -0.19552
                       0.97754                       0.10056                      -0.18522
                       0.98124                       0.08200                      -0.17448
                       0.98432                       0.06448                      -0.16416
                       0.98698                       0.04712                      -0.15379
                       0.98905                       0.03144                      -0.14422
                       0.99042                       0.01969                      -0.13670
                       0.99157                       0.00810                      -0.12930
                       0.99238                      -0.00166                      -0.12318
                       0.99289                      -0.00895                      -0.11867
                       0.99315                      -0.01279                      -0.11615
                       0.99317                      -0.01271                      -0.11602
        </DataArray>
        <DataArray type="Float32" Name="OrientationY" NumberOfComponents="3" format="ascii">
                       0.26876                      -0.85958                       0.43461
                       0.26875                      -0.85962                       0.43454
                       0.26873                      -0.85973                       0.43434
                       0.26871                      -0.85986                       0.43410
                       0.26868                      -0.86004                       0.43376
                       0.23803                      -0.86565                       0.44044
                       0.21579                      -0.86923                       0.44484
                       0.19629                      -0.87199                       0.44844
                       0.17562                      -0.87451                       0.45209
                       0.15429                      -0.87667                       0.45568
                       0.13407                      -0.87832                       0.45888
                       0.11396                      -0.87959                       0.46189
                       0.09571                      -0.88041                       0.46444
                       0.08187                      -0.88086                       0.46625
                       0.06822                      -0.88112                       0.46795
                       0.05678                      -0.88120                       0.46932
                       0.04827                      -0.88118                       0.47031
                       0.04372                      -0.88115                       0.47081
                       0.04372                      -0.88115                       0.47081
        </DataArray>
        <DataArray type="Float32" Name="OrientationZ" NumberOfComponents="3" format="ascii">
                      -0.11972                      -0.47752                      -0.87043
                      -0.11969                      -0.47744                      -0.87047
                      -0.11957                      -0.47722                      -0.87061
                      -0.11939                      -0.47694                      -0.87079
                      -0.11908                      -0.47653                      -0.87106
                      -0.11861                      -0.47599                      -0.87142
                      -0.11802                      -0.47545                      -0.87179
                      -0.11732                      -0.47494                      -0.87217
                      -0.11651                      -0.47447                      -0.87253
                      -0.11560                      -0.47405                      -0.87288
                      -0.11459                      -0.47370                      -0.87320
                      -0.11351                      -0.47340                      -0.87350
                      -0.11237                      -0.47316                      -0.87378
                      -0.11123                      -0.47297                      -0.87403
                      -0.11014                      -0.47283                      -0.87424
                      -0.10933                      -0.47274                      -0.87439
                      -0.10878                      -0.47269                      -0.87449
                      -0.10836                      -0.47267                      -0.87455
                      -0.10822                      -0.47266                      -0.87457
        </DataArray>
        <DataArray type="Float32" Name="Force" NumberOfComponents="3" format="ascii">
                       5.55288                    -117.39910                      63.64220
                      18.57985                    -131.40800                      69.53632
                      21.01254                    -132.38544                      69.74025
                      14.75932                     -94.92391                      50.05017
                     -33.36656                     -11.71787                      10.99072
                     -87.83982                     -13.56708                      19.40198
                     -90.32908                     -11.68910                      18.64531
                     -50.72007                      -5.43748                       9.80868
                     -17.42048                      -2.45463                       3.67392
                      -6.37288                      -1.78114                       1.82135
                       1.08321                      -1.23448                       0.53461
                      -5.64332                      -1.03092                       1.29917
                       5.37629                      -1.31770                       0.03029
                      14.76774                      -1.15529                      -1.24789
                      26.16728                      -1.22945                      -2.62595
                      37.89687                      -1.53334                      -3.90239
                      48.68292                      -1.45748                      -5.26267
                      41.74167                      -0.72913                      -4.77734
                      38.98962                      -1.02130                      -4.26931
        </DataArray>
        <DataArray type="Float32" Name="Moment" NumberOfComponents="3" format="ascii">
                       0.00000                       0.00000                       0.00000
                       0.00000                       0.00000                       0.00000
                       0.00000                       0.00000                       0.00000
                       0.00000                       0.00000                       0.00000
                       8.85123                      35.50812                      64.72862
                      14.21521                      57.27002                     104.40420
                      12.82034                      51.92181                      94.66020
                      12.73455                      51.89463                      94.61755
                      14.89215                      61.12188                     111.45056
                      13.07798                      54.11092                      98.67593
                      11.53676                      48.16292                      87.83827
                       9.76693                      41.17149                      75.09579
                       5.84909                      24.90932                      45.43922
                       4.97494                      21.40733                      39.05546
                       4.20903                      18.29316                      33.37766
                       3.53695                      15.48832                      28.26229
                       2.85292                      12.55649                      22.91371
                       1.30418                       5.76227                      10.51571
                       1.43144                       6.33314                      11.55768
        </DataArray>
      </PointData>
      <Lines>
        <DataArray type="Int32" Name="connectivity" format="ascii">
      0      1
      1      2
      2      3
      3      4
      4      5
      5      6
      6      7
      7      8
      8      9
      9     10
     10     11
     11     12
     12     13
     13     14
     14     15
     15     16
     16     17
     17     18
        </DataArray>
        <DataArray type="Int32" Name="offsets" format="ascii">
      2
      4
      6
      8
     10
     12
     14
     16
     18
     20
     22
     24
     26
     28
     30
     32
     34
     36
        </DataArray>
      </Lines>
    </Piece>
  </PolyData>
</VTKFile>
