<?xml version="1.0"?>
<VTKFile type="PolyData" version="0.1" byte_order="LittleEndian">
  <PolyData>
    <Piece NumberOfPoints="     22" NumberOfVerts="  0" NumberOfLines="     21"
           NumberOfStrips="  0" NumberOfPolys="      0">
      <Points>
        <DataArray type="Float32" NumberOfComponents="3" format="ascii">
                       0.00000                      -0.00001                       2.19000
                       0.00000                      -0.00005                       6.57000
                      -0.00000                      -0.00012                      10.95000
                      -0.00002                      -0.00022                      15.33000
                      -0.00006                      -0.00035                      19.71000
                      -0.00012                      -0.00050                      24.09000
                      -0.00022                      -0.00068                      28.47000
                      -0.00035                      -0.00088                      32.85000
                      -0.00055                      -0.00110                      37.23000
                      -0.00080                      -0.00134                      41.61000
                      -0.00113                      -0.00160                      45.99000
                      -0.00154                      -0.00188                      50.37000
                      -0.00206                      -0.00218                      54.75000
                      -0.00268                      -0.00249                      59.13000
                      -0.00342                      -0.00281                      63.51000
                      -0.00427                      -0.00313                      67.89000
                      -0.00523                      -0.00347                      72.27000
                      -0.00629                      -0.00380                      76.65000
                      -0.00741                      -0.00414                      81.03000
                      -0.00857                      -0.00448                      85.41000
                      -0.00915                      -0.00465                      87.60000
                       0.00000                       0.00000                       0.00000
        </DataArray>
      </Points>
      <PointData>
        <DataArray type="Float32" Name="TranslationalVelocity" NumberOfComponents="3" format="ascii">
                      -0.00001                      -0.00001                      -0.00000
                      -0.00005                      -0.00007                      -0.00000
                      -0.00015                      -0.00019                      -0.00000
                      -0.00030                      -0.00035                      -0.00000
                      -0.00050                      -0.00056                      -0.00000
                      -0.00075                      -0.00081                      -0.00000
                      -0.00104                      -0.00111                      -0.00000
                      -0.00136                      -0.00145                      -0.00000
                      -0.00172                      -0.00184                      -0.00000
                      -0.00210                      -0.00227                      -0.00000
                      -0.00250                      -0.00275                      -0.00000
                      -0.00292                      -0.00328                      -0.00000
                      -0.00335                      -0.00386                      -0.00000
                      -0.00380                      -0.00449                      -0.00000
                      -0.00426                      -0.00516                      -0.00000
                      -0.00473                      -0.00588                      -0.00000
                      -0.00520                      -0.00663                      -0.00000
                      -0.00568                      -0.00741                      -0.00000
                      -0.00614                      -0.00822                      -0.00000
                      -0.00657                      -0.00905                      -0.00000
                      -0.00677                      -0.00948                      -0.00000
                       0.00000                      -0.00000                       0.00000
        </DataArray>
        <DataArray type="Float32" Name="RotationalVelocity" NumberOfComponents="3" format="ascii">
                       0.00001                      -0.00000                       0.00000
                       0.00002                      -0.00002                       0.00000
                       0.00003                      -0.00003                       0.00000
                       0.00004                      -0.00004                       0.00000
                       0.00005                      -0.00005                       0.00000
                       0.00006                      -0.00006                       0.00000
                       0.00007                      -0.00007                       0.00000
                       0.00008                      -0.00008                       0.00000
                       0.00009                      -0.00008                       0.00000
                       0.00010                      -0.00009                       0.00000
                       0.00012                      -0.00009                       0.00000
                       0.00013                      -0.00010                       0.00000
                       0.00014                      -0.00010                       0.00000
                       0.00015                      -0.00010                       0.00000
                       0.00016                      -0.00011                       0.00000
                       0.00017                      -0.00011                       0.00000
                       0.00018                      -0.00011                       0.00000
                       0.00018                      -0.00011                       0.00000
                       0.00019                      -0.00010                       0.00000
                       0.00019                      -0.00009                       0.00000
                       0.00019                      -0.00009                       0.00000
                       0.00000                      -0.00000                       0.00000
        </DataArray>
        <DataArray type="Float32" Name="TranslationalAcceleration" NumberOfComponents="3" format="ascii">
                      -0.00000                      -0.00001                      -0.00000
                      -0.00001                      -0.00010                      -0.00000
                      -0.00002                      -0.00025                      -0.00000
                      -0.00004                      -0.00047                      -0.00000
                      -0.00006                      -0.00075                      -0.00000
                      -0.00009                      -0.00108                      -0.00000
                      -0.00012                      -0.00146                      -0.00000
                      -0.00016                      -0.00190                      -0.00000
                      -0.00020                      -0.00238                      -0.00000
                      -0.00024                      -0.00291                      -0.00000
                      -0.00028                      -0.00348                      -0.00000
                      -0.00033                      -0.00410                      -0.00000
                      -0.00037                      -0.00476                      -0.00000
                      -0.00041                      -0.00546                      -0.00000
                      -0.00046                      -0.00619                      -0.00000
                      -0.00050                      -0.00694                      -0.00000
                      -0.00054                      -0.00772                      -0.00000
                      -0.00058                      -0.00851                      -0.00000
                      -0.00061                      -0.00931                      -0.00000
                      -0.00064                      -0.01011                      -0.00000
                      -0.00066                      -0.01052                      -0.00000
                       0.00000                      -0.00000                       0.00000
        </DataArray>
        <DataArray type="Float32" Name="RotationalAcceleration" NumberOfComponents="3" format="ascii">
                       0.00001                      -0.00000                       0.00000
                       0.00003                      -0.00000                       0.00000
                       0.00004                      -0.00000                       0.00000
                       0.00006                      -0.00000                       0.00000
                       0.00007                      -0.00001                       0.00000
                       0.00008                      -0.00001                       0.00000
                       0.00009                      -0.00001                       0.00000
                       0.00010                      -0.00001                       0.00000
                       0.00012                      -0.00001                       0.00000
                       0.00013                      -0.00001                       0.00000
                       0.00014                      -0.00001                       0.00000
                       0.00015                      -0.00001                       0.00000
                       0.00016                      -0.00001                       0.00000
                       0.00016                      -0.00001                       0.00000
                       0.00017                      -0.00001                       0.00000
                       0.00017                      -0.00001                       0.00000
                       0.00018                      -0.00001                       0.00000
                       0.00018                      -0.00001                       0.00000
                       0.00018                      -0.00001                       0.00000
                       0.00018                      -0.00001                       0.00000
                       0.00019                      -0.00001                       0.00000
                       0.00000                      -0.00000                       0.00000
        </DataArray>
        <DataArray type="Float32" Name="OrientationX" NumberOfComponents="3" format="ascii">
                       1.00000                       0.00000                      -0.00000
                       1.00000                      -0.00000                       0.00000
                       1.00000                      -0.00000                       0.00000
                       1.00000                      -0.00000                       0.00001
                       1.00000                      -0.00000                       0.00001
                       1.00000                      -0.00000                       0.00002
                       1.00000                      -0.00000                       0.00003
                       1.00000                      -0.00000                       0.00004
                       1.00000                      -0.00000                       0.00005
                       1.00000                      -0.00000                       0.00007
                       1.00000                      -0.00000                       0.00008
                       1.00000                      -0.00000                       0.00011
                       1.00000                      -0.00000                       0.00013
                       1.00000                      -0.00000                       0.00016
                       1.00000                      -0.00000                       0.00018
                       1.00000                      -0.00000                       0.00021
                       1.00000                      -0.00000                       0.00023
                       1.00000                      -0.00000                       0.00025
                       1.00000                      -0.00000                       0.00026
                       1.00000                      -0.00000                       0.00026
                       1.00000                      -0.00000                       0.00026
                       1.00000                      -0.00000                       0.00000
        </DataArray>
        <DataArray type="Float32" Name="OrientationY" NumberOfComponents="3" format="ascii">
                       0.00000                       1.00000                       0.00000
                      -0.00000                       1.00000                       0.00001
                      -0.00000                       1.00000                       0.00002
                      -0.00000                       1.00000                       0.00003
                      -0.00000                       1.00000                       0.00003
                      -0.00000                       1.00000                       0.00004
                      -0.00000                       1.00000                       0.00004
                      -0.00000                       1.00000                       0.00005
                      -0.00000                       1.00000                       0.00005
                      -0.00000                       1.00000                       0.00006
                      -0.00000                       1.00000                       0.00006
                      -0.00000                       1.00000                       0.00007
                      -0.00000                       1.00000                       0.00007
                      -0.00000                       1.00000                       0.00007
                      -0.00000                       1.00000                       0.00007
                      -0.00000                       1.00000                       0.00008
                      -0.00000                       1.00000                       0.00008
                      -0.00000                       1.00000                       0.00008
                      -0.00000                       1.00000                       0.00008
                      -0.00000                       1.00000                       0.00008
                      -0.00000                       1.00000                       0.00008
                      -0.00000                       1.00000                      -0.00000
        </DataArray>
        <DataArray type="Float32" Name="OrientationZ" NumberOfComponents="3" format="ascii">
                       0.00000                      -0.00000                       1.00000
                      -0.00000                      -0.00001                       1.00000
                      -0.00000                      -0.00002                       1.00000
                      -0.00001                      -0.00003                       1.00000
                      -0.00001                      -0.00003                       1.00000
                      -0.00002                      -0.00004                       1.00000
                      -0.00003                      -0.00004                       1.00000
                      -0.00004                      -0.00005                       1.00000
                      -0.00005                      -0.00005                       1.00000
                      -0.00007                      -0.00006                       1.00000
                      -0.00008                      -0.00006                       1.00000
                      -0.00011                      -0.00007                       1.00000
                      -0.00013                      -0.00007                       1.00000
                      -0.00016                      -0.00007                       1.00000
                      -0.00018                      -0.00007                       1.00000
                      -0.00021                      -0.00008                       1.00000
                      -0.00023                      -0.00008                       1.00000
                      -0.00025                      -0.00008                       1.00000
                      -0.00026                      -0.00008                       1.00000
                      -0.00026                      -0.00008                       1.00000
                      -0.00026                      -0.00008                       1.00000
                       0.00000                      -0.00000                       1.00000
        </DataArray>
      </PointData>
      <Lines>
        <DataArray type="Int32" Name="connectivity" format="ascii">
      0      1
      1      2
      2      3
      3      4
      4      5
      5      6
      6      7
      7      8
      8      9
      9     10
     10     11
     11     12
     12     13
     13     14
     14     15
     15     16
     16     17
     17     18
     18     19
     19     20
     21      0
        </DataArray>
        <DataArray type="Int32" Name="offsets" format="ascii">
      2
      4
      6
      8
     10
     12
     14
     16
     18
     20
     22
     24
     26
     28
     30
     32
     34
     36
     38
     40
     42
        </DataArray>
      </Lines>
    </Piece>
  </PolyData>
</VTKFile>
