<?xml version="1.0"?>
<VTKFile type="PolyData" version="0.1" byte_order="LittleEndian">
  <PolyData>
    <Piece NumberOfPoints="     19" NumberOfVerts="  0" NumberOfLines="     18"
           NumberOfStrips="  0" NumberOfPolys="      0">
      <Points>
        <DataArray type="Float32" NumberOfComponents="3" format="ascii">
                      -5.19031                      -0.64974                      88.65602
                      -5.35788                      -1.23200                      87.43094
                      -5.71866                      -2.31007                      84.94304
                      -6.09147                      -3.34675                      82.43705
                      -6.56442                      -4.61716                      79.29342
                      -7.07353                      -6.27019                      75.57466
                      -7.55316                      -8.03930                      71.90728
                      -8.03411                      -9.80884                      68.24023
                      -8.51389                     -11.58066                      64.57405
                      -8.99343                     -13.35320                      60.90813
                      -9.47423                     -15.12337                      57.24120
                      -9.95559                     -16.89280                      53.57395
                     -10.43825                     -18.66170                      49.90658
                     -10.92301                     -20.43021                      46.23930
                     -11.40827                     -22.19838                      42.57191
                     -11.81302                     -23.67164                      39.51567
                     -12.13695                     -24.85719                      37.07405
                     -12.46002                     -26.09232                      34.65578
                     -12.62376                     -26.67201                      33.42910
        </DataArray>
      </Points>
      <PointData>
        <DataArray type="Float32" Name="TranslationalVelocity" NumberOfComponents="3" format="ascii">
                       0.00254                       0.04838                      -0.01658
                       0.00097                       0.08180                      -0.03225
                      -0.00225                       0.14968                      -0.06120
                      -0.00580                       0.21801                      -0.08894
                      -0.01096                       0.30359                      -0.12274
                      -0.01890                       0.40443                      -0.16648
                      -0.02921                       0.50345                      -0.21290
                      -0.04224                       0.60207                      -0.25878
                      -0.05860                       0.70024                      -0.30408
                      -0.07892                       0.79797                      -0.34868
                      -0.10373                       0.89531                      -0.39242
                      -0.13351                       0.99229                      -0.43531
                      -0.16859                       1.08894                      -0.47732
                      -0.20913                       1.18533                      -0.51845
                      -0.25510                       1.28155                      -0.55877
                      -0.29742                       1.36167                      -0.59179
                      -0.33356                       1.42568                      -0.61808
                      -0.37163                       1.48915                      -0.64540
                      -0.39117                       1.52137                      -0.65802
        </DataArray>
        <DataArray type="Float32" Name="RotationalVelocity" NumberOfComponents="3" format="ascii">
                       0.02696                       0.00014                      -0.00237
                       0.02695                       0.00018                      -0.00239
                       0.02692                       0.00028                      -0.00244
                       0.02688                       0.00044                      -0.00251
                       0.02681                       0.00070                      -0.00263
                       0.02669                       0.00111                      -0.00283
                       0.02655                       0.00164                      -0.00309
                       0.02640                       0.00229                      -0.00340
                       0.02624                       0.00307                      -0.00377
                       0.02607                       0.00398                      -0.00420
                       0.02589                       0.00502                      -0.00469
                       0.02573                       0.00616                      -0.00523
                       0.02557                       0.00739                      -0.00579
                       0.02544                       0.00863                      -0.00637
                       0.02532                       0.00982                      -0.00692
                       0.02526                       0.01070                      -0.00734
                       0.02522                       0.01127                      -0.00761
                       0.02521                       0.01167                      -0.00783
                       0.02521                       0.01179                      -0.00790
        </DataArray>
        <DataArray type="Float32" Name="TranslationalAcceleration" NumberOfComponents="3" format="ascii">
                      -0.01185                      -0.00261                      -0.00095
                      -0.00281                      -0.00035                       0.00053
                      -0.00472                      -0.00063                       0.00149
                      -0.00157                      -0.00024                       0.00207
                       0.01012                       0.00125                       0.00181
                       0.03676                       0.00480                      -0.00033
                       0.07928                       0.01028                      -0.00516
                       0.14037                       0.01764                      -0.01331
                       0.22237                       0.02689                      -0.02518
                       0.32727                       0.03798                      -0.04104
                       0.45631                       0.05080                      -0.06099
                       0.60960                       0.06519                      -0.08490
                       0.78586                       0.08091                      -0.11242
                       0.98198                       0.09760                      -0.14298
                       1.19272                       0.11493                      -0.17562
                       1.37400                       0.12952                      -0.20352
                       1.51828                       0.14103                      -0.22570
                       1.65775                       0.15213                      -0.24744
                       1.72436                       0.15756                      -0.25767
        </DataArray>
        <DataArray type="Float32" Name="OrientationX" NumberOfComponents="3" format="ascii">
                       0.95662                       0.18976                      -0.22107
                       0.95662                       0.18977                      -0.22105
                       0.95663                       0.18982                      -0.22096
                       0.95665                       0.18989                      -0.22083
                       0.95667                       0.19000                      -0.22063
                       0.96465                       0.16187                      -0.20796
                       0.96980                       0.14154                      -0.19862
                       0.97388                       0.12376                      -0.19036
                       0.97776                       0.10490                      -0.18160
                       0.98129                       0.08545                      -0.17255
                       0.98419                       0.06702                      -0.16393
                       0.98666                       0.04870                      -0.15536
                       0.98853                       0.03209                      -0.14756
                       0.98973                       0.01950                      -0.14161
                       0.99072                       0.00710                      -0.13576
                       0.99139                      -0.00329                      -0.13087
                       0.99181                      -0.01103                      -0.12723
                       0.99201                      -0.01515                      -0.12527
                       0.99201                      -0.01513                      -0.12527
        </DataArray>
        <DataArray type="Float32" Name="OrientationY" NumberOfComponents="3" format="ascii">
                       0.26460                      -0.88345                       0.38667
                       0.26459                      -0.88348                       0.38660
                       0.26457                      -0.88356                       0.38642
                       0.26455                      -0.88367                       0.38619
                       0.26452                      -0.88382                       0.38586
                       0.23385                      -0.88962                       0.39228
                       0.21159                      -0.89330                       0.39654
                       0.19207                      -0.89614                       0.40005
                       0.17139                      -0.89872                       0.40363
                       0.15005                      -0.90094                       0.40718
                       0.12982                      -0.90262                       0.41038
                       0.10972                      -0.90390                       0.41343
                       0.09147                      -0.90473                       0.41605
                       0.07763                      -0.90515                       0.41793
                       0.06400                      -0.90539                       0.41973
                       0.05259                      -0.90544                       0.42119
                       0.04410                      -0.90540                       0.42225
                       0.03956                      -0.90536                       0.42280
                       0.03958                      -0.90537                       0.42279
        </DataArray>
        <DataArray type="Float32" Name="OrientationZ" NumberOfComponents="3" format="ascii">
                      -0.12193                      -0.42839                      -0.89533
                      -0.12192                      -0.42831                      -0.89537
                      -0.12188                      -0.42812                      -0.89547
                      -0.12181                      -0.42787                      -0.89560
                      -0.12169                      -0.42751                      -0.89578
                      -0.12150                      -0.42705                      -0.89603
                      -0.12130                      -0.42659                      -0.89627
                      -0.12108                      -0.42616                      -0.89651
                      -0.12087                      -0.42578                      -0.89672
                      -0.12066                      -0.42545                      -0.89690
                      -0.12047                      -0.42518                      -0.89706
                      -0.12030                      -0.42496                      -0.89719
                      -0.12015                      -0.42478                      -0.89729
                      -0.12003                      -0.42464                      -0.89737
                      -0.11994                      -0.42453                      -0.89744
                      -0.11988                      -0.42445                      -0.89748
                      -0.11985                      -0.42441                      -0.89750
                      -0.11982                      -0.42438                      -0.89752
                      -0.11981                      -0.42436                      -0.89753
        </DataArray>
        <DataArray type="Float32" Name="Force" NumberOfComponents="3" format="ascii">
                       5.33137                    -129.13408                      61.06062
                      17.48745                    -143.99688                      66.51667
                      20.35208                    -146.15128                      67.15825
                      14.68767                    -105.09203                      48.28476
                     -36.90075                     -13.20702                      11.33248
                     -91.29711                     -14.81391                      19.47098
                     -88.50690                     -12.24812                      17.84229
                     -48.53072                      -5.56363                       9.21912
                     -17.32537                      -2.56209                       3.56211
                      -5.76071                      -1.81055                       1.64157
                       1.06625                      -1.31047                       0.48365
                      -4.32393                      -1.15115                       1.13080
                       9.55075                      -1.12835                      -0.73990
                      -0.84407                      -1.44988                       0.80656
                       7.67952                      -1.65371                      -0.23594
                      19.36131                      -1.89903                      -1.67955
                      29.34327                      -1.95131                      -2.98761
                      32.61826                      -1.42456                      -3.67624
                      40.40436                      -1.17505                      -4.83532
        </DataArray>
        <DataArray type="Float32" Name="Moment" NumberOfComponents="3" format="ascii">
                       0.00000                       0.00000                       0.00000
                       0.00000                       0.00000                       0.00000
                       0.00000                       0.00000                       0.00000
                       0.00000                       0.00000                       0.00000
                       9.67043                      34.05503                      71.17694
                      15.68688                      55.33374                     115.65292
                      14.34561                      50.69649                     105.96294
                      14.15151                      50.10786                     104.73502
                      16.44120                      58.32811                     121.91971
                      14.49244                      51.50990                     107.67035
                      12.77452                      45.48148                      95.07116
                      10.92887                      38.96928                      81.45996
                       6.79214                      24.25007                      50.69223
                       5.45350                      19.49114                      40.74469
                       4.46661                      15.97687                      33.39869
                       3.77329                      13.50375                      28.22896
                       3.09855                      11.09235                      23.18812
                       1.56613                       5.60777                      11.72285
                       1.64499                       5.89063                      12.31417
        </DataArray>
      </PointData>
      <Lines>
        <DataArray type="Int32" Name="connectivity" format="ascii">
      0      1
      1      2
      2      3
      3      4
      4      5
      5      6
      6      7
      7      8
      8      9
      9     10
     10     11
     11     12
     12     13
     13     14
     14     15
     15     16
     16     17
     17     18
        </DataArray>
        <DataArray type="Int32" Name="offsets" format="ascii">
      2
      4
      6
      8
     10
     12
     14
     16
     18
     20
     22
     24
     26
     28
     30
     32
     34
     36
        </DataArray>
      </Lines>
    </Piece>
  </PolyData>
</VTKFile>
