<?xml version="1.0"?>
<VTKFile type="PolyData" version="0.1" byte_order="LittleEndian">
  <PolyData>
    <Piece NumberOfPoints="     19" NumberOfVerts="  0" NumberOfLines="     18"
           NumberOfStrips="  0" NumberOfPolys="      0">
      <Points>
        <DataArray type="Float32" NumberOfComponents="3" format="ascii">
                      -5.13493                      -1.30084                      89.25819
                      -5.25477                      -2.48139                      88.58007
                      -5.52367                      -4.79367                      87.14376
                      -5.80623                      -7.08224                      85.66865
                      -6.16718                      -9.92789                      83.80022
                      -6.53592                     -13.41422                      81.67233
                      -6.86947                     -16.96460                      79.64987
                      -7.20318                     -20.51416                      77.62585
                      -7.53419                     -24.06407                      75.60181
                      -7.86317                     -27.61358                      73.57654
                      -8.19148                     -31.16106                      71.54749
                      -8.51811                     -34.70757                      69.51636
                      -8.84359                     -38.25336                      67.48368
                      -9.16864                     -41.79860                      65.44992
                      -9.49165                     -45.34345                      63.41509
                      -9.75929                     -48.29726                      61.71867
                      -9.97216                     -50.66409                      60.36792
                     -10.18128                     -53.05864                      59.06401
                     -10.28932                     -54.23457                      58.37617
        </DataArray>
      </Points>
      <PointData>
        <DataArray type="Float32" Name="TranslationalVelocity" NumberOfComponents="3" format="ascii">
                      -0.01780                      -0.01235                      -0.00693
                      -0.01698                      -0.01221                      -0.00732
                      -0.01525                      -0.01178                      -0.00834
                      -0.01364                      -0.01115                      -0.00962
                      -0.01196                      -0.01006                      -0.01156
                      -0.01072                      -0.00849                      -0.01425
                      -0.01014                      -0.00681                      -0.01725
                      -0.00961                      -0.00512                      -0.02035
                      -0.00849                      -0.00362                      -0.02332
                      -0.00596                      -0.00249                      -0.02594
                      -0.00106                      -0.00192                      -0.02804
                       0.00719                      -0.00203                      -0.02949
                       0.01981                      -0.00292                      -0.03029
                       0.03777                      -0.00460                      -0.03053
                       0.06196                      -0.00699                      -0.03045
                       0.08755                      -0.00940                      -0.03045
                       0.11161                      -0.01145                      -0.03071
                       0.13886                      -0.01346                      -0.03143
                       0.15393                      -0.01444                      -0.03210
        </DataArray>
        <DataArray type="Float32" Name="RotationalVelocity" NumberOfComponents="3" format="ascii">
                       0.00015                      -0.00131                      -0.00000
                       0.00019                      -0.00131                      -0.00002
                       0.00028                      -0.00130                      -0.00008
                       0.00038                      -0.00129                      -0.00016
                       0.00050                      -0.00128                      -0.00029
                       0.00060                      -0.00131                      -0.00046
                       0.00065                      -0.00140                      -0.00059
                       0.00063                      -0.00158                      -0.00065
                       0.00055                      -0.00187                      -0.00058
                       0.00041                      -0.00229                      -0.00035
                       0.00024                      -0.00285                       0.00010
                       0.00005                      -0.00355                       0.00077
                      -0.00013                      -0.00437                       0.00167
                      -0.00028                      -0.00528                       0.00278
                      -0.00038                      -0.00625                       0.00406
                      -0.00040                      -0.00706                       0.00519
                      -0.00037                      -0.00767                       0.00609
                      -0.00030                      -0.00822                       0.00694
                      -0.00024                      -0.00847                       0.00733
        </DataArray>
        <DataArray type="Float32" Name="TranslationalAcceleration" NumberOfComponents="3" format="ascii">
                       0.02799                      -0.03273                       0.07055
                       0.00083                      -0.00984                       0.02277
                      -0.00084                      -0.02753                       0.06221
                      -0.00289                      -0.04276                       0.09354
                       0.00033                      -0.05886                       0.12267
                       0.02041                      -0.07220                       0.14338
                       0.05776                      -0.07865                       0.15112
                       0.10652                      -0.07828                       0.14693
                       0.15785                      -0.07042                       0.13140
                       0.19983                      -0.05446                       0.10511
                       0.21832                      -0.02995                       0.06892
                       0.19754                       0.00318                       0.02450
                       0.12098                       0.04447                      -0.02548
                      -0.02781                       0.09275                      -0.07690
                      -0.26442                       0.14569                      -0.12386
                      -0.54081                       0.19106                      -0.15392
                      -0.81666                       0.22605                      -0.16830
                      -1.14688                       0.25737                      -0.17043
                      -1.33051                       0.27194                      -0.16537
        </DataArray>
        <DataArray type="Float32" Name="OrientationX" NumberOfComponents="3" format="ascii">
                       0.94935                       0.07835                      -0.30428
                       0.94936                       0.07841                      -0.30425
                       0.94938                       0.07858                      -0.30415
                       0.94940                       0.07883                      -0.30402
                       0.94943                       0.07923                      -0.30380
                       0.95863                       0.06388                      -0.27741
                       0.96466                       0.05297                      -0.25811
                       0.96953                       0.04353                      -0.24109
                       0.97424                       0.03351                      -0.22302
                       0.97863                       0.02318                      -0.20434
                       0.98235                       0.01344                      -0.18656
                       0.98564                       0.00378                      -0.16884
                       0.98826                      -0.00493                      -0.15269
                       0.99004                      -0.01138                      -0.14032
                       0.99160                      -0.01778                      -0.12815
                       0.99274                      -0.02320                      -0.11799
                       0.99351                      -0.02727                      -0.11045
                       0.99389                      -0.02939                      -0.10638
                       0.99390                      -0.02932                      -0.10634
        </DataArray>
        <DataArray type="Float32" Name="OrientationY" NumberOfComponents="3" format="ascii">
                       0.30195                      -0.49534                       0.81453
                       0.30194                      -0.49548                       0.81446
                       0.30190                      -0.49584                       0.81425
                       0.30186                      -0.49629                       0.81399
                       0.30181                      -0.49693                       0.81361
                       0.27131                      -0.50003                       0.82241
                       0.24914                      -0.50219                       0.82809
                       0.22968                      -0.50392                       0.83265
                       0.20903                      -0.50542                       0.83717
                       0.18770                      -0.50663                       0.84148
                       0.16746                      -0.50751                       0.84522
                       0.14731                      -0.50809                       0.84861
                       0.12901                      -0.50841                       0.85139
                       0.11510                      -0.50857                       0.85329
                       0.10138                      -0.50858                       0.85502
                       0.08990                      -0.50849                       0.85636
                       0.08135                      -0.50836                       0.85729
                       0.07677                      -0.50829                       0.85776
                       0.07678                      -0.50830                       0.85775
        </DataArray>
        <DataArray type="Float32" Name="OrientationZ" NumberOfComponents="3" format="ascii">
                      -0.08690                      -0.86516                      -0.49391
                      -0.08689                      -0.86508                      -0.49406
                      -0.08683                      -0.86485                      -0.49446
                      -0.08672                      -0.86457                      -0.49498
                      -0.08651                      -0.86417                      -0.49572
                      -0.08617                      -0.86365                      -0.49668
                      -0.08575                      -0.86313                      -0.49764
                      -0.08525                      -0.86265                      -0.49857
                      -0.08467                      -0.86222                      -0.49941
                      -0.08402                      -0.86185                      -0.50015
                      -0.08332                      -0.86154                      -0.50080
                      -0.08258                      -0.86129                      -0.50135
                      -0.08182                      -0.86110                      -0.50181
                      -0.08108                      -0.86095                      -0.50219
                      -0.08038                      -0.86083                      -0.50251
                      -0.07987                      -0.86076                      -0.50271
                      -0.07953                      -0.86071                      -0.50284
                      -0.07928                      -0.86069                      -0.50293
                      -0.07920                      -0.86068                      -0.50295
        </DataArray>
        <DataArray type="Float32" Name="Force" NumberOfComponents="3" format="ascii">
                       6.29680                     -19.91698                      33.77971
                       9.85513                     -21.54567                      36.00686
                      12.76313                     -22.70559                      37.52895
                       7.58014                     -16.13084                      26.92485
                     -10.82116                      -1.86732                       5.16236
                     -36.07734                      -1.74538                       9.33305
                     -31.92021                      -1.31403                       7.82110
                     -22.48531                      -0.48227                       4.70602
                      -0.88668                      -0.25533                       0.59813
                       7.97372                      -0.21214                      -0.97585
                      21.99400                      -0.17447                      -3.37669
                      27.15611                      -0.14856                      -4.24264
                      30.18741                      -0.15648                      -4.68229
                      31.33128                      -0.14611                      -4.83843
                      31.61812                      -0.14090                      -4.84758
                      31.16597                      -0.13947                      -4.74372
                      29.29231                      -0.13631                      -4.42876
                      19.67638                      -0.12632                      -2.90391
                      19.61394                      -0.10766                      -2.92321
        </DataArray>
        <DataArray type="Float32" Name="Moment" NumberOfComponents="3" format="ascii">
                       0.00000                       0.00000                       0.00000
                       0.00000                       0.00000                       0.00000
                       0.00000                       0.00000                       0.00000
                       0.00000                       0.00000                       0.00000
                       1.98986                      19.93562                      11.38214
                       3.07885                      30.99516                      17.69784
                       2.87020                      29.06541                      16.59746
                       2.68352                      27.36094                      15.62574
                       3.33252                      34.23965                      19.55639
                       2.96906                      30.76309                      17.57290
                       2.66023                      27.81377                      15.89026
                       2.29157                      24.18817                      13.82083
                       1.50940                      16.08788                       9.19371
                       1.27740                      13.74635                       7.85668
                       1.05454                      11.45057                       6.54536
                       0.87844                       9.60170                       5.48902
                       0.70642                       7.75510                       4.43364
                       0.32206                       3.54695                       2.02791
                       0.31603                       3.48434                       1.99214
        </DataArray>
      </PointData>
      <Lines>
        <DataArray type="Int32" Name="connectivity" format="ascii">
      0      1
      1      2
      2      3
      3      4
      4      5
      5      6
      6      7
      7      8
      8      9
      9     10
     10     11
     11     12
     12     13
     13     14
     14     15
     15     16
     16     17
     17     18
        </DataArray>
        <DataArray type="Int32" Name="offsets" format="ascii">
      2
      4
      6
      8
     10
     12
     14
     16
     18
     20
     22
     24
     26
     28
     30
     32
     34
     36
        </DataArray>
      </Lines>
    </Piece>
  </PolyData>
</VTKFile>
