<?xml version="1.0"?>
<VTKFile type="PolyData" version="0.1" byte_order="LittleEndian">
  <PolyData>
    <Piece NumberOfPoints="     19" NumberOfVerts="  0" NumberOfLines="     18"
           NumberOfStrips="  0" NumberOfPolys="      0">
      <Points>
        <DataArray type="Float32" NumberOfComponents="3" format="ascii">
                      -5.17061                      -1.05881                      88.93620
                      -5.31583                      -2.01025                      87.96584
                      -5.63407                      -3.84404                      85.96136
                      -5.96524                      -5.64448                      83.92612
                      -6.38647                      -7.87415                      81.36279
                      -6.82954                     -10.65143                      78.37786
                      -7.23921                     -13.52012                      75.47773
                      -7.64896                     -16.38816                      72.57690
                      -8.05600                     -19.25710                      69.67645
                      -8.46102                     -22.12581                      66.77538
                      -8.86535                     -24.99193                      63.87159
                      -9.26806                     -27.85688                      60.96635
                      -9.66975                     -30.72094                      58.06003
                     -10.07116                     -33.58433                      55.15300
                     -10.47072                     -36.44722                      52.24518
                     -10.80234                     -38.83264                      49.82145
                     -11.06663                     -40.74640                      47.88767
                     -11.32805                     -42.69955                      45.99169
                     -11.46169                     -43.64591                      45.01489
        </DataArray>
      </Points>
      <PointData>
        <DataArray type="Float32" Name="TranslationalVelocity" NumberOfComponents="3" format="ascii">
                      -0.00542                       0.01148                      -0.02151
                      -0.00704                       0.03143                      -0.04082
                      -0.01038                       0.07264                      -0.07799
                      -0.01397                       0.11446                      -0.11441
                      -0.01898                       0.16707                      -0.15935
                      -0.02621                       0.22810                      -0.21506
                      -0.03516                       0.28717                      -0.27222
                      -0.04620                       0.34603                      -0.32885
                      -0.05992                       0.40464                      -0.38491
                      -0.07693                       0.46302                      -0.44027
                      -0.09780                       0.52121                      -0.49481
                      -0.12310                       0.57921                      -0.54850
                      -0.15325                       0.63703                      -0.60133
                      -0.18859                       0.69472                      -0.65329
                      -0.22927                       0.75233                      -0.70442
                      -0.26733                       0.80032                      -0.74645
                      -0.30025                       0.83863                      -0.77987
                      -0.33530                       0.87626                      -0.81382
                      -0.35351                       0.89567                      -0.83014
        </DataArray>
        <DataArray type="Float32" Name="RotationalVelocity" NumberOfComponents="3" format="ascii">
                       0.02030                      -0.00005                      -0.00175
                       0.02029                      -0.00003                      -0.00177
                       0.02027                       0.00003                      -0.00183
                       0.02023                       0.00012                      -0.00191
                       0.02017                       0.00027                      -0.00206
                       0.02008                       0.00051                      -0.00229
                       0.01997                       0.00083                      -0.00260
                       0.01984                       0.00123                      -0.00300
                       0.01969                       0.00173                      -0.00349
                       0.01952                       0.00233                      -0.00409
                       0.01935                       0.00305                      -0.00479
                       0.01917                       0.00387                      -0.00557
                       0.01900                       0.00479                      -0.00643
                       0.01884                       0.00577                      -0.00730
                       0.01870                       0.00677                      -0.00814
                       0.01862                       0.00758                      -0.00876
                       0.01858                       0.00818                      -0.00916
                       0.01857                       0.00869                      -0.00943
                       0.01857                       0.00891                      -0.00950
        </DataArray>
        <DataArray type="Float32" Name="TranslationalAcceleration" NumberOfComponents="3" format="ascii">
                       0.01361                       0.01724                       0.00174
                       0.00366                       0.00627                       0.00027
                       0.00816                       0.01599                       0.00061
                       0.00940                       0.02262                       0.00084
                       0.00712                       0.02797                       0.00115
                      -0.00042                       0.03157                       0.00154
                      -0.01320                       0.03363                       0.00244
                      -0.03241                       0.03517                       0.00457
                      -0.05982                       0.03662                       0.00842
                      -0.09776                       0.03808                       0.01447
                      -0.14882                       0.03937                       0.02312
                      -0.21571                       0.04021                       0.03468
                      -0.30106                       0.04036                       0.04940
                      -0.40721                       0.03970                       0.06743
                      -0.53604                       0.03836                       0.08875
                      -0.66212                       0.03708                       0.10903
                      -0.77482                       0.03635                       0.12671
                      -0.89767                       0.03644                       0.14565
                      -0.96343                       0.03688                       0.15554
        </DataArray>
        <DataArray type="Float32" Name="OrientationX" NumberOfComponents="3" format="ascii">
                       0.95194                       0.13503                      -0.27493
                       0.95194                       0.13507                      -0.27489
                       0.95196                       0.13520                      -0.27476
                       0.95199                       0.13539                      -0.27458
                       0.95203                       0.13570                      -0.27429
                       0.96076                       0.11359                      -0.25304
                       0.96647                       0.09775                      -0.23743
                       0.97105                       0.08397                      -0.22362
                       0.97546                       0.06936                      -0.20895
                       0.97954                       0.05430                      -0.19378
                       0.98298                       0.04007                      -0.17932
                       0.98597                       0.02595                      -0.16490
                       0.98833                       0.01319                      -0.15174
                       0.98991                       0.00362                      -0.14164
                       0.99127                      -0.00583                      -0.13170
                       0.99226                      -0.01381                      -0.12343
                       0.99290                      -0.01977                      -0.11731
                       0.99322                      -0.02293                      -0.11399
                       0.99322                      -0.02287                      -0.11395
        </DataArray>
        <DataArray type="Float32" Name="OrientationY" NumberOfComponents="3" format="ascii">
                       0.28755                      -0.70318                       0.65027
                       0.28754                      -0.70327                       0.65018
                       0.28750                      -0.70350                       0.64994
                       0.28747                      -0.70379                       0.64965
                       0.28742                      -0.70420                       0.64923
                       0.25686                      -0.70869                       0.65710
                       0.23465                      -0.71164                       0.66220
                       0.21518                      -0.71395                       0.66631
                       0.19452                      -0.71602                       0.67043
                       0.17320                      -0.71775                       0.67442
                       0.15298                      -0.71904                       0.67792
                       0.13287                      -0.71999                       0.68115
                       0.11461                      -0.72057                       0.68385
                       0.10075                      -0.72087                       0.68571
                       0.08709                      -0.72099                       0.68745
                       0.07565                      -0.72098                       0.68882
                       0.06714                      -0.72089                       0.68979
                       0.06259                      -0.72083                       0.69028
                       0.06260                      -0.72084                       0.69027
        </DataArray>
        <DataArray type="Float32" Name="OrientationZ" NumberOfComponents="3" format="ascii">
                      -0.10552                      -0.69807                      -0.70821
                      -0.10550                      -0.69797                      -0.70831
                      -0.10542                      -0.69772                      -0.70858
                      -0.10529                      -0.69739                      -0.70892
                      -0.10505                      -0.69692                      -0.70941
                      -0.10469                      -0.69631                      -0.71006
                      -0.10423                      -0.69571                      -0.71072
                      -0.10371                      -0.69514                      -0.71135
                      -0.10311                      -0.69463                      -0.71194
                      -0.10247                      -0.69418                      -0.71247
                      -0.10177                      -0.69381                      -0.71293
                      -0.10105                      -0.69350                      -0.71333
                      -0.10032                      -0.69326                      -0.71367
                      -0.09962                      -0.69307                      -0.71396
                      -0.09897                      -0.69292                      -0.71419
                      -0.09850                      -0.69282                      -0.71435
                      -0.09820                      -0.69277                      -0.71444
                      -0.09799                      -0.69273                      -0.71451
                      -0.09793                      -0.69272                      -0.71452
        </DataArray>
        <DataArray type="Float32" Name="Force" NumberOfComponents="3" format="ascii">
                       5.13003                     -60.45511                      58.82483
                      18.21476                     -68.51396                      64.81916
                      19.07819                     -68.24012                      64.42258
                      12.10300                     -48.89570                      46.39538
                     -17.43802                      -5.40205                       7.90834
                     -48.09254                      -5.81191                      12.82548
                     -44.23881                      -4.75124                      11.17900
                     -23.87300                      -2.17525                       5.62965
                      -6.32347                      -1.05223                       1.95442
                      -0.69588                      -0.79578                       0.88435
                      -2.38864                      -0.66181                       0.99377
                      -9.11829                      -0.34773                       1.63741
                      -4.17953                      -0.44753                       1.02984
                      -7.03468                      -0.34223                       1.32116
                       0.37759                      -0.64487                       0.58262
                       1.66696                      -0.74040                       0.49864
                       3.05008                      -0.86387                       0.43029
                       9.26743                      -0.82190                      -0.46515
                      27.71609                      -0.93520                      -2.88804
        </DataArray>
        <DataArray type="Float32" Name="Moment" NumberOfComponents="3" format="ascii">
                       0.00000                       0.00000                       0.00000
                       0.00000                       0.00000                       0.00000
                       0.00000                       0.00000                       0.00000
                       0.00000                       0.00000                       0.00000
                       5.37968                      35.78153                      36.30403
                       8.31771                      55.54651                      56.36055
                       7.60925                      51.06318                      51.81476
                       7.75943                      52.36242                      53.13691
                       8.99820                      61.10013                      62.00875
                       7.91664                      54.11985                      54.92934
                       6.91177                      47.59025                      48.30641
                       5.86537                      40.68710                      41.30320
                       3.64664                      25.48703                      25.87536
                       2.97390                      20.93762                      21.25853
                       2.26762                      16.07292                      16.32061
                       1.87493                      13.35418                      13.56077
                       1.62315                      11.59685                      11.77669
                       0.82603                       5.91467                       6.00655
                       0.91550                       6.55977                       6.66173
        </DataArray>
      </PointData>
      <Lines>
        <DataArray type="Int32" Name="connectivity" format="ascii">
      0      1
      1      2
      2      3
      3      4
      4      5
      5      6
      6      7
      7      8
      8      9
      9     10
     10     11
     11     12
     12     13
     13     14
     14     15
     15     16
     16     17
     17     18
        </DataArray>
        <DataArray type="Int32" Name="offsets" format="ascii">
      2
      4
      6
      8
     10
     12
     14
     16
     18
     20
     22
     24
     26
     28
     30
     32
     34
     36
        </DataArray>
      </Lines>
    </Piece>
  </PolyData>
</VTKFile>
