<?xml version="1.0"?>
<VTKFile type="PolyData" version="0.1" byte_order="LittleEndian">
  <PolyData>
    <Piece NumberOfPoints="     19" NumberOfVerts="  0" NumberOfLines="     18"
           NumberOfStrips="  0" NumberOfPolys="      0">
      <Points>
        <DataArray type="Float32" NumberOfComponents="3" format="ascii">
                      -5.02636                      -1.36832                      90.61989
                      -5.03792                      -2.61358                      91.18297
                      -5.09081                      -5.14255                      92.22372
                      -5.15764                      -7.69011                      93.22297
                      -5.24919                     -10.88624                      94.44560
                      -5.29414                     -14.66628                      96.03511
                      -5.30358                     -18.39587                      97.73677
                      -5.31357                     -22.12632                      99.43667
                      -5.32132                     -25.85688                     101.13659
                      -5.32763                     -29.58811                     102.83527
                      -5.33398                     -33.32122                     104.52997
                      -5.33948                     -37.05536                     106.22254
                      -5.34479                     -40.79026                     107.91354
                      -5.35072                     -44.52570                     109.60346
                      -5.35574                     -48.26162                     111.29240
                      -5.35933                     -51.37525                     112.69922
                      -5.36151                     -53.86311                     113.83146
                      -5.36023                     -56.32896                     115.01348
                      -5.36348                     -57.57874                     115.56632
        </DataArray>
      </Points>
      <PointData>
        <DataArray type="Float32" Name="TranslationalVelocity" NumberOfComponents="3" format="ascii">
                      -0.00765                      -0.02017                      -0.03696
                      -0.01059                      -0.03520                      -0.07026
                      -0.01664                      -0.06290                      -0.13789
                      -0.02283                      -0.08946                      -0.20602
                      -0.03076                      -0.12193                      -0.29149
                      -0.04048                      -0.16430                      -0.39253
                      -0.05059                      -0.20972                      -0.49216
                      -0.06143                      -0.25505                      -0.59171
                      -0.07324                      -0.30031                      -0.69112
                      -0.08629                      -0.34547                      -0.79037
                      -0.10086                      -0.39042                      -0.88944
                      -0.11720                      -0.43521                      -0.98830
                      -0.13555                      -0.47983                      -1.08691
                      -0.15610                      -0.52430                      -1.18527
                      -0.17898                      -0.56862                      -1.28338
                      -0.19990                      -0.60546                      -1.36496
                      -0.21777                      -0.63507                      -1.43005
                      -0.23660                      -0.66598                      -1.49450
                      -0.24640                      -0.68040                      -1.52716
        </DataArray>
        <DataArray type="Float32" Name="RotationalVelocity" NumberOfComponents="3" format="ascii">
                       0.02674                      -0.00009                      -0.00232
                       0.02674                      -0.00010                      -0.00233
                       0.02674                      -0.00011                      -0.00236
                       0.02674                      -0.00013                      -0.00239
                       0.02673                      -0.00016                      -0.00245
                       0.02672                      -0.00021                      -0.00254
                       0.02670                      -0.00028                      -0.00267
                       0.02666                      -0.00038                      -0.00285
                       0.02662                      -0.00051                      -0.00307
                       0.02657                      -0.00067                      -0.00335
                       0.02651                      -0.00085                      -0.00370
                       0.02644                      -0.00107                      -0.00411
                       0.02637                      -0.00131                      -0.00457
                       0.02630                      -0.00156                      -0.00507
                       0.02623                      -0.00180                      -0.00559
                       0.02618                      -0.00199                      -0.00601
                       0.02616                      -0.00212                      -0.00631
                       0.02614                      -0.00222                      -0.00656
                       0.02614                      -0.00225                      -0.00666
        </DataArray>
        <DataArray type="Float32" Name="TranslationalAcceleration" NumberOfComponents="3" format="ascii">
                       0.00586                      -0.01602                       0.00062
                       0.00193                      -0.00403                      -0.00055
                       0.00461                      -0.00934                      -0.00165
                       0.00606                      -0.01167                      -0.00273
                       0.00671                      -0.01177                      -0.00405
                       0.00628                      -0.00940                      -0.00558
                       0.00466                      -0.00578                      -0.00689
                       0.00136                      -0.00180                      -0.00771
                      -0.00443                       0.00208                      -0.00788
                      -0.01388                       0.00576                      -0.00724
                      -0.02831                       0.00939                      -0.00564
                      -0.04917                       0.01328                      -0.00295
                      -0.07790                       0.01779                       0.00091
                      -0.11582                       0.02319                       0.00600
                      -0.16404                       0.02958                       0.01231
                      -0.21286                       0.03554                       0.01849
                      -0.25746                       0.04051                       0.02394
                      -0.30699                       0.04541                       0.02973
                      -0.33366                       0.04768                       0.03281
        </DataArray>
        <DataArray type="Float32" Name="OrientationX" NumberOfComponents="3" format="ascii">
                       0.95187                      -0.13363                      -0.27584
                       0.95187                      -0.13358                      -0.27587
                       0.95187                      -0.13341                      -0.27595
                       0.95187                      -0.13317                      -0.27606
                       0.95187                      -0.13279                      -0.27625
                       0.96116                      -0.11975                      -0.24867
                       0.96724                      -0.11011                      -0.22872
                       0.97214                      -0.10157                      -0.21125
                       0.97689                      -0.09256                      -0.19268
                       0.98131                      -0.08328                      -0.17347
                       0.98507                      -0.07447                      -0.15523
                       0.98838                      -0.06572                      -0.13708
                       0.99102                      -0.05777                      -0.12058
                       0.99280                      -0.05165                      -0.10808
                       0.99436                      -0.04569                      -0.09573
                       0.99552                      -0.04077                      -0.08536
                       0.99629                      -0.03715                      -0.07761
                       0.99668                      -0.03521                      -0.07347
                       0.99668                      -0.03519                      -0.07348
        </DataArray>
        <DataArray type="Float32" Name="OrientationY" NumberOfComponents="3" format="ascii">
                       0.30641                       0.39236                       0.86728
                       0.30641                       0.39220                       0.86735
                       0.30641                       0.39179                       0.86753
                       0.30641                       0.39128                       0.86776
                       0.30642                       0.39056                       0.86808
                       0.27591                       0.39366                       0.87687
                       0.25376                       0.39538                       0.88277
                       0.23431                       0.39663                       0.88757
                       0.21367                       0.39790                       0.89220
                       0.19235                       0.39914                       0.89649
                       0.17210                       0.40019                       0.90013
                       0.15195                       0.40114                       0.90332
                       0.13365                       0.40190                       0.90588
                       0.11974                       0.40235                       0.90762
                       0.10604                       0.40277                       0.90914
                       0.09455                       0.40310                       0.91026
                       0.08601                       0.40334                       0.91100
                       0.08143                       0.40343                       0.91138
                       0.08144                       0.40341                       0.91139
        </DataArray>
        <DataArray type="Float32" Name="OrientationZ" NumberOfComponents="3" format="ascii">
                      -0.00767                      -0.91005                       0.41442
                      -0.00767                      -0.91013                       0.41425
                      -0.00763                      -0.91033                       0.41382
                      -0.00754                      -0.91058                       0.41326
                      -0.00738                      -0.91095                       0.41245
                      -0.00711                      -0.91142                       0.41141
                      -0.00677                      -0.91190                       0.41037
                      -0.00637                      -0.91234                       0.40938
                      -0.00591                      -0.91275                       0.40848
                      -0.00542                      -0.91310                       0.40770
                      -0.00491                      -0.91340                       0.40703
                      -0.00438                      -0.91365                       0.40647
                      -0.00387                      -0.91386                       0.40601
                      -0.00340                      -0.91403                       0.40564
                      -0.00298                      -0.91416                       0.40534
                      -0.00270                      -0.91425                       0.40515
                      -0.00254                      -0.91430                       0.40504
                      -0.00245                      -0.91433                       0.40496
                      -0.00243                      -0.91434                       0.40494
        </DataArray>
        <DataArray type="Float32" Name="Force" NumberOfComponents="3" format="ascii">
                       0.49015                     -10.96694                     -24.07419
                       0.50238                     -10.83267                     -23.77920
                       0.57069                     -11.49241                     -25.22727
                       0.44751                      -8.47584                     -18.60569
                      40.19832                      -7.52145                     -15.81903
                      37.43945                      -6.28661                     -13.18844
                      32.68566                      -5.20026                     -10.91597
                      31.56982                      -4.16489                      -8.69693
                      33.10898                      -3.15071                      -6.48986
                      29.90887                      -2.41077                      -4.94671
                      28.74704                      -1.75999                      -3.57039
                      25.79003                      -1.25247                      -2.52135
                      21.83794                      -0.87842                      -1.76381
                      18.45753                      -0.65243                      -1.31560
                      15.28536                      -0.48369                      -0.98131
                      13.01064                      -0.36794                      -0.74832
                      11.12256                      -0.28363                      -0.57633
                       7.39378                      -0.17070                      -0.34567
                       7.43033                      -0.16420                      -0.33158
        </DataArray>
        <DataArray type="Float32" Name="Moment" NumberOfComponents="3" format="ascii">
                       0.00000                       0.00000                       0.00000
                       0.00000                       0.00000                       0.00000
                       0.00000                       0.00000                       0.00000
                       0.00000                       0.00000                       0.00000
                       0.60656                      76.54702                     -34.85433
                       0.53109                      70.52466                     -32.10973
                       0.41552                      58.87309                     -26.80237
                       0.37820                      57.97219                     -26.38953
                       0.34452                      57.96446                     -26.38309
                       0.26442                      49.58766                     -22.56766
                       0.20897                      44.40756                     -20.20774
                       0.15376                      37.67154                     -17.14045
                       0.10402                      29.89472                     -13.60045
                       0.06801                      23.26182                     -10.58172
                       0.04285                      17.54184                      -7.97899
                       0.02907                      13.71049                      -6.23590
                       0.02043                      10.56727                      -4.80610
                       0.00871                       4.77692                      -2.17255
                       0.00865                       4.79964                      -2.18287
        </DataArray>
      </PointData>
      <Lines>
        <DataArray type="Int32" Name="connectivity" format="ascii">
      0      1
      1      2
      2      3
      3      4
      4      5
      5      6
      6      7
      7      8
      8      9
      9     10
     10     11
     11     12
     12     13
     13     14
     14     15
     15     16
     16     17
     17     18
        </DataArray>
        <DataArray type="Int32" Name="offsets" format="ascii">
      2
      4
      6
      8
     10
     12
     14
     16
     18
     20
     22
     24
     26
     28
     30
     32
     34
     36
        </DataArray>
      </Lines>
    </Piece>
  </PolyData>
</VTKFile>
