<?xml version="1.0"?>
<VTKFile type="PolyData" version="0.1" byte_order="LittleEndian">
  <PolyData>
    <Piece NumberOfPoints="     19" NumberOfVerts="  0" NumberOfLines="     18"
           NumberOfStrips="  0" NumberOfPolys="      0">
      <Points>
        <DataArray type="Float32" NumberOfComponents="3" format="ascii">
                      -5.14318                      -1.30381                      89.24853
                      -5.26368                      -2.47938                      88.56193
                      -5.53393                      -4.78113                      87.10906
                      -5.81786                      -7.05889                      85.61758
                      -6.18056                      -9.89088                      83.72882
                      -6.55157                     -13.36169                      81.57610
                      -6.88764                     -16.89735                      79.52842
                      -7.22420                     -20.43219                      77.47928
                      -7.55857                     -23.96739                      75.43020
                      -7.89161                     -27.50218                      73.38001
                      -8.22487                     -31.03489                      71.32618
                      -8.55757                     -34.56660                      69.27040
                      -8.89045                     -38.09754                      67.21323
                      -9.22442                     -41.62787                      65.15514
                      -9.55805                     -45.15776                      63.09618
                      -9.83599                     -48.09906                      61.37979
                     -10.05802                     -50.45590                      60.01314
                     -10.27719                     -52.84076                      58.69323
                     -10.39057                     -54.01159                      57.99759
        </DataArray>
      </Points>
      <PointData>
        <DataArray type="Float32" Name="TranslationalVelocity" NumberOfComponents="3" format="ascii">
                      -0.01071                      -0.01112                      -0.00475
                      -0.01101                      -0.00867                      -0.00890
                      -0.01169                      -0.00348                      -0.01699
                      -0.01248                       0.00184                      -0.02497
                      -0.01360                       0.00859                      -0.03487
                      -0.01525                       0.01626                      -0.04694
                      -0.01743                       0.02354                      -0.05913
                      -0.02047                       0.03079                      -0.07112
                      -0.02478                       0.03799                      -0.08284
                      -0.03087                       0.04515                      -0.09418
                      -0.03928                       0.05226                      -0.10504
                      -0.05056                       0.05931                      -0.11534
                      -0.06524                       0.06631                      -0.12498
                      -0.08384                       0.07328                      -0.13393
                      -0.10678                       0.08024                      -0.14216
                      -0.12955                       0.08606                      -0.14846
                      -0.15013                       0.09074                      -0.15318
                      -0.17291                       0.09534                      -0.15772
                      -0.18510                       0.09777                      -0.15984
        </DataArray>
        <DataArray type="Float32" Name="RotationalVelocity" NumberOfComponents="3" format="ascii">
                       0.00352                      -0.00004                      -0.00029
                       0.00352                      -0.00003                      -0.00029
                       0.00351                      -0.00002                      -0.00032
                       0.00351                      -0.00000                      -0.00035
                       0.00349                       0.00003                      -0.00040
                       0.00347                       0.00008                      -0.00050
                       0.00344                       0.00016                      -0.00064
                       0.00338                       0.00028                      -0.00086
                       0.00331                       0.00045                      -0.00117
                       0.00321                       0.00068                      -0.00159
                       0.00310                       0.00097                      -0.00213
                       0.00297                       0.00134                      -0.00281
                       0.00282                       0.00178                      -0.00361
                       0.00267                       0.00227                      -0.00450
                       0.00252                       0.00280                      -0.00546
                       0.00241                       0.00325                      -0.00625
                       0.00234                       0.00361                      -0.00686
                       0.00230                       0.00393                      -0.00740
                       0.00229                       0.00408                      -0.00763
        </DataArray>
        <DataArray type="Float32" Name="TranslationalAcceleration" NumberOfComponents="3" format="ascii">
                      -0.01257                       0.01550                      -0.04857
                       0.00153                       0.00612                      -0.01797
                       0.00785                       0.01666                      -0.04724
                       0.01596                       0.02558                      -0.06905
                       0.02468                       0.03560                      -0.08926
                       0.02697                       0.04574                      -0.10591
                       0.01814                       0.05397                      -0.11740
                      -0.00002                       0.06026                      -0.12463
                      -0.02385                       0.06344                      -0.12699
                      -0.04677                       0.06202                      -0.12310
                      -0.05928                       0.05438                      -0.11136
                      -0.04899                       0.03896                      -0.09053
                      -0.00056                       0.01459                      -0.06036
                       0.10425                      -0.01936                      -0.02217
                       0.28662                      -0.06271                       0.02070
                       0.51721                      -0.10528                       0.05563
                       0.76138                      -0.14227                       0.07964
                       1.06640                      -0.18002                       0.09699
                       1.24704                      -0.19990                       0.10097
        </DataArray>
        <DataArray type="Float32" Name="OrientationX" NumberOfComponents="3" format="ascii">
                       0.94942                       0.07996                      -0.30364
                       0.94943                       0.08001                      -0.30362
                       0.94944                       0.08017                      -0.30353
                       0.94947                       0.08040                      -0.30340
                       0.94950                       0.08077                      -0.30319
                       0.95868                       0.06519                      -0.27693
                       0.96470                       0.05408                      -0.25774
                       0.96955                       0.04442                      -0.24083
                       0.97424                       0.03415                      -0.22290
                       0.97861                       0.02352                      -0.20438
                       0.98231                       0.01344                      -0.18679
                       0.98556                       0.00339                      -0.16928
                       0.98815                      -0.00574                      -0.15337
                       0.98989                      -0.01262                      -0.14125
                       0.99141                      -0.01948                      -0.12935
                       0.99252                      -0.02528                      -0.11942
                       0.99326                      -0.02964                      -0.11205
                       0.99362                      -0.03200                      -0.10813
                       0.99362                      -0.03202                      -0.10815
        </DataArray>
        <DataArray type="Float32" Name="OrientationY" NumberOfComponents="3" format="ascii">
                       0.30159                      -0.50136                       0.81097
                       0.30158                      -0.50150                       0.81090
                       0.30154                      -0.50186                       0.81069
                       0.30150                      -0.50230                       0.81043
                       0.30145                      -0.50293                       0.81005
                       0.27095                      -0.50607                       0.81883
                       0.24877                      -0.50826                       0.82449
                       0.22930                      -0.51001                       0.82904
                       0.20864                      -0.51153                       0.83355
                       0.18731                      -0.51276                       0.83785
                       0.16705                      -0.51365                       0.84158
                       0.14690                      -0.51424                       0.84497
                       0.12859                      -0.51457                       0.84775
                       0.11468                      -0.51472                       0.84965
                       0.10097                      -0.51472                       0.85139
                       0.08949                      -0.51461                       0.85274
                       0.08095                      -0.51447                       0.85368
                       0.07639                      -0.51439                       0.85415
                       0.07640                      -0.51441                       0.85414
        </DataArray>
        <DataArray type="Float32" Name="OrientationZ" NumberOfComponents="3" format="ascii">
                      -0.08739                      -0.86153                      -0.50012
                      -0.08739                      -0.86145                      -0.50027
                      -0.08733                      -0.86123                      -0.50066
                      -0.08724                      -0.86095                      -0.50116
                      -0.08706                      -0.86054                      -0.50189
                      -0.08676                      -0.86002                      -0.50283
                      -0.08641                      -0.85951                      -0.50377
                      -0.08600                      -0.85902                      -0.50466
                      -0.08556                      -0.85859                      -0.50548
                      -0.08510                      -0.85821                      -0.50619
                      -0.08463                      -0.85790                      -0.50681
                      -0.08419                      -0.85764                      -0.50732
                      -0.08378                      -0.85743                      -0.50773
                      -0.08343                      -0.85726                      -0.50807
                      -0.08316                      -0.85713                      -0.50834
                      -0.08301                      -0.85705                      -0.50850
                      -0.08295                      -0.85700                      -0.50860
                      -0.08295                      -0.85696                      -0.50866
                      -0.08298                      -0.85695                      -0.50868
        </DataArray>
        <DataArray type="Float32" Name="Force" NumberOfComponents="3" format="ascii">
                       3.03004                     -20.46976                      34.73283
                      10.06126                     -22.41845                      36.86134
                      12.93863                     -23.62519                      38.43908
                       7.71530                     -16.83545                      27.65605
                      -5.63557                      -1.51738                       3.59289
                     -23.46358                      -1.31279                       6.32030
                     -22.22593                      -1.00193                       5.55091
                     -14.51226                      -0.46053                       3.27657
                      -0.45927                      -0.25767                       0.52182
                       2.65208                      -0.28178                       0.03686
                       8.20508                      -0.41224                      -0.66875
                       8.82060                      -0.47277                      -0.65934
                      11.04889                      -0.45643                      -1.04982
                      11.20801                      -0.50881                      -0.97756
                      11.19233                      -0.56765                      -0.86708
                      11.32293                      -0.59585                      -0.83628
                      11.50304                      -0.60465                      -0.84917
                       9.22647                      -0.46104                      -0.72229
                      14.27562                      -0.45961                      -1.55500
        </DataArray>
        <DataArray type="Float32" Name="Moment" NumberOfComponents="3" format="ascii">
                       0.00000                       0.00000                       0.00000
                       0.00000                       0.00000                       0.00000
                       0.00000                       0.00000                       0.00000
                       0.00000                       0.00000                       0.00000
                       2.65030                      26.27399                      15.25334
                       4.55285                      45.32878                      26.31729
                       4.03655                      40.39269                      23.45325
                       3.24705                      32.67580                      18.97418
                       3.53381                      35.77476                      20.77554
                       3.00001                      30.55730                      17.74720
                       2.45371                      25.14480                      14.60501
                       2.02029                      20.82354                      12.09609
                       1.17339                      12.15861                       7.06330
                       0.97867                      10.18716                       5.91841
                       0.82696                       8.63858                       5.01900
                       0.72493                       7.58813                       4.40882
                       0.62269                       6.52327                       3.79016
                       0.31986                       3.35092                       1.94696
                       0.34058                       3.56690                       2.07244
        </DataArray>
      </PointData>
      <Lines>
        <DataArray type="Int32" Name="connectivity" format="ascii">
      0      1
      1      2
      2      3
      3      4
      4      5
      5      6
      6      7
      7      8
      8      9
      9     10
     10     11
     11     12
     12     13
     13     14
     14     15
     15     16
     16     17
     17     18
        </DataArray>
        <DataArray type="Int32" Name="offsets" format="ascii">
      2
      4
      6
      8
     10
     12
     14
     16
     18
     20
     22
     24
     26
     28
     30
     32
     34
     36
        </DataArray>
      </Lines>
    </Piece>
  </PolyData>
</VTKFile>
