<?xml version="1.0"?>
<VTKFile type="PolyData" version="0.1" byte_order="LittleEndian">
  <PolyData>
    <Piece NumberOfPoints="     19" NumberOfVerts="  0" NumberOfLines="     18"
           NumberOfStrips="  0" NumberOfPolys="      0">
      <Points>
        <DataArray type="Float32" NumberOfComponents="3" format="ascii">
                      -5.14905                      -1.26934                      89.18990
                      -5.27414                      -2.41176                      88.45020
                      -5.55334                      -4.64348                      86.89349
                      -5.84606                      -6.84946                      85.29932
                      -6.21964                      -9.59061                      83.28297
                      -6.60387                     -12.95788                      80.97375
                      -6.95324                     -16.39492                      78.76656
                      -7.30283                     -19.83112                      76.55799
                      -7.64985                     -23.26776                      74.34950
                      -7.99505                     -26.70399                      72.13992
                      -8.33985                     -30.13804                      69.92678
                      -8.68334                     -33.57104                      67.71170
                      -9.02615                     -37.00325                      65.49521
                      -9.36909                     -40.43486                      63.27775
                      -9.71062                     -43.86602                      61.05934
                      -9.99424                     -46.72505                      59.21003
                     -10.22028                     -49.01639                      57.73679
                     -10.44303                     -51.33790                      56.30894
                     -10.55792                     -52.47544                      55.56032
        </DataArray>
      </Points>
      <PointData>
        <DataArray type="Float32" Name="TranslationalVelocity" NumberOfComponents="3" format="ascii">
                       0.00925                       0.01774                      -0.01048
                       0.00812                       0.02473                      -0.02109
                       0.00578                       0.03947                      -0.04180
                       0.00328                       0.05455                      -0.06221
                      -0.00014                       0.07363                      -0.08750
                      -0.00486                       0.09540                      -0.11846
                      -0.01042                       0.11615                      -0.14988
                      -0.01706                       0.13688                      -0.18106
                      -0.02500                       0.15756                      -0.21198
                      -0.03451                       0.17822                      -0.24261
                      -0.04580                       0.19889                      -0.27291
                      -0.05909                       0.21956                      -0.30287
                      -0.07452                       0.24024                      -0.33250
                      -0.09218                       0.26094                      -0.36181
                      -0.11210                       0.28168                      -0.39081
                      -0.13041                       0.29900                      -0.41477
                      -0.14605                       0.31283                      -0.43388
                      -0.16243                       0.32627                      -0.45318
                      -0.17096                       0.33333                      -0.46259
        </DataArray>
        <DataArray type="Float32" Name="RotationalVelocity" NumberOfComponents="3" format="ascii">
                       0.00932                       0.00024                      -0.00083
                       0.00932                       0.00025                      -0.00084
                       0.00931                       0.00027                      -0.00088
                       0.00929                       0.00032                      -0.00093
                       0.00927                       0.00039                      -0.00101
                       0.00923                       0.00051                      -0.00114
                       0.00919                       0.00068                      -0.00131
                       0.00914                       0.00089                      -0.00150
                       0.00909                       0.00116                      -0.00173
                       0.00903                       0.00148                      -0.00200
                       0.00897                       0.00185                      -0.00229
                       0.00892                       0.00227                      -0.00263
                       0.00887                       0.00273                      -0.00298
                       0.00882                       0.00320                      -0.00335
                       0.00878                       0.00365                      -0.00371
                       0.00875                       0.00398                      -0.00399
                       0.00874                       0.00420                      -0.00419
                       0.00873                       0.00435                      -0.00435
                       0.00873                       0.00440                      -0.00441
        </DataArray>
        <DataArray type="Float32" Name="TranslationalAcceleration" NumberOfComponents="3" format="ascii">
                       0.02083                       0.02307                       0.00881
                       0.00480                       0.00755                       0.00205
                       0.01079                       0.01885                       0.00473
                       0.01282                       0.02599                       0.00595
                       0.01121                       0.03095                       0.00619
                       0.00528                       0.03318                       0.00516
                      -0.00331                       0.03365                       0.00355
                      -0.01439                       0.03399                       0.00215
                      -0.02814                       0.03510                       0.00125
                      -0.04542                       0.03732                       0.00093
                      -0.06775                       0.04062                       0.00121
                      -0.09700                       0.04472                       0.00202
                      -0.13543                       0.04927                       0.00335
                      -0.18552                       0.05396                       0.00528
                      -0.24984                       0.05875                       0.00799
                      -0.31648                       0.06303                       0.01119
                      -0.37864                       0.06688                       0.01456
                      -0.44767                       0.07141                       0.01876
                      -0.48720                       0.07422                       0.02159
        </DataArray>
        <DataArray type="Float32" Name="OrientationX" NumberOfComponents="3" format="ascii">
                       0.94978                       0.08999                      -0.29971
                       0.94978                       0.09004                      -0.29967
                       0.94980                       0.09020                      -0.29957
                       0.94982                       0.09044                      -0.29943
                       0.94986                       0.09082                      -0.29920
                       0.95897                       0.07405                      -0.27365
                       0.96496                       0.06209                      -0.25496
                       0.96977                       0.05171                      -0.23849
                       0.97443                       0.04070                      -0.22100
                       0.97876                       0.02932                      -0.20292
                       0.98243                       0.01857                      -0.18572
                       0.98565                       0.00789                      -0.16860
                       0.98822                      -0.00177                      -0.15300
                       0.98996                      -0.00899                      -0.14108
                       0.99147                      -0.01616                      -0.12936
                       0.99257                      -0.02222                      -0.11959
                       0.99331                      -0.02678                      -0.11234
                       0.99367                      -0.02919                      -0.10845
                       0.99368                      -0.02915                      -0.10843
        </DataArray>
        <DataArray type="Float32" Name="OrientationY" NumberOfComponents="3" format="ascii">
                       0.29947                      -0.53917                       0.78715
                       0.29946                      -0.53930                       0.78707
                       0.29943                      -0.53964                       0.78685
                       0.29939                      -0.54006                       0.78658
                       0.29933                      -0.54065                       0.78619
                       0.26882                      -0.54404                       0.79483
                       0.24664                      -0.54637                       0.80041
                       0.22717                      -0.54823                       0.80489
                       0.20652                      -0.54985                       0.80933
                       0.18518                      -0.55117                       0.81359
                       0.16494                      -0.55213                       0.81728
                       0.14480                      -0.55279                       0.82064
                       0.12650                      -0.55317                       0.82341
                       0.11259                      -0.55335                       0.82530
                       0.09889                      -0.55339                       0.82703
                       0.08742                      -0.55330                       0.82838
                       0.07888                      -0.55317                       0.82932
                       0.07431                      -0.55310                       0.82979
                       0.07432                      -0.55312                       0.82978
        </DataArray>
        <DataArray type="Float32" Name="OrientationZ" NumberOfComponents="3" format="ascii">
                      -0.09076                      -0.83737                      -0.53904
                      -0.09075                      -0.83729                      -0.53918
                      -0.09068                      -0.83705                      -0.53956
                      -0.09057                      -0.83675                      -0.54004
                      -0.09036                      -0.83633                      -0.54073
                      -0.09002                      -0.83578                      -0.54163
                      -0.08961                      -0.83524                      -0.54254
                      -0.08912                      -0.83473                      -0.54340
                      -0.08858                      -0.83427                      -0.54419
                      -0.08799                      -0.83388                      -0.54489
                      -0.08736                      -0.83355                      -0.54549
                      -0.08672                      -0.83328                      -0.54601
                      -0.08609                      -0.83307                      -0.54643
                      -0.08549                      -0.83290                      -0.54678
                      -0.08495                      -0.83277                      -0.54706
                      -0.08458                      -0.83269                      -0.54725
                      -0.08435                      -0.83264                      -0.54736
                      -0.08420                      -0.83260                      -0.54743
                      -0.08416                      -0.83259                      -0.54745
        </DataArray>
        <DataArray type="Float32" Name="Force" NumberOfComponents="3" format="ascii">
                       3.45417                     -25.87590                      39.61519
                      11.58552                     -28.60784                      42.49035
                      14.05773                     -29.77470                      43.88868
                       8.45514                     -21.32419                      31.70524
                     -10.04505                      -2.24854                       5.17371
                     -34.05779                      -2.23569                       9.14566
                     -32.98340                      -1.90727                       8.42576
                     -18.30272                      -0.84333                       4.32223
                      -2.76855                      -0.42365                       1.11036
                       0.27708                      -0.32459                       0.45901
                       6.65113                      -0.40220                      -0.44623
                       7.35601                      -0.46465                      -0.45341
                       7.83257                      -0.48960                      -0.48106
                       8.08771                      -0.51862                      -0.46697
                       7.08643                      -0.51675                      -0.30505
                       7.18786                      -0.54554                      -0.27105
                       8.02217                      -0.57556                      -0.35065
                       9.13936                      -0.49767                      -0.64211
                      18.07152                      -0.53901                      -1.95883
        </DataArray>
        <DataArray type="Float32" Name="Moment" NumberOfComponents="3" format="ascii">
                       0.00000                       0.00000                       0.00000
                       0.00000                       0.00000                       0.00000
                       0.00000                       0.00000                       0.00000
                       0.00000                       0.00000                       0.00000
                       2.81690                      26.14602                      16.83247
                       4.53258                      42.26349                      27.21051
                       3.98618                      37.37375                      24.06427
                       3.85307                      36.35272                      23.40896
                       4.42049                      41.99470                      27.04471
                       3.85075                      36.85306                      23.73597
                       3.31797                      32.00003                      20.61251
                       2.80384                      27.25488                      17.55790
                       1.70702                      16.72255                      10.77402
                       1.41869                      14.00097                       9.02147
                       1.16641                      11.58756                       7.46708
                       0.97513                       9.73201                       6.27174
                       0.79454                       7.95210                       5.12489
                       0.38326                       3.84285                       2.47666
                       0.43889                       4.40277                       2.83754
        </DataArray>
      </PointData>
      <Lines>
        <DataArray type="Int32" Name="connectivity" format="ascii">
      0      1
      1      2
      2      3
      3      4
      4      5
      5      6
      6      7
      7      8
      8      9
      9     10
     10     11
     11     12
     12     13
     13     14
     14     15
     15     16
     16     17
     17     18
        </DataArray>
        <DataArray type="Int32" Name="offsets" format="ascii">
      2
      4
      6
      8
     10
     12
     14
     16
     18
     20
     22
     24
     26
     28
     30
     32
     34
     36
        </DataArray>
      </Lines>
    </Piece>
  </PolyData>
</VTKFile>
