<?xml version="1.0"?>
<VTKFile type="PolyData" version="0.1" byte_order="LittleEndian">
  <PolyData>
    <Piece NumberOfPoints="     19" NumberOfVerts="  0" NumberOfLines="     18"
           NumberOfStrips="  0" NumberOfPolys="      0">
      <Points>
        <DataArray type="Float32" NumberOfComponents="3" format="ascii">
                      -4.95019                      -0.03007                      91.49691
                      -4.89182                      -0.04693                      92.86224
                      -4.79741                      -0.17533                      95.59284
                      -4.71344                      -0.34861                      98.32344
                      -4.61448                      -0.59206                     101.73675
                      -4.44216                      -0.74128                     105.83174
                      -4.24491                      -0.76065                     109.92692
                      -4.04907                      -0.77762                     114.02216
                      -3.85212                      -0.79038                     118.11740
                      -3.65485                      -0.80082                     122.21263
                      -3.45852                      -0.81261                     126.30788
                      -3.26239                      -0.82422                     130.40314
                      -3.06707                      -0.83564                     134.49843
                      -2.87327                      -0.84691                     138.59379
                      -2.67924                      -0.85814                     142.68916
                      -2.51731                      -0.86748                     146.10201
                      -2.38776                      -0.86706                     148.83232
                      -2.25894                      -0.81163                     151.56326
                      -2.19511                      -0.82560                     152.92829
        </DataArray>
      </Points>
      <PointData>
        <DataArray type="Float32" Name="TranslationalVelocity" NumberOfComponents="3" format="ascii">
                       0.00547                      -0.00169                       0.00179
                       0.00595                      -0.00713                       0.00171
                       0.00693                      -0.01800                       0.00116
                       0.00782                      -0.02887                       0.00045
                       0.00868                      -0.04244                      -0.00055
                       0.00921                      -0.05873                      -0.00117
                       0.00904                      -0.07502                      -0.00126
                       0.00814                      -0.09136                      -0.00130
                       0.00667                      -0.10779                      -0.00129
                       0.00495                      -0.12437                      -0.00126
                       0.00348                      -0.14118                      -0.00125
                       0.00296                      -0.15826                      -0.00129
                       0.00425                      -0.17567                      -0.00141
                       0.00843                      -0.19343                      -0.00166
                       0.01677                      -0.21155                      -0.00211
                       0.02810                      -0.22691                      -0.00270
                       0.04059                      -0.23934                      -0.00329
                       0.05674                      -0.25188                      -0.00380
                       0.06638                      -0.25817                      -0.00431
        </DataArray>
        <DataArray type="Float32" Name="RotationalVelocity" NumberOfComponents="3" format="ascii">
                       0.00397                       0.00037                      -0.00036
                       0.00397                       0.00037                      -0.00036
                       0.00397                       0.00035                      -0.00036
                       0.00397                       0.00031                      -0.00035
                       0.00397                       0.00022                      -0.00035
                       0.00397                       0.00007                      -0.00034
                       0.00397                      -0.00010                      -0.00032
                       0.00399                      -0.00026                      -0.00030
                       0.00401                      -0.00037                      -0.00026
                       0.00405                      -0.00039                      -0.00022
                       0.00411                      -0.00025                      -0.00017
                       0.00418                       0.00008                      -0.00011
                       0.00427                       0.00065                      -0.00006
                       0.00435                       0.00150                      -0.00001
                       0.00444                       0.00264                       0.00001
                       0.00449                       0.00381                       0.00000
                       0.00452                       0.00490                      -0.00002
                       0.00453                       0.00611                      -0.00008
                       0.00452                       0.00676                      -0.00012
        </DataArray>
        <DataArray type="Float32" Name="TranslationalAcceleration" NumberOfComponents="3" format="ascii">
                      -0.00343                       0.02963                      -0.02833
                      -0.00807                       0.00784                      -0.00819
                      -0.02419                       0.01869                      -0.01995
                      -0.03714                       0.02404                      -0.02682
                      -0.04510                       0.02492                      -0.03086
                      -0.03829                       0.02005                      -0.03157
                      -0.01169                       0.01163                      -0.03093
                       0.03371                       0.00211                      -0.03098
                       0.09294                      -0.00655                      -0.03251
                       0.15745                      -0.01283                      -0.03539
                       0.21518                      -0.01560                      -0.03884
                       0.25051                      -0.01400                      -0.04163
                       0.24437                      -0.00747                      -0.04226
                       0.17432                       0.00441                      -0.03927
                       0.01457                       0.02190                      -0.03129
                      -0.21033                       0.04098                      -0.01993
                      -0.46067                       0.05909                      -0.00769
                      -0.78517                       0.07987                       0.00700
                      -0.97858                       0.09127                       0.01559
        </DataArray>
        <DataArray type="Float32" Name="OrientationX" NumberOfComponents="3" format="ascii">
                       0.97204                      -0.23057                      -0.04439
                       0.97204                      -0.23057                      -0.04441
                       0.97204                      -0.23057                      -0.04446
                       0.97203                      -0.23059                      -0.04454
                       0.97202                      -0.23061                      -0.04467
                       0.97887                      -0.19951                      -0.04485
                       0.98318                      -0.17700                      -0.04502
                       0.98652                      -0.15730                      -0.04520
                       0.98961                      -0.13643                      -0.04538
                       0.99233                      -0.11489                      -0.04554
                       0.99448                      -0.09449                      -0.04570
                       0.99619                      -0.07420                      -0.04585
                       0.99738                      -0.05579                      -0.04601
                       0.99806                      -0.04182                      -0.04618
                       0.99853                      -0.02804                      -0.04634
                       0.99878                      -0.01650                      -0.04645
                       0.99889                      -0.00791                      -0.04653
                       0.99891                      -0.00332                      -0.04661
                       0.99890                      -0.00332                      -0.04667
        </DataArray>
        <DataArray type="Float32" Name="OrientationY" NumberOfComponents="3" format="ascii">
                       0.23078                       0.97301                      -0.00045
                       0.23078                       0.97301                      -0.00045
                       0.23078                       0.97301                      -0.00045
                       0.23079                       0.97300                      -0.00045
                       0.23082                       0.97300                      -0.00045
                       0.19976                       0.97985                       0.00097
                       0.17727                       0.98416                       0.00200
                       0.15759                       0.98750                       0.00291
                       0.13674                       0.99060                       0.00387
                       0.11523                       0.99333                       0.00486
                       0.09485                       0.99547                       0.00580
                       0.07459                       0.99719                       0.00674
                       0.05620                       0.99839                       0.00760
                       0.04224                       0.99907                       0.00825
                       0.02848                       0.99955                       0.00889
                       0.01695                       0.99981                       0.00943
                       0.00838                       0.99992                       0.00983
                       0.00379                       0.99994                       0.01005
                       0.00380                       0.99994                       0.01005
        </DataArray>
        <DataArray type="Float32" Name="OrientationZ" NumberOfComponents="3" format="ascii">
                       0.04329                      -0.00981                       0.99901
                       0.04331                      -0.00981                       0.99901
                       0.04337                      -0.00983                       0.99901
                       0.04345                      -0.00984                       0.99901
                       0.04357                      -0.00987                       0.99900
                       0.04375                      -0.00991                       0.99899
                       0.04396                      -0.00995                       0.99898
                       0.04418                      -0.00999                       0.99897
                       0.04442                      -0.01003                       0.99896
                       0.04468                      -0.01007                       0.99895
                       0.04494                      -0.01011                       0.99894
                       0.04522                      -0.01014                       0.99893
                       0.04551                      -0.01016                       0.99891
                       0.04579                      -0.01018                       0.99890
                       0.04607                      -0.01020                       0.99889
                       0.04629                      -0.01021                       0.99888
                       0.04644                      -0.01021                       0.99887
                       0.04658                      -0.01021                       0.99886
                       0.04663                      -0.01021                       0.99886
        </DataArray>
        <DataArray type="Float32" Name="Force" NumberOfComponents="3" format="ascii">
                      -0.13704                    -157.16953                      -1.53736
                      -0.14401                    -157.96129                      -1.54483
                      -0.17224                    -173.56922                      -1.69686
                      -0.14150                    -132.61959                      -1.29610
                     206.63999                     -75.74544                      -9.75605
                     197.07816                     -59.78270                      -9.21788
                     176.93002                     -47.06574                      -8.24707
                     199.94957                     -37.48327                      -9.21093
                     222.19743                     -27.81928                     -10.15372
                     176.97785                     -20.48541                      -8.11628
                     147.23266                     -13.38066                      -6.75580
                     108.52636                     -10.14446                      -5.01283
                      72.07233                      -8.65359                      -3.36845
                      49.56788                      -7.40458                      -2.34513
                      29.58449                      -6.23392                      -1.42573
                      14.65153                      -5.30140                      -0.73100
                       4.41416                      -4.47013                      -0.24914
                      -0.69017                      -2.96063                       0.00310
                      -1.16019                      -2.98356                       0.02486
        </DataArray>
        <DataArray type="Float32" Name="Moment" NumberOfComponents="3" format="ascii">
                       0.00000                       0.00000                       0.00000
                       0.00000                       0.00000                       0.00000
                       0.00000                       0.00000                       0.00000
                       0.00000                       0.00000                       0.00000
                     -18.82622                       4.23872                    -431.66187
                     -17.82326                       3.99642                    -406.97974
                     -15.34219                       3.42406                    -348.68753
                     -19.11652                       4.24474                    -432.25258
                     -19.93534                       4.40256                    -448.31420
                     -14.91874                       3.27587                    -333.57568
                     -11.65104                       2.54311                    -258.95399
                      -8.03129                       1.74224                    -177.40096
                      -4.96561                       1.07046                    -108.99577
                      -3.15594                       0.67611                     -68.84050
                      -1.72673                       0.36770                     -37.43812
                      -0.78968                       0.16738                     -17.04139
                      -0.21586                       0.04560                      -4.64272
                       0.02248                      -0.00473                       0.48206
                       0.03808                      -0.00801                       0.81565
        </DataArray>
      </PointData>
      <Lines>
        <DataArray type="Int32" Name="connectivity" format="ascii">
      0      1
      1      2
      2      3
      3      4
      4      5
      5      6
      6      7
      7      8
      8      9
      9     10
     10     11
     11     12
     12     13
     13     14
     14     15
     15     16
     16     17
     17     18
        </DataArray>
        <DataArray type="Int32" Name="offsets" format="ascii">
      2
      4
      6
      8
     10
     12
     14
     16
     18
     20
     22
     24
     26
     28
     30
     32
     34
     36
        </DataArray>
      </Lines>
    </Piece>
  </PolyData>
</VTKFile>
