<?xml version="1.0"?>
<VTKFile type="PolyData" version="0.1" byte_order="LittleEndian">
  <PolyData>
    <Piece NumberOfPoints="     19" NumberOfVerts="  0" NumberOfLines="     18"
           NumberOfStrips="  0" NumberOfPolys="      0">
      <Points>
        <DataArray type="Float32" NumberOfComponents="3" format="ascii">
                      -5.19426                      -0.69575                      88.67556
                      -5.36010                      -1.31527                      87.46865
                      -5.71765                      -2.46909                      85.01450
                      -6.08728                      -3.58208                      82.54098
                      -6.55626                      -4.94817                      79.43713
                      -7.06015                      -6.71406                      75.76992
                      -7.53407                      -8.59422                      72.15747
                      -8.00909                     -10.47469                      68.54528
                      -8.48269                     -12.35727                      64.93393
                      -8.95576                     -14.24047                      61.32276
                      -9.42980                     -16.12124                      57.71043
                      -9.90411                     -18.00120                      54.09767
                     -10.37942                     -19.88058                      50.48471
                     -10.85659                     -21.75953                      46.87176
                     -11.33402                     -23.63812                      43.25865
                     -11.73213                     -25.20338                      40.24760
                     -12.05068                     -26.46242                      37.84234
                     -12.36823                     -27.77030                      35.46189
                     -12.52933                     -28.38692                      34.25299
        </DataArray>
      </Points>
      <PointData>
        <DataArray type="Float32" Name="TranslationalVelocity" NumberOfComponents="3" format="ascii">
                      -0.00176                       0.02871                      -0.01847
                      -0.00313                       0.06117                      -0.03494
                      -0.00534                       0.12720                      -0.06566
                      -0.00703                       0.19376                      -0.09537
                      -0.00838                       0.27731                      -0.13195
                      -0.00892                       0.37599                      -0.17943
                      -0.00760                       0.47331                      -0.23029
                      -0.00329                       0.57085                      -0.28167
                       0.00499                       0.66865                      -0.33377
                       0.01828                       0.76678                      -0.38671
                       0.03764                       0.86532                      -0.44058
                       0.06402                       0.96426                      -0.49554
                       0.09829                       1.06356                      -0.55171
                       0.14107                       1.16318                      -0.60917
                       0.19275                       1.26301                      -0.66791
                       0.24283                       1.34628                      -0.71782
                       0.28712                       1.41277                      -0.75849
                       0.33494                       1.47846                      -0.80096
                       0.36020                       1.51176                      -0.82131
        </DataArray>
        <DataArray type="Float32" Name="RotationalVelocity" NumberOfComponents="3" format="ascii">
                       0.02658                      -0.00006                      -0.00231
                       0.02658                      -0.00009                      -0.00229
                       0.02658                      -0.00019                      -0.00224
                       0.02660                      -0.00033                      -0.00216
                       0.02663                      -0.00058                      -0.00203
                       0.02669                      -0.00098                      -0.00181
                       0.02678                      -0.00153                      -0.00151
                       0.02690                      -0.00225                      -0.00111
                       0.02706                      -0.00317                      -0.00060
                       0.02724                      -0.00431                       0.00004
                       0.02744                      -0.00569                       0.00081
                       0.02766                      -0.00729                       0.00171
                       0.02788                      -0.00907                       0.00271
                       0.02810                      -0.01098                       0.00377
                       0.02828                      -0.01290                       0.00483
                       0.02840                      -0.01441                       0.00566
                       0.02846                      -0.01548                       0.00622
                       0.02848                      -0.01636                       0.00666
                       0.02848                      -0.01669                       0.00682
        </DataArray>
        <DataArray type="Float32" Name="TranslationalAcceleration" NumberOfComponents="3" format="ascii">
                       0.01714                       0.01857                       0.00291
                       0.00461                       0.00606                       0.00176
                       0.01196                       0.01514                       0.00465
                       0.01758                       0.02100                       0.00676
                       0.02397                       0.02549                       0.00839
                       0.03353                       0.02890                       0.00886
                       0.04892                       0.03216                       0.00757
                       0.07431                       0.03672                       0.00421
                       0.11396                       0.04348                      -0.00174
                       0.17233                       0.05292                      -0.01090
                       0.25413                       0.06510                      -0.02401
                       0.36429                       0.07986                      -0.04181
                       0.50795                       0.09683                      -0.06504
                       0.69052                       0.11554                      -0.09446
                       0.91765                       0.13564                      -0.13060
                       1.14618                       0.15323                      -0.16631
                       1.35600                       0.16775                      -0.19855
                       1.59268                       0.18256                      -0.23458
                       1.72103                       0.19026                      -0.25354
        </DataArray>
        <DataArray type="Float32" Name="OrientationX" NumberOfComponents="3" format="ascii">
                       0.95614                       0.18551                      -0.22666
                       0.95615                       0.18553                      -0.22663
                       0.95616                       0.18559                      -0.22653
                       0.95618                       0.18567                      -0.22638
                       0.95621                       0.18580                      -0.22616
                       0.96426                       0.15811                      -0.21260
                       0.96947                       0.13811                      -0.20260
                       0.97361                       0.12062                      -0.19376
                       0.97754                       0.10209                      -0.18437
                       0.98113                       0.08296                      -0.17467
                       0.98409                       0.06484                      -0.16544
                       0.98660                       0.04684                      -0.15626
                       0.98853                       0.03051                      -0.14790
                       0.98977                       0.01816                      -0.14153
                       0.99079                       0.00597                      -0.13528
                       0.99150                      -0.00424                      -0.13006
                       0.99194                      -0.01185                      -0.12618
                       0.99214                      -0.01590                      -0.12412
                       0.99214                      -0.01588                      -0.12413
        </DataArray>
        <DataArray type="Float32" Name="OrientationY" NumberOfComponents="3" format="ascii">
                       0.26689                      -0.87063                       0.41326
                       0.26688                      -0.87066                       0.41319
                       0.26685                      -0.87076                       0.41300
                       0.26683                      -0.87088                       0.41276
                       0.26680                      -0.87105                       0.41242
                       0.23614                      -0.87675                       0.41899
                       0.21388                      -0.88037                       0.42333
                       0.19437                      -0.88317                       0.42689
                       0.17370                      -0.88571                       0.43053
                       0.15236                      -0.88788                       0.43412
                       0.13214                      -0.88953                       0.43735
                       0.11204                      -0.89078                       0.44040
                       0.09381                      -0.89159                       0.44303
                       0.07998                      -0.89200                       0.44491
                       0.06637                      -0.89222                       0.44669
                       0.05497                      -0.89227                       0.44814
                       0.04649                      -0.89223                       0.44919
                       0.04196                      -0.89218                       0.44973
                       0.04198                      -0.89219                       0.44971
        </DataArray>
        <DataArray type="Float32" Name="OrientationZ" NumberOfComponents="3" format="ascii">
                      -0.12067                      -0.45562                      -0.88196
                      -0.12066                      -0.45555                      -0.88200
                      -0.12060                      -0.45534                      -0.88211
                      -0.12052                      -0.45508                      -0.88226
                      -0.12037                      -0.45470                      -0.88247
                      -0.12015                      -0.45422                      -0.88275
                      -0.11990                      -0.45374                      -0.88303
                      -0.11963                      -0.45329                      -0.88330
                      -0.11935                      -0.45288                      -0.88354
                      -0.11907                      -0.45254                      -0.88376
                      -0.11881                      -0.45225                      -0.88394
                      -0.11856                      -0.45201                      -0.88410
                      -0.11835                      -0.45182                      -0.88422
                      -0.11817                      -0.45167                      -0.88432
                      -0.11803                      -0.45156                      -0.88440
                      -0.11795                      -0.45148                      -0.88445
                      -0.11791                      -0.45143                      -0.88448
                      -0.11789                      -0.45140                      -0.88450
                      -0.11789                      -0.45139                      -0.88451
        </DataArray>
        <DataArray type="Float32" Name="Force" NumberOfComponents="3" format="ascii">
                       5.45666                    -122.54344                      62.56017
                      18.08385                    -136.91727                      68.25837
                      20.71188                    -138.38336                      68.65729
                      14.70989                     -99.33346                      49.30582
                     -34.66347                     -12.33227                      11.09980
                     -86.27335                     -13.79542                      18.87262
                     -85.87643                     -11.64503                      17.68049
                     -46.19152                      -5.24556                       8.96852
                     -16.52543                      -2.45274                       3.50045
                      -5.42332                      -1.75620                       1.63829
                       0.64232                      -1.28599                       0.57782
                      -5.62734                      -1.08677                       1.31656
                       4.15835                      -1.33292                       0.13139
                       4.61828                      -1.09817                      -0.05049
                       7.82318                      -1.28822                      -0.37968
                      18.35602                      -1.61067                      -1.61828
                      27.59101                      -1.85356                      -2.72414
                      29.42179                      -1.47529                      -3.16313
                      40.00093                      -1.18422                      -4.72476
        </DataArray>
        <DataArray type="Float32" Name="Moment" NumberOfComponents="3" format="ascii">
                       0.00000                       0.00000                       0.00000
                       0.00000                       0.00000                       0.00000
                       0.00000                       0.00000                       0.00000
                       0.00000                       0.00000                       0.00000
                       9.19949                      34.83408                      67.43091
                      14.73663                      55.91282                     108.23717
                      13.30888                      50.61157                      97.97757
                      13.32035                      50.77942                      98.30535
                      15.63586                      59.75578                     115.68637
                      13.79553                      52.85240                     102.32448
                      12.27328                      47.13043                      91.24901
                      10.47690                      40.31847                      78.06236
                       6.38939                      24.63488                      47.69774
                       5.73323                      22.13994                      42.86785
                       5.08022                      19.64226                      38.03234
                       4.46869                      17.29046                      33.47895
                       3.75548                      14.53618                      28.14605
                       1.76508                       6.83316                      13.23090
                       1.60149                       6.19987                      12.00467
        </DataArray>
      </PointData>
      <Lines>
        <DataArray type="Int32" Name="connectivity" format="ascii">
      0      1
      1      2
      2      3
      3      4
      4      5
      5      6
      6      7
      7      8
      8      9
      9     10
     10     11
     11     12
     12     13
     13     14
     14     15
     15     16
     16     17
     17     18
        </DataArray>
        <DataArray type="Int32" Name="offsets" format="ascii">
      2
      4
      6
      8
     10
     12
     14
     16
     18
     20
     22
     24
     26
     28
     30
     32
     34
     36
        </DataArray>
      </Lines>
    </Piece>
  </PolyData>
</VTKFile>
